%!PS-Adobe-3.0 EPSF-3.0
%%BoundingBox: 0 15 772 539
%%HiResBoundingBox: 0.000000 15.339453 771.975391 538.448828
%.......................................
%%Creator: GPL Ghostscript 870 (epswrite)
%%CreationDate: 2014/01/15 22:07:20
%%DocumentData: Clean7Bit
%%LanguageLevel: 2
%%EndComments
%%BeginProlog
% This copyright applies to everything between here and the %%EndProlog:
% Copyright (C) 2009 Artifex Software, Inc.  All rights reserved.
%%BeginResource: procset GS_epswrite_2_0_1001 1.001 0
/GS_epswrite_2_0_1001 80 dict dup begin
/PageSize 2 array def/setpagesize{ PageSize aload pop 3 index eq exch
4 index eq and{ pop pop pop}{ PageSize dup  1
5 -1 roll put 0 4 -1 roll put dup null eq {false} {dup where} ifelse{ exch get exec}
{ pop/setpagedevice where
{ pop 1 dict dup /PageSize PageSize put setpagedevice}
{ /setpage where{ pop PageSize aload pop pageparams 3 {exch pop} repeat
setpage}if}ifelse}ifelse}ifelse} bind def
/!{bind def}bind def/#{load def}!/N/counttomark #
/rG{3{3 -1 roll 255 div}repeat setrgbcolor}!/G{255 div setgray}!/K{0 G}!
/r6{dup 3 -1 roll rG}!/r5{dup 3 1 roll rG}!/r3{dup rG}!
/w/setlinewidth #/J/setlinecap #
/j/setlinejoin #/M/setmiterlimit #/d/setdash #/i/setflat #
/m/moveto #/l/lineto #/c/rcurveto #
/p{N 2 idiv{N -2 roll rlineto}repeat}!
/P{N 0 gt{N -2 roll moveto p}if}!
/h{p closepath}!/H{P closepath}!
/lx{0 rlineto}!/ly{0 exch rlineto}!/v{0 0 6 2 roll c}!/y{2 copy c}!
/re{4 -2 roll m exch dup lx exch ly neg lx h}!
/^{3 index neg 3 index neg}!
/f{P fill}!/f*{P eofill}!/s{H stroke}!/S{P stroke}!
/q/gsave #/Q/grestore #/rf{re fill}!
/Y{P clip newpath}!/Y*{P eoclip newpath}!/rY{re Y}!
/|={pop exch 4 1 roll 1 array astore cvx 3 array astore cvx exch 1 index def exec}!
/|{exch string readstring |=}!
/+{dup type/nametype eq{2 index 7 add -3 bitshift 2 index mul}if}!
/@/currentfile #/${+ @ |}!
/B{{2 copy string{readstring pop}aload pop 4 array astore cvx
3 1 roll}repeat pop pop true}!
/Ix{[1 0 0 1 11 -2 roll exch neg exch neg]exch}!
/,{true exch Ix imagemask}!/If{false exch Ix imagemask}!/I{exch Ix image}!
/Ic{exch Ix false 3 colorimage}!
/F{/Columns counttomark 3 add -2 roll/Rows exch/K -1/BlackIs1 true>>
/CCITTFaxDecode filter}!/FX{<</EndOfBlock false F}!
/X{/ASCII85Decode filter}!/@X{@ X}!/&2{2 index 2 index}!
/@F{@ &2<<F}!/@C{@X &2 FX}!
/$X{+ @X |}!/&4{4 index 4 index}!/$F{+ @ &4<<F |}!/$C{+ @X &4 FX |}!
/IC{3 1 roll 10 dict begin 1{/ImageType/Interpolate/Decode/DataSource
/ImageMatrix/BitsPerComponent/Height/Width}{exch def}forall
currentdict end image}!
/~{@ read {pop} if}!
end def
%%EndResource
/pagesave null def
%%EndProlog
%%Page: 1 1
%%BeginPageSetup
GS_epswrite_2_0_1001 begin
/pagesave save store 197 dict begin
0.1 0.1 scale
%%EndPageSetup
gsave mark
Q q
0 0 8140 5720 re
Y
K
1744.54 800.7 m
0 29.66 3.05 53.52 9.15 71.61 c
6.11 18.08 15.17 32.02 27.21 41.83 c
12.03 9.81 27.18 14.71 45.43 14.71 c
13.46 0 25.27 -2.71 35.42 -8.13 c
10.15 -5.42 18.54 -13.23 25.15 -23.44 c
6.62 -10.21 11.81 -22.64 15.57 -37.3 c
3.77 -14.66 5.65 -34.42 5.65 -59.29 c
0 -29.43 -3.02 -53.18 -9.07 -71.26 c
-6.04 -18.08 -15.09 -32.05 -27.12 -41.92 c
-12.04 -9.87 -27.23 -14.8 -45.6 -14.8 c
-24.18 0 -43.17 8.67 -56.98 26.01 c
-16.54 20.87 -24.81 54.86 -24.81 101.97 c
h
1776.2 800.7 m
0 -41.18 4.82 -68.58 14.46 -82.21 c
9.64 -13.63 21.53 -20.45 35.68 -20.45 c
14.14 0 26.04 6.85 35.67 20.54 c
9.64 13.69 14.46 41.06 14.46 82.13 c
0 41.29 -4.82 68.72 -14.46 82.3 c
-9.64 13.57 -21.64 20.36 -36.02 20.36 c
-14.14 0 -25.44 -5.99 -33.87 -17.96 c
-10.61 -15.28 -15.91 -43.52 -15.91 -84.69 c
f
1956.82 677 m
0 35.07 0 0 0 35.07 c
35.07 0 0 0 35.07 0 c
0 -35.07 0 0 0 -35.07 c
-35.07 0 0 0 -35.07 0 c
f
2037.54 800.7 m
0 29.66 3.05 53.52 9.15 71.61 c
6.11 18.08 15.17 32.02 27.21 41.83 c
12.03 9.81 27.18 14.71 45.43 14.71 c
13.46 0 25.27 -2.71 35.42 -8.13 c
10.15 -5.42 18.54 -13.23 25.15 -23.44 c
6.62 -10.21 11.81 -22.64 15.57 -37.3 c
3.77 -14.66 5.65 -34.42 5.65 -59.29 c
0 -29.43 -3.02 -53.18 -9.07 -71.26 c
-6.04 -18.08 -15.09 -32.05 -27.12 -41.92 c
-12.04 -9.87 -27.23 -14.8 -45.6 -14.8 c
-24.18 0 -43.17 8.67 -56.98 26.01 c
-16.54 20.87 -24.81 54.86 -24.81 101.97 c
h
2069.2 800.7 m
0 -41.18 4.82 -68.58 14.46 -82.21 c
9.64 -13.63 21.53 -20.45 35.68 -20.45 c
14.14 0 26.04 6.85 35.67 20.54 c
9.64 13.69 14.46 41.06 14.46 82.13 c
0 41.29 -4.82 68.72 -14.46 82.3 c
-9.64 13.57 -21.64 20.36 -36.02 20.36 c
-14.14 0 -25.44 -5.99 -33.87 -17.96 c
-10.61 -15.28 -15.91 -43.52 -15.91 -84.69 c
f
2788.54 800.7 m
0 29.66 3.05 53.52 9.15 71.61 c
6.11 18.08 15.17 32.02 27.21 41.83 c
12.03 9.81 27.18 14.71 45.43 14.71 c
13.46 0 25.27 -2.71 35.42 -8.13 c
10.15 -5.42 18.54 -13.23 25.15 -23.44 c
6.62 -10.21 11.81 -22.64 15.57 -37.3 c
3.77 -14.66 5.65 -34.42 5.65 -59.29 c
0 -29.43 -3.02 -53.18 -9.07 -71.26 c
-6.04 -18.08 -15.09 -32.05 -27.12 -41.92 c
-12.04 -9.87 -27.23 -14.8 -45.6 -14.8 c
-24.18 0 -43.17 8.67 -56.98 26.01 c
-16.54 20.87 -24.81 54.86 -24.81 101.97 c
h
2820.2 800.7 m
0 -41.18 4.82 -68.58 14.46 -82.21 c
9.64 -13.63 21.53 -20.45 35.68 -20.45 c
14.14 0 26.04 6.85 35.67 20.54 c
9.64 13.69 14.46 41.06 14.46 82.13 c
0 41.29 -4.82 68.72 -14.46 82.3 c
-9.64 13.57 -21.64 20.36 -36.02 20.36 c
-14.14 0 -25.44 -5.99 -33.87 -17.96 c
-10.61 -15.28 -15.91 -43.52 -15.91 -84.69 c
f
3000.82 677 m
0 35.07 0 0 0 35.07 c
35.07 0 0 0 35.07 0 c
0 -35.07 0 0 0 -35.07 c
-35.07 0 0 0 -35.07 0 c
f
3243.4 706.6 m
0 -29.6 0 0 0 -29.6 c
-165.79 0 0 0 -165.79 0 c
-0.23 7.41 0.97 14.54 3.59 21.39 c
4.22 11.29 10.98 22.41 20.27 33.36 c
9.3 10.95 22.73 23.61 40.29 37.98 c
27.26 22.36 45.68 40.07 55.27 53.13 c
9.58 13.06 14.37 25.41 14.37 37.04 c
0 12.2 -4.36 22.5 -13.09 30.88 c
-8.73 8.38 -20.1 12.57 -34.13 12.57 c
-14.83 0 -26.69 -4.45 -35.59 -13.34 c
-8.89 -8.9 -13.4 -21.21 -13.52 -36.96 c
-31.65 3.25 0 0 -31.65 3.25 c
2.17 23.61 10.32 41.61 24.46 53.98 c
14.14 12.38 33.14 18.57 56.98 18.57 c
24.07 0 43.12 -6.68 57.15 -20.02 c
14.03 -13.34 21.04 -29.89 21.04 -49.62 c
0 -10.04 -2.05 -19.91 -6.16 -29.6 c
-4.11 -9.7 -10.92 -19.9 -20.45 -30.62 c
-9.52 -10.72 -25.35 -25.44 -47.48 -44.14 c
-18.48 -15.51 -30.34 -26.04 -35.59 -31.57 c
-5.25 -5.53 -9.58 -11.09 -13 -16.68 c
123.02 0 0 0 123.02 0 c
f
3830.54 800.7 m
0 29.66 3.05 53.52 9.15 71.61 c
6.11 18.08 15.17 32.02 27.21 41.83 c
12.03 9.81 27.18 14.71 45.43 14.71 c
13.46 0 25.27 -2.71 35.42 -8.13 c
10.15 -5.42 18.54 -13.23 25.15 -23.44 c
6.62 -10.21 11.81 -22.64 15.57 -37.3 c
3.77 -14.66 5.65 -34.42 5.65 -59.29 c
0 -29.43 -3.02 -53.18 -9.07 -71.26 c
-6.04 -18.08 -15.09 -32.05 -27.12 -41.92 c
-12.04 -9.87 -27.23 -14.8 -45.6 -14.8 c
-24.18 0 -43.17 8.67 -56.98 26.01 c
-16.54 20.87 -24.81 54.86 -24.81 101.97 c
h
3862.2 800.7 m
0 -41.18 4.82 -68.58 14.46 -82.21 c
9.64 -13.63 21.53 -20.45 35.68 -20.45 c
14.14 0 26.04 6.85 35.67 20.54 c
9.64 13.69 14.46 41.06 14.46 82.13 c
0 41.29 -4.82 68.72 -14.46 82.3 c
-9.64 13.57 -21.64 20.36 -36.02 20.36 c
-14.14 0 -25.44 -5.99 -33.87 -17.96 c
-10.61 -15.28 -15.91 -43.52 -15.91 -84.69 c
f
4041.82 677 m
0 35.07 0 0 0 35.07 c
35.07 0 0 0 35.07 0 c
0 -35.07 0 0 0 -35.07 c
-35.07 0 0 0 -35.07 0 c
f
4222.27 677 m
0 60.05 0 0 0 60.05 c
-108.82 0 0 0 -108.82 0 c
0 28.23 0 0 0 28.23 c
114.46 162.54 0 0 114.46 162.54 c
25.15 0 0 0 25.15 0 c
0 -162.54 0 0 0 -162.54 c
33.88 0 0 0 33.88 0 c
0 -28.23 0 0 0 -28.23 c
-33.88 0 0 0 -33.88 0 c
0 -60.05 0 0 0 -60.05 c
-30.8 0 0 0 -30.8 0 c
h
4222.27 765.29 m
0 113.09 0 0 0 113.09 c
-78.53 -113.09 0 0 -78.53 -113.09 c
78.53 0 0 0 78.53 0 c
f
4874.54 800.7 m
0 29.66 3.05 53.52 9.15 71.61 c
6.11 18.08 15.17 32.02 27.21 41.83 c
12.03 9.81 27.18 14.71 45.43 14.71 c
13.46 0 25.27 -2.71 35.42 -8.13 c
10.15 -5.42 18.54 -13.23 25.15 -23.44 c
6.62 -10.21 11.81 -22.64 15.57 -37.3 c
3.77 -14.66 5.65 -34.42 5.65 -59.29 c
0 -29.43 -3.02 -53.18 -9.07 -71.26 c
-6.04 -18.08 -15.09 -32.05 -27.12 -41.92 c
-12.04 -9.87 -27.23 -14.8 -45.6 -14.8 c
-24.18 0 -43.17 8.67 -56.98 26.01 c
-16.54 20.87 -24.81 54.86 -24.81 101.97 c
h
4906.2 800.7 m
0 -41.18 4.82 -68.58 14.46 -82.21 c
9.64 -13.63 21.53 -20.45 35.68 -20.45 c
14.14 0 26.04 6.85 35.67 20.54 c
9.64 13.69 14.46 41.06 14.46 82.13 c
0 41.29 -4.82 68.72 -14.46 82.3 c
-9.64 13.57 -21.64 20.36 -36.02 20.36 c
-14.14 0 -25.44 -5.99 -33.87 -17.96 c
-10.61 -15.28 -15.91 -43.52 -15.91 -84.69 c
f
5086.82 677 m
0 35.07 0 0 0 35.07 c
35.07 0 0 0 35.07 0 c
0 -35.07 0 0 0 -35.07 c
-35.07 0 0 0 -35.07 0 c
f
5327.35 866.4 m
-30.62 -2.39 0 0 -30.62 -2.39 c
-2.74 12.09 -6.62 20.88 -11.64 26.35 c
-8.32 8.78 -18.59 13.17 -30.8 13.17 c
-9.81 0 -18.42 -2.74 -25.84 -8.21 c
-9.7 -7.07 -17.34 -17.39 -22.93 -30.97 c
-5.59 -13.57 -8.5 -32.91 -8.73 -58 c
7.41 11.29 16.48 19.68 27.2 25.15 c
10.72 5.48 21.96 8.21 33.71 8.21 c
20.53 0 38.01 -7.56 52.44 -22.67 c
14.43 -15.11 21.64 -34.65 21.64 -58.6 c
0 -15.74 -3.39 -30.37 -10.18 -43.89 c
-6.79 -13.52 -16.11 -23.87 -27.98 -31.05 c
-11.86 -7.18 -25.32 -10.78 -40.38 -10.78 c
-25.66 0 -46.59 9.44 -62.79 28.32 c
-16.2 18.88 -24.29 49.99 -24.29 93.33 c
0 48.48 8.95 83.72 26.86 105.74 c
15.63 19.16 36.67 28.75 63.14 28.75 c
19.73 0 35.9 -5.53 48.51 -16.6 c
12.6 -11.07 20.16 -26.35 22.67 -45.86 c
h
5201.59 758.27 m
0 -10.61 2.25 -20.76 6.76 -30.45 c
4.5 -9.7 10.81 -17.08 18.91 -22.16 c
8.1 -5.08 16.59 -7.62 25.49 -7.62 c
13 0 24.18 5.25 33.54 15.74 c
9.36 10.49 14.03 24.75 14.03 42.77 c
0 17.34 -4.62 31 -13.86 40.98 c
-9.24 9.98 -20.87 14.97 -34.91 14.97 c
-13.91 0 -25.72 -4.99 -35.41 -14.97 c
-9.7 -9.98 -14.54 -23.07 -14.54 -39.27 c
f
5916.54 800.7 m
0 29.66 3.05 53.52 9.15 71.61 c
6.11 18.08 15.17 32.02 27.21 41.83 c
12.03 9.81 27.18 14.71 45.43 14.71 c
13.46 0 25.27 -2.71 35.42 -8.13 c
10.15 -5.42 18.54 -13.23 25.15 -23.44 c
6.62 -10.21 11.81 -22.64 15.57 -37.3 c
3.77 -14.66 5.65 -34.42 5.65 -59.29 c
0 -29.43 -3.02 -53.18 -9.07 -71.26 c
-6.04 -18.08 -15.09 -32.05 -27.12 -41.92 c
-12.04 -9.87 -27.23 -14.8 -45.6 -14.8 c
-24.18 0 -43.17 8.67 -56.98 26.01 c
-16.54 20.87 -24.81 54.86 -24.81 101.97 c
h
5948.2 800.7 m
0 -41.18 4.82 -68.58 14.46 -82.21 c
9.64 -13.63 21.53 -20.45 35.68 -20.45 c
14.14 0 26.04 6.85 35.67 20.54 c
9.64 13.69 14.46 41.06 14.46 82.13 c
0 41.29 -4.82 68.72 -14.46 82.3 c
-9.64 13.57 -21.64 20.36 -36.02 20.36 c
-14.14 0 -25.44 -5.99 -33.87 -17.96 c
-10.61 -15.28 -15.91 -43.52 -15.91 -84.69 c
f
6127.82 677 m
0 35.07 0 0 0 35.07 c
35.07 0 0 0 35.07 0 c
0 -35.07 0 0 0 -35.07 c
-35.07 0 0 0 -35.07 0 c
f
6256.94 813.02 m
-12.78 4.68 -22.24 11.35 -28.4 20.02 c
-6.16 8.67 -9.24 19.05 -9.24 31.14 c
0 18.25 6.56 33.59 19.68 46.02 c
13.12 12.43 30.57 18.65 52.36 18.65 c
21.9 0 39.52 -6.36 52.87 -19.08 c
13.35 -12.72 20.02 -28.2 20.02 -46.45 c
0 -11.63 -3.05 -21.76 -9.15 -30.37 c
-6.11 -8.61 -15.37 -15.25 -27.8 -19.93 c
15.4 -5.02 27.12 -13.12 35.16 -24.3 c
8.04 -11.18 12.06 -24.52 12.06 -40.04 c
0 -21.45 -7.58 -39.47 -22.75 -54.07 c
-15.17 -14.6 -35.13 -21.9 -59.89 -21.9 c
-24.75 0 -44.71 7.33 -59.88 21.98 c
-15.17 14.66 -22.75 32.94 -22.75 54.84 c
0 16.31 4.13 29.97 12.4 40.98 c
8.27 11 20.05 18.51 35.33 22.5 c
h
6250.78 865.21 m
0 -11.86 3.82 -21.56 11.46 -29.09 c
7.64 -7.53 17.57 -11.29 29.77 -11.29 c
11.86 0 21.59 3.73 29.17 11.21 c
7.59 7.47 11.38 16.63 11.38 27.46 c
0 11.29 -3.91 20.79 -11.72 28.49 c
-7.82 7.7 -17.54 11.55 -29.17 11.55 c
-11.75 0 -21.5 -3.76 -29.26 -11.29 c
-7.76 -7.53 -11.64 -16.54 -11.64 -27.03 c
h
6240.86 749.38 m
0 -8.79 2.08 -17.28 6.24 -25.5 c
4.16 -8.21 10.35 -14.57 18.57 -19.07 c
8.21 -4.51 17.05 -6.76 26.52 -6.76 c
14.71 0 26.86 4.73 36.45 14.2 c
9.58 9.46 14.37 21.5 14.37 36.1 c
0 14.83 -4.93 27.09 -14.8 36.79 c
-9.87 9.7 -22.21 14.54 -37.04 14.54 c
-14.48 0 -26.49 -4.79 -36.02 -14.37 c
-9.52 -9.58 -14.29 -21.56 -14.29 -35.93 c
f
7076.55 677 m
-30.8 0 0 0 -30.8 0 c
0 196.25 0 0 0 196.25 c
-7.41 -7.07 -17.14 -14.14 -29.17 -21.21 c
-12.04 -7.07 -22.84 -12.37 -32.42 -15.91 c
0 29.77 0 0 0 29.77 c
17.22 8.1 32.28 17.91 45.17 29.43 c
12.89 11.52 22.02 22.7 27.38 33.54 c
19.85 0 0 0 19.85 0 c
0 -251.86 0 0 0 -251.86 c
f
7171.82 677 m
0 35.07 0 0 0 35.07 c
35.07 0 0 0 35.07 0 c
0 -35.07 0 0 0 -35.07 c
-35.07 0 0 0 -35.07 0 c
f
7253.54 800.7 m
0 29.66 3.05 53.52 9.15 71.61 c
6.11 18.08 15.17 32.02 27.21 41.83 c
12.03 9.81 27.18 14.71 45.43 14.71 c
13.46 0 25.27 -2.71 35.42 -8.13 c
10.15 -5.42 18.54 -13.23 25.15 -23.44 c
6.62 -10.21 11.81 -22.64 15.57 -37.3 c
3.77 -14.66 5.65 -34.42 5.65 -59.29 c
0 -29.43 -3.02 -53.18 -9.07 -71.26 c
-6.04 -18.08 -15.09 -32.05 -27.12 -41.92 c
-12.04 -9.87 -27.23 -14.8 -45.6 -14.8 c
-24.18 0 -43.17 8.67 -56.98 26.01 c
-16.54 20.87 -24.81 54.86 -24.81 101.97 c
h
7285.2 800.7 m
0 -41.18 4.82 -68.58 14.46 -82.21 c
9.64 -13.63 21.53 -20.45 35.68 -20.45 c
14.14 0 26.04 6.85 35.67 20.54 c
9.64 13.69 14.46 41.06 14.46 82.13 c
0 41.29 -4.82 68.72 -14.46 82.3 c
-9.64 13.57 -21.64 20.36 -36.02 20.36 c
-14.14 0 -25.44 -5.99 -33.87 -17.96 c
-10.61 -15.28 -15.91 -43.52 -15.91 -84.69 c
f
1154.54 1244.7 m
0 29.66 3.05 53.52 9.15 71.61 c
6.11 18.08 15.17 32.02 27.21 41.83 c
12.03 9.81 27.18 14.71 45.43 14.71 c
13.46 0 25.27 -2.71 35.42 -8.13 c
10.15 -5.42 18.54 -13.23 25.15 -23.44 c
6.62 -10.21 11.81 -22.64 15.57 -37.3 c
3.77 -14.66 5.65 -34.42 5.65 -59.29 c
0 -29.43 -3.02 -53.18 -9.07 -71.26 c
-6.04 -18.08 -15.09 -32.05 -27.12 -41.92 c
-12.04 -9.87 -27.23 -14.8 -45.6 -14.8 c
-24.18 0 -43.17 8.67 -56.98 26.01 c
-16.54 20.87 -24.81 54.86 -24.81 101.97 c
h
1186.2 1244.7 m
0 -41.18 4.82 -68.58 14.46 -82.21 c
9.64 -13.63 21.53 -20.45 35.68 -20.45 c
14.14 0 26.04 6.84 35.67 20.53 c
9.64 13.69 14.46 41.06 14.46 82.13 c
0 41.29 -4.82 68.72 -14.46 82.3 c
-9.64 13.57 -21.64 20.36 -36.02 20.36 c
-14.14 0 -25.44 -5.99 -33.87 -17.96 c
-10.61 -15.28 -15.91 -43.52 -15.91 -84.69 c
f
571.54 1740.7 m
32.34 2.74 0 0 32.34 2.74 c
2.4 -15.74 7.96 -27.57 16.68 -35.5 c
8.73 -7.93 19.25 -11.89 31.57 -11.89 c
14.83 0 27.38 5.59 37.64 16.77 c
10.27 11.18 15.4 26.01 15.4 44.48 c
0 17.57 -4.93 31.43 -14.8 41.58 c
-9.87 10.15 -22.79 15.23 -38.75 15.23 c
-9.93 0 -18.88 -2.25 -26.86 -6.76 c
-7.98 -4.5 -14.26 -10.35 -18.82 -17.54 c
-28.91 3.77 0 0 -28.91 3.77 c
24.29 128.84 0 0 24.29 128.84 c
124.73 0 0 0 124.73 0 c
0 -29.43 0 0 0 -29.43 c
-100.09 0 0 0 -100.09 0 c
-13.52 -67.41 0 0 -13.52 -67.41 c
15.06 10.49 30.86 15.74 47.39 15.74 c
21.9 0 40.38 -7.58 55.44 -22.75 c
15.05 -15.17 22.59 -34.68 22.59 -58.52 c
0 -22.7 -6.62 -42.32 -19.85 -58.86 c
-16.09 -20.3 -38.04 -30.46 -65.87 -30.46 c
-22.81 0 -41.43 6.39 -55.86 19.16 c
-14.43 12.77 -22.67 29.71 -24.72 50.81 c
f
765.54 1798.7 m
0 29.66 3.05 53.52 9.15 71.61 c
6.11 18.08 15.17 32.02 27.21 41.83 c
12.03 9.81 27.18 14.71 45.43 14.71 c
13.46 0 25.27 -2.71 35.42 -8.13 c
10.15 -5.42 18.54 -13.23 25.15 -23.44 c
6.62 -10.21 11.81 -22.64 15.57 -37.3 c
3.77 -14.66 5.65 -34.42 5.65 -59.29 c
0 -29.43 -3.02 -53.18 -9.07 -71.26 c
-6.04 -18.08 -15.09 -32.05 -27.12 -41.92 c
-12.04 -9.87 -27.23 -14.8 -45.6 -14.8 c
-24.18 0 -43.17 8.67 -56.98 26.01 c
-16.54 20.87 -24.81 54.86 -24.81 101.97 c
h
797.2 1798.7 m
0 -41.18 4.82 -68.58 14.46 -82.21 c
9.64 -13.63 21.53 -20.45 35.68 -20.45 c
14.14 0 26.04 6.84 35.67 20.53 c
9.64 13.69 14.46 41.06 14.46 82.13 c
0 41.29 -4.82 68.72 -14.46 82.3 c
-9.64 13.57 -21.64 20.36 -36.02 20.36 c
-14.14 0 -25.44 -5.99 -33.87 -17.96 c
-10.61 -15.28 -15.91 -43.52 -15.91 -84.69 c
f
960.54 1798.7 m
0 29.66 3.05 53.52 9.15 71.61 c
6.11 18.08 15.17 32.02 27.21 41.83 c
12.03 9.81 27.18 14.71 45.43 14.71 c
13.46 0 25.27 -2.71 35.42 -8.13 c
10.15 -5.42 18.54 -13.23 25.15 -23.44 c
6.62 -10.21 11.81 -22.64 15.57 -37.3 c
3.77 -14.66 5.65 -34.42 5.65 -59.29 c
0 -29.43 -3.02 -53.18 -9.07 -71.26 c
-6.04 -18.08 -15.09 -32.05 -27.12 -41.92 c
-12.04 -9.87 -27.23 -14.8 -45.6 -14.8 c
-24.18 0 -43.17 8.67 -56.98 26.01 c
-16.54 20.87 -24.81 54.86 -24.81 101.97 c
h
992.2 1798.7 m
0 -41.18 4.82 -68.58 14.46 -82.21 c
9.64 -13.63 21.53 -20.45 35.68 -20.45 c
14.14 0 26.04 6.84 35.67 20.53 c
9.64 13.69 14.46 41.06 14.46 82.13 c
0 41.29 -4.82 68.72 -14.46 82.3 c
-9.64 13.57 -21.64 20.36 -36.02 20.36 c
-14.14 0 -25.44 -5.99 -33.87 -17.96 c
-10.61 -15.28 -15.91 -43.52 -15.91 -84.69 c
f
1154.54 1798.7 m
0 29.66 3.05 53.52 9.15 71.61 c
6.11 18.08 15.17 32.02 27.21 41.83 c
12.03 9.81 27.18 14.71 45.43 14.71 c
13.46 0 25.27 -2.71 35.42 -8.13 c
10.15 -5.42 18.54 -13.23 25.15 -23.44 c
6.62 -10.21 11.81 -22.64 15.57 -37.3 c
3.77 -14.66 5.65 -34.42 5.65 -59.29 c
0 -29.43 -3.02 -53.18 -9.07 -71.26 c
-6.04 -18.08 -15.09 -32.05 -27.12 -41.92 c
-12.04 -9.87 -27.23 -14.8 -45.6 -14.8 c
-24.18 0 -43.17 8.67 -56.98 26.01 c
-16.54 20.87 -24.81 54.86 -24.81 101.97 c
h
1186.2 1798.7 m
0 -41.18 4.82 -68.58 14.46 -82.21 c
9.64 -13.63 21.53 -20.45 35.68 -20.45 c
14.14 0 26.04 6.84 35.67 20.53 c
9.64 13.69 14.46 41.06 14.46 82.13 c
0 41.29 -4.82 68.72 -14.46 82.3 c
-9.64 13.57 -21.64 20.36 -36.02 20.36 c
-14.14 0 -25.44 -5.99 -33.87 -17.96 c
-10.61 -15.28 -15.91 -43.52 -15.91 -84.69 c
f
492.55 2227 m
-30.8 0 0 0 -30.8 0 c
0 196.25 0 0 0 196.25 c
-7.41 -7.07 -17.14 -14.14 -29.17 -21.21 c
-12.04 -7.07 -22.84 -12.37 -32.42 -15.91 c
0 29.77 0 0 0 29.77 c
17.22 8.1 32.28 17.91 45.17 29.43 c
12.89 11.52 22.02 22.7 27.38 33.54 c
19.85 0 0 0 19.85 0 c
0 -251.86 0 0 0 -251.86 c
f
571.54 2350.7 m
0 29.66 3.05 53.52 9.15 71.61 c
6.11 18.08 15.17 32.02 27.21 41.83 c
12.03 9.81 27.18 14.71 45.43 14.71 c
13.46 0 25.27 -2.71 35.42 -8.13 c
10.15 -5.42 18.54 -13.23 25.15 -23.44 c
6.62 -10.21 11.81 -22.64 15.57 -37.3 c
3.77 -14.66 5.65 -34.42 5.65 -59.29 c
0 -29.43 -3.02 -53.18 -9.07 -71.26 c
-6.04 -18.08 -15.09 -32.05 -27.12 -41.92 c
-12.04 -9.87 -27.23 -14.8 -45.6 -14.8 c
-24.18 0 -43.17 8.67 -56.98 26.01 c
-16.54 20.87 -24.81 54.86 -24.81 101.97 c
h
603.2 2350.7 m
0 -41.18 4.82 -68.58 14.46 -82.21 c
9.64 -13.63 21.53 -20.45 35.68 -20.45 c
14.14 0 26.04 6.84 35.67 20.53 c
9.64 13.69 14.46 41.06 14.46 82.13 c
0 41.29 -4.82 68.72 -14.46 82.3 c
-9.64 13.57 -21.64 20.36 -36.02 20.36 c
-14.14 0 -25.44 -5.99 -33.87 -17.96 c
-10.61 -15.28 -15.91 -43.52 -15.91 -84.69 c
f
765.54 2350.7 m
0 29.66 3.05 53.52 9.15 71.61 c
6.11 18.08 15.17 32.02 27.21 41.83 c
12.03 9.81 27.18 14.71 45.43 14.71 c
13.46 0 25.27 -2.71 35.42 -8.13 c
10.15 -5.42 18.54 -13.23 25.15 -23.44 c
6.62 -10.21 11.81 -22.64 15.57 -37.3 c
3.77 -14.66 5.65 -34.42 5.65 -59.29 c
0 -29.43 -3.02 -53.18 -9.07 -71.26 c
-6.04 -18.08 -15.09 -32.05 -27.12 -41.92 c
-12.04 -9.87 -27.23 -14.8 -45.6 -14.8 c
-24.18 0 -43.17 8.67 -56.98 26.01 c
-16.54 20.87 -24.81 54.86 -24.81 101.97 c
h
797.2 2350.7 m
0 -41.18 4.82 -68.58 14.46 -82.21 c
9.64 -13.63 21.53 -20.45 35.68 -20.45 c
14.14 0 26.04 6.84 35.67 20.53 c
9.64 13.69 14.46 41.06 14.46 82.13 c
0 41.29 -4.82 68.72 -14.46 82.3 c
-9.64 13.57 -21.64 20.36 -36.02 20.36 c
-14.14 0 -25.44 -5.99 -33.87 -17.96 c
-10.61 -15.28 -15.91 -43.52 -15.91 -84.69 c
f
960.54 2350.7 m
0 29.66 3.05 53.52 9.15 71.61 c
6.11 18.08 15.17 32.02 27.21 41.83 c
12.03 9.81 27.18 14.71 45.43 14.71 c
13.46 0 25.27 -2.71 35.42 -8.13 c
10.15 -5.42 18.54 -13.23 25.15 -23.44 c
6.62 -10.21 11.81 -22.64 15.57 -37.3 c
3.77 -14.66 5.65 -34.42 5.65 -59.29 c
0 -29.43 -3.02 -53.18 -9.07 -71.26 c
-6.04 -18.08 -15.09 -32.05 -27.12 -41.92 c
-12.04 -9.87 -27.23 -14.8 -45.6 -14.8 c
-24.18 0 -43.17 8.67 -56.98 26.01 c
-16.54 20.87 -24.81 54.86 -24.81 101.97 c
h
992.2 2350.7 m
0 -41.18 4.82 -68.58 14.46 -82.21 c
9.64 -13.63 21.53 -20.45 35.68 -20.45 c
14.14 0 26.04 6.84 35.67 20.53 c
9.64 13.69 14.46 41.06 14.46 82.13 c
0 41.29 -4.82 68.72 -14.46 82.3 c
-9.64 13.57 -21.64 20.36 -36.02 20.36 c
-14.14 0 -25.44 -5.99 -33.87 -17.96 c
-10.61 -15.28 -15.91 -43.52 -15.91 -84.69 c
f
1154.54 2350.7 m
0 29.66 3.05 53.52 9.15 71.61 c
6.11 18.08 15.17 32.02 27.21 41.83 c
12.03 9.81 27.18 14.71 45.43 14.71 c
13.46 0 25.27 -2.71 35.42 -8.13 c
10.15 -5.42 18.54 -13.23 25.15 -23.44 c
6.62 -10.21 11.81 -22.64 15.57 -37.3 c
3.77 -14.66 5.65 -34.42 5.65 -59.29 c
0 -29.43 -3.02 -53.18 -9.07 -71.26 c
-6.04 -18.08 -15.09 -32.05 -27.12 -41.92 c
-12.04 -9.87 -27.23 -14.8 -45.6 -14.8 c
-24.18 0 -43.17 8.67 -56.98 26.01 c
-16.54 20.87 -24.81 54.86 -24.81 101.97 c
h
1186.2 2350.7 m
0 -41.18 4.82 -68.58 14.46 -82.21 c
9.64 -13.63 21.53 -20.45 35.68 -20.45 c
14.14 0 26.04 6.84 35.67 20.53 c
9.64 13.69 14.46 41.06 14.46 82.13 c
0 41.29 -4.82 68.72 -14.46 82.3 c
-9.64 13.57 -21.64 20.36 -36.02 20.36 c
-14.14 0 -25.44 -5.99 -33.87 -17.96 c
-10.61 -15.28 -15.91 -43.52 -15.91 -84.69 c
f
492.55 2782 m
-30.8 0 0 0 -30.8 0 c
0 196.25 0 0 0 196.25 c
-7.41 -7.07 -17.14 -14.14 -29.17 -21.21 c
-12.04 -7.07 -22.84 -12.37 -32.42 -15.91 c
0 29.77 0 0 0 29.77 c
17.22 8.1 32.28 17.91 45.17 29.43 c
12.89 11.52 22.02 22.7 27.38 33.54 c
19.85 0 0 0 19.85 0 c
0 -251.86 0 0 0 -251.86 c
f
571.54 2847.7 m
32.34 2.73 0 0 32.34 2.73 c
2.4 -15.74 7.96 -27.57 16.68 -35.5 c
8.73 -7.93 19.25 -11.89 31.57 -11.89 c
14.83 0 27.38 5.59 37.64 16.77 c
10.27 11.18 15.4 26.01 15.4 44.48 c
0 17.57 -4.93 31.43 -14.8 41.58 c
-9.87 10.15 -22.79 15.23 -38.75 15.23 c
-9.93 0 -18.88 -2.25 -26.86 -6.76 c
-7.98 -4.5 -14.26 -10.35 -18.82 -17.54 c
-28.91 3.77 0 0 -28.91 3.77 c
24.29 128.84 0 0 24.29 128.84 c
124.73 0 0 0 124.73 0 c
0 -29.43 0 0 0 -29.43 c
-100.09 0 0 0 -100.09 0 c
-13.52 -67.41 0 0 -13.52 -67.41 c
15.06 10.49 30.86 15.74 47.39 15.74 c
21.9 0 40.38 -7.58 55.44 -22.75 c
15.05 -15.17 22.59 -34.68 22.59 -58.52 c
0 -22.7 -6.62 -42.32 -19.85 -58.86 c
-16.09 -20.3 -38.04 -30.46 -65.87 -30.46 c
-22.81 0 -41.43 6.39 -55.86 19.16 c
-14.43 12.77 -22.67 29.71 -24.72 50.82 c
f
765.54 2905.7 m
0 29.66 3.05 53.52 9.15 71.61 c
6.11 18.08 15.17 32.02 27.21 41.83 c
12.03 9.81 27.18 14.71 45.43 14.71 c
13.46 0 25.27 -2.71 35.42 -8.13 c
10.15 -5.42 18.54 -13.23 25.15 -23.44 c
6.62 -10.21 11.81 -22.64 15.57 -37.3 c
3.77 -14.66 5.65 -34.42 5.65 -59.29 c
0 -29.43 -3.02 -53.18 -9.07 -71.26 c
-6.04 -18.08 -15.09 -32.05 -27.12 -41.92 c
-12.04 -9.87 -27.23 -14.8 -45.6 -14.8 c
-24.18 0 -43.17 8.67 -56.98 26.01 c
-16.54 20.87 -24.81 54.86 -24.81 101.97 c
h
797.2 2905.7 m
0 -41.18 4.82 -68.58 14.46 -82.21 c
9.64 -13.63 21.53 -20.45 35.68 -20.45 c
14.14 0 26.04 6.84 35.67 20.53 c
9.64 13.69 14.46 41.06 14.46 82.13 c
0 41.29 -4.82 68.72 -14.46 82.3 c
-9.64 13.57 -21.64 20.36 -36.02 20.36 c
-14.14 0 -25.44 -5.99 -33.87 -17.96 c
-10.61 -15.28 -15.91 -43.52 -15.91 -84.69 c
f
960.54 2905.7 m
0 29.66 3.05 53.52 9.15 71.61 c
6.11 18.08 15.17 32.02 27.21 41.83 c
12.03 9.81 27.18 14.71 45.43 14.71 c
13.46 0 25.27 -2.71 35.42 -8.13 c
10.15 -5.42 18.54 -13.23 25.15 -23.44 c
6.62 -10.21 11.81 -22.64 15.57 -37.3 c
3.77 -14.66 5.65 -34.42 5.65 -59.29 c
0 -29.43 -3.02 -53.18 -9.07 -71.26 c
-6.04 -18.08 -15.09 -32.05 -27.12 -41.92 c
-12.04 -9.87 -27.23 -14.8 -45.6 -14.8 c
-24.18 0 -43.17 8.67 -56.98 26.01 c
-16.54 20.87 -24.81 54.86 -24.81 101.97 c
h
992.2 2905.7 m
0 -41.18 4.82 -68.58 14.46 -82.21 c
9.64 -13.63 21.53 -20.45 35.68 -20.45 c
14.14 0 26.04 6.84 35.67 20.53 c
9.64 13.69 14.46 41.06 14.46 82.13 c
0 41.29 -4.82 68.72 -14.46 82.3 c
-9.64 13.57 -21.64 20.36 -36.02 20.36 c
-14.14 0 -25.44 -5.99 -33.87 -17.96 c
-10.61 -15.28 -15.91 -43.52 -15.91 -84.69 c
f
1154.54 2905.7 m
0 29.66 3.05 53.52 9.15 71.61 c
6.11 18.08 15.17 32.02 27.21 41.83 c
12.03 9.81 27.18 14.71 45.43 14.71 c
13.46 0 25.27 -2.71 35.42 -8.13 c
10.15 -5.42 18.54 -13.23 25.15 -23.44 c
6.62 -10.21 11.81 -22.64 15.57 -37.3 c
3.77 -14.66 5.65 -34.42 5.65 -59.29 c
0 -29.43 -3.02 -53.18 -9.07 -71.26 c
-6.04 -18.08 -15.09 -32.05 -27.12 -41.92 c
-12.04 -9.87 -27.23 -14.8 -45.6 -14.8 c
-24.18 0 -43.17 8.67 -56.98 26.01 c
-16.54 20.87 -24.81 54.86 -24.81 101.97 c
h
1186.2 2905.7 m
0 -41.18 4.82 -68.58 14.46 -82.21 c
9.64 -13.63 21.53 -20.45 35.68 -20.45 c
14.14 0 26.04 6.84 35.67 20.53 c
9.64 13.69 14.46 41.06 14.46 82.13 c
0 41.29 -4.82 68.72 -14.46 82.3 c
-9.64 13.57 -21.64 20.36 -36.02 20.36 c
-14.14 0 -25.44 -5.99 -33.87 -17.96 c
-10.61 -15.28 -15.91 -43.52 -15.91 -84.69 c
f
538.4 3363.6 m
0 -29.6 0 0 0 -29.6 c
-165.79 0 0 0 -165.79 0 c
-0.23 7.41 0.97 14.54 3.59 21.39 c
4.22 11.29 10.98 22.41 20.28 33.36 c
9.3 10.95 22.73 23.61 40.29 37.98 c
27.26 22.36 45.68 40.07 55.27 53.13 c
9.58 13.06 14.37 25.41 14.37 37.04 c
0 12.2 -4.36 22.5 -13.09 30.88 c
-8.73 8.38 -20.1 12.57 -34.13 12.57 c
-14.83 0 -26.69 -4.45 -35.59 -13.34 c
-8.89 -8.9 -13.4 -21.21 -13.52 -36.96 c
-31.65 3.25 0 0 -31.65 3.25 c
2.17 23.61 10.32 41.61 24.46 53.98 c
14.14 12.38 33.14 18.57 56.98 18.57 c
24.07 0 43.12 -6.68 57.15 -20.02 c
14.03 -13.34 21.04 -29.89 21.04 -49.62 c
0 -10.04 -2.05 -19.91 -6.16 -29.6 c
-4.11 -9.7 -10.92 -19.9 -20.45 -30.62 c
-9.52 -10.72 -25.35 -25.44 -47.48 -44.14 c
-18.48 -15.51 -30.34 -26.04 -35.59 -31.57 c
-5.25 -5.53 -9.58 -11.09 -13 -16.68 c
123.02 0 0 0 123.02 0 c
f
571.54 3457.7 m
0 29.66 3.05 53.52 9.15 71.61 c
6.11 18.08 15.17 32.02 27.21 41.83 c
12.03 9.81 27.18 14.71 45.43 14.71 c
13.46 0 25.27 -2.71 35.42 -8.13 c
10.15 -5.42 18.54 -13.23 25.15 -23.44 c
6.62 -10.21 11.81 -22.64 15.57 -37.3 c
3.77 -14.66 5.65 -34.42 5.65 -59.29 c
0 -29.43 -3.02 -53.18 -9.07 -71.26 c
-6.04 -18.08 -15.09 -32.05 -27.12 -41.92 c
-12.04 -9.87 -27.23 -14.8 -45.6 -14.8 c
-24.18 0 -43.17 8.67 -56.98 26.01 c
-16.54 20.87 -24.81 54.86 -24.81 101.97 c
h
603.2 3457.7 m
0 -41.18 4.82 -68.58 14.46 -82.21 c
9.64 -13.63 21.53 -20.45 35.68 -20.45 c
14.14 0 26.04 6.84 35.67 20.53 c
9.64 13.69 14.46 41.06 14.46 82.13 c
0 41.29 -4.82 68.72 -14.46 82.3 c
-9.64 13.57 -21.64 20.36 -36.02 20.36 c
-14.14 0 -25.44 -5.99 -33.87 -17.96 c
-10.61 -15.28 -15.91 -43.52 -15.91 -84.69 c
f
765.54 3457.7 m
0 29.66 3.05 53.52 9.15 71.61 c
6.11 18.08 15.17 32.02 27.21 41.83 c
12.03 9.81 27.18 14.71 45.43 14.71 c
13.46 0 25.27 -2.71 35.42 -8.13 c
10.15 -5.42 18.54 -13.23 25.15 -23.44 c
6.62 -10.21 11.81 -22.64 15.57 -37.3 c
3.77 -14.66 5.65 -34.42 5.65 -59.29 c
0 -29.43 -3.02 -53.18 -9.07 -71.26 c
-6.04 -18.08 -15.09 -32.05 -27.12 -41.92 c
-12.04 -9.87 -27.23 -14.8 -45.6 -14.8 c
-24.18 0 -43.17 8.67 -56.98 26.01 c
-16.54 20.87 -24.81 54.86 -24.81 101.97 c
h
797.2 3457.7 m
0 -41.18 4.82 -68.58 14.46 -82.21 c
9.64 -13.63 21.53 -20.45 35.68 -20.45 c
14.14 0 26.04 6.84 35.67 20.53 c
9.64 13.69 14.46 41.06 14.46 82.13 c
0 41.29 -4.82 68.72 -14.46 82.3 c
-9.64 13.57 -21.64 20.36 -36.02 20.36 c
-14.14 0 -25.44 -5.99 -33.87 -17.96 c
-10.61 -15.28 -15.91 -43.52 -15.91 -84.69 c
f
960.54 3457.7 m
0 29.66 3.05 53.52 9.15 71.61 c
6.11 18.08 15.17 32.02 27.21 41.83 c
12.03 9.81 27.18 14.71 45.43 14.71 c
13.46 0 25.27 -2.71 35.42 -8.13 c
10.15 -5.42 18.54 -13.23 25.15 -23.44 c
6.62 -10.21 11.81 -22.64 15.57 -37.3 c
3.77 -14.66 5.65 -34.42 5.65 -59.29 c
0 -29.43 -3.02 -53.18 -9.07 -71.26 c
-6.04 -18.08 -15.09 -32.05 -27.12 -41.92 c
-12.04 -9.87 -27.23 -14.8 -45.6 -14.8 c
-24.18 0 -43.17 8.67 -56.98 26.01 c
-16.54 20.87 -24.81 54.86 -24.81 101.97 c
h
992.2 3457.7 m
0 -41.18 4.82 -68.58 14.46 -82.21 c
9.64 -13.63 21.53 -20.45 35.68 -20.45 c
14.14 0 26.04 6.84 35.67 20.53 c
9.64 13.69 14.46 41.06 14.46 82.13 c
0 41.29 -4.82 68.72 -14.46 82.3 c
-9.64 13.57 -21.64 20.36 -36.02 20.36 c
-14.14 0 -25.44 -5.99 -33.87 -17.96 c
-10.61 -15.28 -15.91 -43.52 -15.91 -84.69 c
f
1154.54 3457.7 m
0 29.66 3.05 53.52 9.15 71.61 c
6.11 18.08 15.17 32.02 27.21 41.83 c
12.03 9.81 27.18 14.71 45.43 14.71 c
13.46 0 25.27 -2.71 35.42 -8.13 c
10.15 -5.42 18.54 -13.23 25.15 -23.44 c
6.62 -10.21 11.81 -22.64 15.57 -37.3 c
3.77 -14.66 5.65 -34.42 5.65 -59.29 c
0 -29.43 -3.02 -53.18 -9.07 -71.26 c
-6.04 -18.08 -15.09 -32.05 -27.12 -41.92 c
-12.04 -9.87 -27.23 -14.8 -45.6 -14.8 c
-24.18 0 -43.17 8.67 -56.98 26.01 c
-16.54 20.87 -24.81 54.86 -24.81 101.97 c
h
1186.2 3457.7 m
0 -41.18 4.82 -68.58 14.46 -82.21 c
9.64 -13.63 21.53 -20.45 35.68 -20.45 c
14.14 0 26.04 6.84 35.67 20.53 c
9.64 13.69 14.46 41.06 14.46 82.13 c
0 41.29 -4.82 68.72 -14.46 82.3 c
-9.64 13.57 -21.64 20.36 -36.02 20.36 c
-14.14 0 -25.44 -5.99 -33.87 -17.96 c
-10.61 -15.28 -15.91 -43.52 -15.91 -84.69 c
f
538.4 3917.6 m
0 -29.6 0 0 0 -29.6 c
-165.79 0 0 0 -165.79 0 c
-0.23 7.41 0.97 14.54 3.59 21.39 c
4.22 11.29 10.98 22.41 20.28 33.36 c
9.3 10.95 22.73 23.61 40.29 37.98 c
27.26 22.36 45.68 40.07 55.27 53.13 c
9.58 13.06 14.37 25.41 14.37 37.04 c
0 12.2 -4.36 22.5 -13.09 30.88 c
-8.73 8.38 -20.1 12.57 -34.13 12.57 c
-14.83 0 -26.69 -4.45 -35.59 -13.34 c
-8.89 -8.9 -13.4 -21.21 -13.52 -36.96 c
-31.65 3.25 0 0 -31.65 3.25 c
2.17 23.61 10.32 41.61 24.46 53.98 c
14.14 12.38 33.14 18.57 56.98 18.57 c
24.07 0 43.12 -6.67 57.15 -20.02 c
14.03 -13.34 21.04 -29.89 21.04 -49.62 c
0 -10.04 -2.05 -19.91 -6.16 -29.6 c
-4.11 -9.7 -10.92 -19.9 -20.45 -30.62 c
-9.52 -10.72 -25.35 -25.44 -47.48 -44.14 c
-18.48 -15.51 -30.34 -26.04 -35.59 -31.57 c
-5.25 -5.53 -9.58 -11.09 -13 -16.68 c
123.02 0 0 0 123.02 0 c
f
571.54 3953.7 m
32.34 2.73 0 0 32.34 2.73 c
2.4 -15.74 7.96 -27.57 16.68 -35.5 c
8.73 -7.93 19.25 -11.89 31.57 -11.89 c
14.83 0 27.38 5.59 37.64 16.77 c
10.27 11.18 15.4 26.01 15.4 44.48 c
0 17.57 -4.93 31.43 -14.8 41.58 c
-9.87 10.15 -22.79 15.23 -38.75 15.23 c
-9.93 0 -18.88 -2.25 -26.86 -6.76 c
-7.98 -4.5 -14.26 -10.35 -18.82 -17.54 c
-28.91 3.77 0 0 -28.91 3.77 c
24.29 128.84 0 0 24.29 128.84 c
124.73 0 0 0 124.73 0 c
0 -29.43 0 0 0 -29.43 c
-100.09 0 0 0 -100.09 0 c
-13.52 -67.41 0 0 -13.52 -67.41 c
15.06 10.49 30.86 15.74 47.39 15.74 c
21.9 0 40.38 -7.58 55.44 -22.75 c
15.05 -15.17 22.59 -34.68 22.59 -58.52 c
0 -22.7 -6.62 -42.32 -19.85 -58.86 c
-16.09 -20.3 -38.04 -30.46 -65.87 -30.46 c
-22.81 0 -41.43 6.39 -55.86 19.16 c
-14.43 12.77 -22.67 29.71 -24.72 50.82 c
f
765.54 4011.7 m
0 29.66 3.05 53.52 9.15 71.61 c
6.11 18.08 15.17 32.02 27.21 41.83 c
12.03 9.81 27.18 14.71 45.43 14.71 c
13.46 0 25.27 -2.71 35.42 -8.13 c
10.15 -5.42 18.54 -13.23 25.15 -23.44 c
6.62 -10.21 11.81 -22.64 15.57 -37.3 c
3.77 -14.66 5.65 -34.42 5.65 -59.29 c
0 -29.43 -3.02 -53.18 -9.07 -71.26 c
-6.04 -18.08 -15.09 -32.05 -27.12 -41.92 c
-12.04 -9.87 -27.23 -14.8 -45.6 -14.8 c
-24.18 0 -43.17 8.67 -56.98 26.01 c
-16.54 20.87 -24.81 54.86 -24.81 101.97 c
h
797.2 4011.7 m
0 -41.18 4.82 -68.58 14.46 -82.21 c
9.64 -13.63 21.53 -20.45 35.68 -20.45 c
14.14 0 26.04 6.84 35.67 20.53 c
9.64 13.69 14.46 41.06 14.46 82.13 c
0 41.29 -4.82 68.72 -14.46 82.3 c
-9.64 13.57 -21.64 20.36 -36.02 20.36 c
-14.14 0 -25.44 -5.99 -33.87 -17.96 c
-10.61 -15.28 -15.91 -43.52 -15.91 -84.69 c
f
960.54 4011.7 m
0 29.66 3.05 53.52 9.15 71.61 c
6.11 18.08 15.17 32.02 27.21 41.83 c
12.03 9.81 27.18 14.71 45.43 14.71 c
13.46 0 25.27 -2.71 35.42 -8.13 c
10.15 -5.42 18.54 -13.23 25.15 -23.44 c
6.62 -10.21 11.81 -22.64 15.57 -37.3 c
3.77 -14.66 5.65 -34.42 5.65 -59.29 c
0 -29.43 -3.02 -53.18 -9.07 -71.26 c
-6.04 -18.08 -15.09 -32.05 -27.12 -41.92 c
-12.04 -9.87 -27.23 -14.8 -45.6 -14.8 c
-24.18 0 -43.17 8.67 -56.98 26.01 c
-16.54 20.87 -24.81 54.86 -24.81 101.97 c
h
992.2 4011.7 m
0 -41.18 4.82 -68.58 14.46 -82.21 c
9.64 -13.63 21.53 -20.45 35.68 -20.45 c
14.14 0 26.04 6.84 35.67 20.53 c
9.64 13.69 14.46 41.06 14.46 82.13 c
0 41.29 -4.82 68.72 -14.46 82.3 c
-9.64 13.57 -21.64 20.36 -36.02 20.36 c
-14.14 0 -25.44 -5.99 -33.87 -17.96 c
-10.61 -15.28 -15.91 -43.52 -15.91 -84.69 c
f
1154.54 4011.7 m
0 29.66 3.05 53.52 9.15 71.61 c
6.11 18.08 15.17 32.02 27.21 41.83 c
12.03 9.81 27.18 14.71 45.43 14.71 c
13.46 0 25.27 -2.71 35.42 -8.13 c
10.15 -5.42 18.54 -13.23 25.15 -23.44 c
6.62 -10.21 11.81 -22.64 15.57 -37.3 c
3.77 -14.66 5.65 -34.42 5.65 -59.29 c
0 -29.43 -3.02 -53.18 -9.07 -71.26 c
-6.04 -18.08 -15.09 -32.05 -27.12 -41.92 c
-12.04 -9.87 -27.23 -14.8 -45.6 -14.8 c
-24.18 0 -43.17 8.67 -56.98 26.01 c
-16.54 20.87 -24.81 54.86 -24.81 101.97 c
h
1186.2 4011.7 m
0 -41.18 4.82 -68.58 14.46 -82.21 c
9.64 -13.63 21.53 -20.45 35.68 -20.45 c
14.14 0 26.04 6.84 35.67 20.53 c
9.64 13.69 14.46 41.06 14.46 82.13 c
0 41.29 -4.82 68.72 -14.46 82.3 c
-9.64 13.57 -21.64 20.36 -36.02 20.36 c
-14.14 0 -25.44 -5.99 -33.87 -17.96 c
-10.61 -15.28 -15.91 -43.52 -15.91 -84.69 c
f
376.71 4506.21 m
30.8 4.11 0 0 30.8 4.11 c
3.54 -17.45 9.55 -30.03 18.05 -37.73 c
8.5 -7.7 18.85 -11.55 31.05 -11.55 c
14.49 0 26.72 5.02 36.7 15.05 c
9.98 10.04 14.97 22.47 14.97 37.3 c
0 14.14 -4.62 25.8 -13.86 34.99 c
-9.24 9.18 -20.99 13.77 -35.25 13.77 c
-5.82 0 -13.06 -1.14 -21.73 -3.42 c
3.42 27.03 0 0 3.42 27.03 c
2.05 -0.23 3.71 -0.34 4.96 -0.34 c
13.12 0 24.93 3.42 35.42 10.27 c
10.5 6.84 15.74 17.39 15.74 31.65 c
0 11.29 -3.82 20.64 -11.46 28.06 c
-7.64 7.41 -17.51 11.12 -29.6 11.12 c
-11.98 0 -21.96 -3.76 -29.94 -11.29 c
-7.99 -7.53 -13.12 -18.82 -15.4 -33.87 c
-30.8 5.47 0 0 -30.8 5.47 c
3.77 20.65 12.32 36.64 25.66 48 c
13.35 11.35 29.95 17.02 49.79 17.02 c
13.69 0 26.29 -2.94 37.81 -8.81 c
11.52 -5.87 20.33 -13.89 26.44 -24.04 c
6.1 -10.15 9.15 -20.93 9.15 -32.34 c
0 -10.84 -2.91 -20.7 -8.73 -29.6 c
-5.82 -8.9 -14.43 -15.97 -25.84 -21.21 c
14.83 -3.42 26.35 -10.52 34.56 -21.3 c
8.21 -10.78 12.32 -24.27 12.32 -40.46 c
0 -21.9 -7.98 -40.46 -23.95 -55.69 c
-15.97 -15.23 -36.16 -22.84 -60.57 -22.84 c
-22.02 0 -40.29 6.56 -54.84 19.68 c
-14.54 13.12 -22.84 30.11 -24.89 50.99 c
f
571.54 4563.7 m
0 29.66 3.05 53.52 9.15 71.61 c
6.11 18.08 15.17 32.02 27.21 41.83 c
12.03 9.81 27.18 14.71 45.43 14.71 c
13.46 0 25.27 -2.71 35.42 -8.13 c
10.15 -5.42 18.54 -13.23 25.15 -23.44 c
6.62 -10.21 11.81 -22.64 15.57 -37.3 c
3.77 -14.66 5.65 -34.42 5.65 -59.29 c
0 -29.43 -3.02 -53.18 -9.07 -71.26 c
-6.04 -18.08 -15.09 -32.05 -27.12 -41.92 c
-12.04 -9.87 -27.23 -14.8 -45.6 -14.8 c
-24.18 0 -43.17 8.67 -56.98 26.01 c
-16.54 20.87 -24.81 54.86 -24.81 101.97 c
h
603.2 4563.7 m
0 -41.18 4.82 -68.58 14.46 -82.21 c
9.64 -13.63 21.53 -20.45 35.68 -20.45 c
14.14 0 26.04 6.84 35.67 20.53 c
9.64 13.69 14.46 41.06 14.46 82.13 c
0 41.29 -4.82 68.72 -14.46 82.3 c
-9.64 13.57 -21.64 20.36 -36.02 20.36 c
-14.14 0 -25.44 -5.99 -33.87 -17.96 c
-10.61 -15.28 -15.91 -43.51 -15.91 -84.69 c
f
765.54 4563.7 m
0 29.66 3.05 53.52 9.15 71.61 c
6.11 18.08 15.17 32.02 27.21 41.83 c
12.03 9.81 27.18 14.71 45.43 14.71 c
13.46 0 25.27 -2.71 35.42 -8.13 c
10.15 -5.42 18.54 -13.23 25.15 -23.44 c
6.62 -10.21 11.81 -22.64 15.57 -37.3 c
3.77 -14.66 5.65 -34.42 5.65 -59.29 c
0 -29.43 -3.02 -53.18 -9.07 -71.26 c
-6.04 -18.08 -15.09 -32.05 -27.12 -41.92 c
-12.04 -9.87 -27.23 -14.8 -45.6 -14.8 c
-24.18 0 -43.17 8.67 -56.98 26.01 c
-16.54 20.87 -24.81 54.86 -24.81 101.97 c
h
797.2 4563.7 m
0 -41.18 4.82 -68.58 14.46 -82.21 c
9.64 -13.63 21.53 -20.45 35.68 -20.45 c
14.14 0 26.04 6.84 35.67 20.53 c
9.64 13.69 14.46 41.06 14.46 82.13 c
0 41.29 -4.82 68.72 -14.46 82.3 c
-9.64 13.57 -21.64 20.36 -36.02 20.36 c
-14.14 0 -25.44 -5.99 -33.87 -17.96 c
-10.61 -15.28 -15.91 -43.51 -15.91 -84.69 c
f
960.54 4563.7 m
0 29.66 3.05 53.52 9.15 71.61 c
6.11 18.08 15.17 32.02 27.21 41.83 c
12.03 9.81 27.18 14.71 45.43 14.71 c
13.46 0 25.27 -2.71 35.42 -8.13 c
10.15 -5.42 18.54 -13.23 25.15 -23.44 c
6.62 -10.21 11.81 -22.64 15.57 -37.3 c
3.77 -14.66 5.65 -34.42 5.65 -59.29 c
0 -29.43 -3.02 -53.18 -9.07 -71.26 c
-6.04 -18.08 -15.09 -32.05 -27.12 -41.92 c
-12.04 -9.87 -27.23 -14.8 -45.6 -14.8 c
-24.18 0 -43.17 8.67 -56.98 26.01 c
-16.54 20.87 -24.81 54.86 -24.81 101.97 c
h
992.2 4563.7 m
0 -41.18 4.82 -68.58 14.46 -82.21 c
9.64 -13.63 21.53 -20.45 35.68 -20.45 c
14.14 0 26.04 6.84 35.67 20.53 c
9.64 13.69 14.46 41.06 14.46 82.13 c
0 41.29 -4.82 68.72 -14.46 82.3 c
-9.64 13.57 -21.64 20.36 -36.02 20.36 c
-14.14 0 -25.44 -5.99 -33.87 -17.96 c
-10.61 -15.28 -15.91 -43.51 -15.91 -84.69 c
f
1154.54 4563.7 m
0 29.66 3.05 53.52 9.15 71.61 c
6.11 18.08 15.17 32.02 27.21 41.83 c
12.03 9.81 27.18 14.71 45.43 14.71 c
13.46 0 25.27 -2.71 35.42 -8.13 c
10.15 -5.42 18.54 -13.23 25.15 -23.44 c
6.62 -10.21 11.81 -22.64 15.57 -37.3 c
3.77 -14.66 5.65 -34.42 5.65 -59.29 c
0 -29.43 -3.02 -53.18 -9.07 -71.26 c
-6.04 -18.08 -15.09 -32.05 -27.12 -41.92 c
-12.04 -9.87 -27.23 -14.8 -45.6 -14.8 c
-24.18 0 -43.17 8.67 -56.98 26.01 c
-16.54 20.87 -24.81 54.86 -24.81 101.97 c
h
1186.2 4563.7 m
0 -41.18 4.82 -68.58 14.46 -82.21 c
9.64 -13.63 21.53 -20.45 35.68 -20.45 c
14.14 0 26.04 6.84 35.67 20.53 c
9.64 13.69 14.46 41.06 14.46 82.13 c
0 41.29 -4.82 68.72 -14.46 82.3 c
-9.64 13.57 -21.64 20.36 -36.02 20.36 c
-14.14 0 -25.44 -5.99 -33.87 -17.96 c
-10.61 -15.28 -15.91 -43.51 -15.91 -84.69 c
f
376.71 5060.21 m
30.8 4.11 0 0 30.8 4.11 c
3.54 -17.45 9.55 -30.03 18.05 -37.73 c
8.5 -7.7 18.85 -11.55 31.05 -11.55 c
14.49 0 26.72 5.02 36.7 15.05 c
9.98 10.04 14.97 22.47 14.97 37.3 c
0 14.14 -4.62 25.8 -13.86 34.99 c
-9.24 9.18 -20.99 13.77 -35.25 13.77 c
-5.82 0 -13.06 -1.14 -21.73 -3.42 c
3.42 27.03 0 0 3.42 27.03 c
2.05 -0.23 3.71 -0.34 4.96 -0.34 c
13.12 0 24.93 3.42 35.42 10.27 c
10.5 6.84 15.74 17.39 15.74 31.65 c
0 11.29 -3.82 20.64 -11.46 28.06 c
-7.64 7.41 -17.51 11.12 -29.6 11.12 c
-11.98 0 -21.96 -3.76 -29.94 -11.29 c
-7.99 -7.53 -13.12 -18.82 -15.4 -33.87 c
-30.8 5.47 0 0 -30.8 5.47 c
3.77 20.65 12.32 36.64 25.66 48 c
13.35 11.35 29.95 17.02 49.79 17.02 c
13.69 0 26.29 -2.94 37.81 -8.81 c
11.52 -5.87 20.33 -13.89 26.44 -24.04 c
6.1 -10.15 9.15 -20.93 9.15 -32.34 c
0 -10.84 -2.91 -20.7 -8.73 -29.6 c
-5.82 -8.9 -14.43 -15.97 -25.84 -21.21 c
14.83 -3.42 26.35 -10.52 34.56 -21.3 c
8.21 -10.78 12.32 -24.27 12.32 -40.46 c
0 -21.9 -7.98 -40.46 -23.95 -55.69 c
-15.97 -15.23 -36.16 -22.84 -60.57 -22.84 c
-22.02 0 -40.29 6.56 -54.84 19.68 c
-14.54 13.12 -22.84 30.11 -24.89 50.99 c
f
571.54 5059.7 m
32.34 2.73 0 0 32.34 2.73 c
2.4 -15.74 7.96 -27.57 16.68 -35.5 c
8.73 -7.93 19.25 -11.89 31.57 -11.89 c
14.83 0 27.38 5.59 37.64 16.77 c
10.27 11.18 15.4 26.01 15.4 44.48 c
0 17.57 -4.93 31.43 -14.8 41.58 c
-9.87 10.15 -22.79 15.23 -38.75 15.23 c
-9.93 0 -18.88 -2.25 -26.86 -6.76 c
-7.98 -4.5 -14.26 -10.35 -18.82 -17.54 c
-28.91 3.77 0 0 -28.91 3.77 c
24.29 128.84 0 0 24.29 128.84 c
124.73 0 0 0 124.73 0 c
0 -29.43 0 0 0 -29.43 c
-100.09 0 0 0 -100.09 0 c
-13.52 -67.41 0 0 -13.52 -67.41 c
15.06 10.49 30.86 15.74 47.39 15.74 c
21.9 0 40.38 -7.58 55.44 -22.75 c
15.05 -15.17 22.59 -34.68 22.59 -58.52 c
0 -22.7 -6.62 -42.32 -19.85 -58.86 c
-16.09 -20.3 -38.04 -30.46 -65.87 -30.46 c
-22.81 0 -41.43 6.39 -55.86 19.16 c
-14.43 12.77 -22.67 29.71 -24.72 50.82 c
f
765.54 5117.7 m
0 29.66 3.05 53.52 9.15 71.61 c
6.11 18.08 15.17 32.02 27.21 41.83 c
12.03 9.81 27.18 14.71 45.43 14.71 c
13.46 0 25.27 -2.71 35.42 -8.13 c
10.15 -5.42 18.54 -13.23 25.15 -23.44 c
6.62 -10.21 11.81 -22.64 15.57 -37.3 c
3.77 -14.66 5.65 -34.42 5.65 -59.29 c
0 -29.43 -3.02 -53.18 -9.07 -71.26 c
-6.04 -18.08 -15.09 -32.05 -27.12 -41.92 c
-12.04 -9.87 -27.23 -14.8 -45.6 -14.8 c
-24.18 0 -43.17 8.67 -56.98 26.01 c
-16.54 20.87 -24.81 54.86 -24.81 101.97 c
h
797.2 5117.7 m
0 -41.18 4.82 -68.58 14.46 -82.21 c
9.64 -13.63 21.53 -20.45 35.68 -20.45 c
14.14 0 26.04 6.84 35.67 20.53 c
9.64 13.69 14.46 41.06 14.46 82.13 c
0 41.29 -4.82 68.72 -14.46 82.3 c
-9.64 13.57 -21.64 20.36 -36.02 20.36 c
-14.14 0 -25.44 -5.99 -33.87 -17.96 c
-10.61 -15.28 -15.91 -43.51 -15.91 -84.69 c
f
960.54 5117.7 m
0 29.66 3.05 53.52 9.15 71.61 c
6.11 18.08 15.17 32.02 27.21 41.83 c
12.03 9.81 27.18 14.71 45.43 14.71 c
13.46 0 25.27 -2.71 35.42 -8.13 c
10.15 -5.42 18.54 -13.23 25.15 -23.44 c
6.62 -10.21 11.81 -22.64 15.57 -37.3 c
3.77 -14.66 5.65 -34.42 5.65 -59.29 c
0 -29.43 -3.02 -53.18 -9.07 -71.26 c
-6.04 -18.08 -15.09 -32.05 -27.12 -41.92 c
-12.04 -9.87 -27.23 -14.8 -45.6 -14.8 c
-24.18 0 -43.17 8.67 -56.98 26.01 c
-16.54 20.87 -24.81 54.86 -24.81 101.97 c
h
992.2 5117.7 m
0 -41.18 4.82 -68.58 14.46 -82.21 c
9.64 -13.63 21.53 -20.45 35.68 -20.45 c
14.14 0 26.04 6.84 35.67 20.53 c
9.64 13.69 14.46 41.06 14.46 82.13 c
0 41.29 -4.82 68.72 -14.46 82.3 c
-9.64 13.57 -21.64 20.36 -36.02 20.36 c
-14.14 0 -25.44 -5.99 -33.87 -17.96 c
-10.61 -15.28 -15.91 -43.51 -15.91 -84.69 c
f
1154.54 5117.7 m
0 29.66 3.05 53.52 9.15 71.61 c
6.11 18.08 15.17 32.02 27.21 41.83 c
12.03 9.81 27.18 14.71 45.43 14.71 c
13.46 0 25.27 -2.71 35.42 -8.13 c
10.15 -5.42 18.54 -13.23 25.15 -23.44 c
6.62 -10.21 11.81 -22.64 15.57 -37.3 c
3.77 -14.66 5.65 -34.42 5.65 -59.29 c
0 -29.43 -3.02 -53.18 -9.07 -71.26 c
-6.04 -18.08 -15.09 -32.05 -27.12 -41.92 c
-12.04 -9.87 -27.23 -14.8 -45.6 -14.8 c
-24.18 0 -43.17 8.67 -56.98 26.01 c
-16.54 20.87 -24.81 54.86 -24.81 101.97 c
h
1186.2 5117.7 m
0 -41.18 4.82 -68.58 14.46 -82.21 c
9.64 -13.63 21.53 -20.45 35.68 -20.45 c
14.14 0 26.04 6.84 35.67 20.53 c
9.64 13.69 14.46 41.06 14.46 82.13 c
0 41.29 -4.82 68.72 -14.46 82.3 c
-9.64 13.57 -21.64 20.36 -36.02 20.36 c
-14.14 0 -25.44 -5.99 -33.87 -17.96 c
-10.61 -15.28 -15.91 -43.51 -15.91 -84.69 c
f
16.8003 w
1 J
1 j
q 1 -0.999998 scale
1454.43 -950.42 0 0 S
Q
q 1 -0.999998 scale
1975.23 -950.42 0 0 S
Q
q 1 -0.999998 scale
2498.44 -950.42 0 0 S
Q
q 1 -0.999998 scale
3019.26 -950.42 0 0 S
Q
q 1 -0.999998 scale
3540.06 -950.42 0 0 S
Q
q 1 -0.999998 scale
4060.88 -950.42 0 0 S
Q
q 1 -0.999998 scale
4581.68 -950.42 0 0 S
Q
q 1 -0.999998 scale
5104.89 -950.42 0 0 S
Q
q 1 -0.999998 scale
5625.7 -950.42 0 0 S
Q
q 1 -0.999998 scale
6146.51 -950.42 0 0 S
Q
q 1 -0.999998 scale
6667.32 -950.42 0 0 S
Q
q 1 -0.999998 scale
7190.53 -950.42 0 0 S
Q
q 1 -0.999998 scale
7711.34 -950.42 0 0 S
Q
q 1 -0.999998 scale
1454.43 -950.42 6256.91 0 S
Q
q 1 -0.999998 scale
1454.43 -950.42 0 0 S
Q
q 1 -0.999998 scale
1454.43 -1226.42 0 0 S
Q
q 1 -0.999998 scale
1454.43 -1502.43 0 0 S
Q
q 1 -0.999998 scale
1454.43 -1780.83 0 0 S
Q
q 1 -0.999998 scale
1454.43 -2056.84 0 0 S
Q
q 1 -0.999998 scale
1454.43 -2332.84 0 0 S
Q
q 1 -0.999998 scale
1454.43 -2608.85 0 0 S
Q
q 1 -0.999998 scale
1454.43 -2887.26 0 0 S
Q
q 1 -0.999998 scale
1454.43 -3163.26 0 0 S
Q
q 1 -0.999998 scale
1454.43 -3439.26 0 0 S
Q
q 1 -0.999998 scale
1454.43 -3715.27 0 0 S
Q
q 1 -0.999998 scale
1454.43 -3993.68 0 0 S
Q
q 1 -0.999998 scale
1454.43 -4269.68 0 0 S
Q
q 1 -0.999998 scale
1454.43 -4545.68 0 0 S
Q
q 1 -0.999998 scale
1454.43 -4821.69 0 0 S
Q
q 1 -0.999998 scale
1454.43 -5100.1 0 0 S
Q
q 1 -0.999998 scale
1454.43 -5376.1 0 0 S
Q
q 1 -0.999998 scale
1454.43 -950.42 0 -4425.68 S
Q
Q q
1454.43 948.016 6259.33 4428.07 re
Y*
31.2006 w
1 J
1 j
K
q 1 -0.999998 scale
1982.44 -1243.22 4.8 0 4.8 0 7.2 0 4.8 0 7.2 0 4.8 0 7.2 0 
4.8 0 4.8 0 7.2 0 4.8 -14.4 7.2 0 4.8 0 4.8 0 7.2 0 
4.8 0 7.2 0 4.8 0 7.2 0 4.8 0 4.8 0 7.2 -14.4 4.8 0 
7.2 0 4.8 0 4.8 0 7.2 0 4.8 0 7.2 0 4.8 0 4.8 0 
7.2 0 4.8 -14.4 7.2 0 4.8 0 7.2 0 4.8 0 4.8 0 7.2 0 
4.8 0 7.2 0 4.8 0 4.8 0 7.2 0 4.8 -14.4 7.2 0 4.8 0 
7.2 0 4.8 0 4.8 0 7.2 0 4.8 0 7.2 0 4.8 0 4.8 0 
7.2 0 4.8 0 7.2 -14.4 4.8 0 4.8 0 7.2 0 4.8 0 7.2 0 
4.8 0 7.2 0 4.8 0 4.8 0 7.2 0 4.8 0 7.2 0 4.8 -14.4 
4.8 0 7.2 0 4.8 0 7.2 0 4.8 0 7.2 0 4.8 0 4.8 -2.4 
7.2 0 4.8 0 7.2 0 4.8 0 4.8 -14.4 7.2 0 4.8 0 7.2 0 
4.8 0 4.8 0 7.2 0 4.8 0 7.2 0 4.8 0 7.2 0 4.8 0 
4.8 0 7.2 -14.4 4.8 0 7.2 0 4.8 0 4.8 0 7.2 0 4.8 0 
7.2 0 4.8 0 7.2 0 4.8 0 4.8 -14.4 7.2 0 4.8 0 7.2 0 
4.8 0 4.8 0 7.2 0 4.8 0 7.2 0 4.8 0 7.2 0 4.8 -14.4 
4.8 0 7.2 0 4.8 0 7.2 0 4.8 0 4.8 0 7.2 0 4.8 0 
7.2 0 4.8 0 4.8 -14.4 7.2 0 4.8 0 7.2 0 4.8 0 7.2 0 
4.8 0 4.8 0 7.2 0 4.8 0 7.2 -14.4 4.8 0 4.8 0 7.2 0 
4.8 0 7.2 0 4.8 0 7.2 0 4.8 0 4.8 -16.8 7.2 0 4.8 0 
7.2 0 4.8 0 4.8 0 7.2 0 4.8 0 7.2 0 4.8 0 4.8 0 
7.2 -14.4 4.8 0 7.2 0 4.8 0 7.2 0 4.8 0 4.8 0 7.2 0 
4.8 0 7.2 0 4.8 0 4.8 -14.4 7.2 0 4.8 0 7.2 0 4.8 0 
7.2 0 4.8 0 4.8 0 7.2 0 4.8 0 7.2 0 4.8 -14.4 4.8 0 
7.2 0 4.8 0 7.2 0 4.8 0 4.8 0 7.2 0 4.8 0 7.2 -14.4 
4.8 0 7.2 0 4.8 0 4.8 0 7.2 0 4.8 0 7.2 0 4.8 0 
4.8 0 7.2 -14.4 4.8 0 7.2 0 4.8 0 7.2 0 4.8 0 4.8 0 
7.2 0 4.8 0 7.2 0 4.8 -14.4 4.8 0 7.2 0 4.8 0 7.2 -2.4 
4.8 0 4.8 0 7.2 0 4.8 0 7.2 0 4.8 0 7.2 0 4.8 0 
4.8 0 7.2 -14.4 4.8 0 7.2 0 4.8 0 4.8 0 7.2 0 4.8 0 
7.2 0 4.8 0 7.2 0 4.8 0 4.8 0 7.2 0 4.8 0 7.2 -14.4 
4.8 0 P
4.8 0 7.2 0 4.8 0 7.2 0 4.8 0 4.8 0 7.2 0 4.8 0 
7.2 0 4.8 0 7.2 0 4.8 -14.4 4.8 0 7.2 0 4.8 0 7.2 0 
4.8 0 4.8 0 7.2 0 4.8 0 7.2 0 4.8 0 7.2 0 4.8 0 
4.8 -14.4 7.2 0 4.8 0 7.2 0 4.8 0 4.8 0 7.2 0 4.8 0 
7.2 0 4.8 0 4.8 0 7.2 0 4.8 0 7.2 -14.4 4.8 0 7.2 0 
4.8 0 4.8 0 7.2 0 4.8 0 7.2 0 4.8 0 4.8 0 7.2 0 
4.8 0 7.2 -14.4 4.8 0 7.2 0 4.8 0 4.8 0 7.2 0 4.8 -2.4 
7.2 0 4.8 0 4.8 0 7.2 0 4.8 0 7.2 -14.4 4.8 0 4.8 0 
7.2 0 4.8 0 7.2 0 4.8 0 7.2 0 4.8 0 4.8 0 7.2 0 
4.8 0 7.2 -14.4 4.8 0 4.8 0 7.2 0 4.8 0 7.2 0 4.8 0 
7.2 0 4.8 0 4.8 -14.4 7.2 0 4.8 0 7.2 0 4.8 0 4.8 0 
7.2 0 4.8 0 7.2 0 4.8 -14.4 4.8 0 7.2 0 4.8 0 7.2 0 
4.8 0 7.2 0 4.8 0 4.8 0 7.2 0 4.8 -14.4 7.2 0 4.8 0 
4.8 0 7.2 0 4.8 0 7.2 0 4.8 0 7.2 0 4.8 0 4.8 -14.4 
7.2 0 4.8 0 7.2 0 4.8 0 4.8 0 7.2 0 4.8 -2.4 7.2 0 
4.8 0 4.8 -14.4 7.2 0 4.8 0 7.2 0 4.8 0 7.2 0 4.8 0 
4.8 0 7.2 0 4.8 0 7.2 -14.4 4.8 0 4.8 0 7.2 0 4.8 0 
7.2 0 4.8 0 7.2 0 4.8 0 4.8 0 7.2 -14.4 4.8 0 7.2 0 
4.8 0 4.8 0 7.2 0 4.8 0 7.2 0 4.8 0 4.8 0 7.2 -14.4 
4.8 0 7.2 0 4.8 0 7.2 0 4.8 0 4.8 0 7.2 0 4.8 0 
7.2 0 4.8 -14.4 4.8 0 7.2 0 4.8 0 7.2 0 4.8 0 7.2 0 
4.8 0 4.8 0 7.2 -14.4 4.8 0 7.2 0 4.8 0 4.8 0 7.2 0 
4.8 0 7.2 0 4.8 -14.4 4.8 0 7.2 0 4.8 -2.4 7.2 0 4.8 0 
7.2 0 4.8 0 4.8 -14.4 7.2 0 4.8 0 7.2 0 4.8 0 4.8 0 
7.2 0 4.8 -14.4 7.2 0 4.8 0 7.2 0 4.8 0 4.8 0 7.2 0 
4.8 -14.4 7.2 0 4.8 0 4.8 0 7.2 0 4.8 0 7.2 -14.4 4.8 0 
7.2 0 4.8 0 4.8 0 7.2 0 4.8 0 7.2 0 4.8 -14.4 4.8 0 
7.2 0 4.8 0 7.2 0 4.8 0 4.8 0 7.2 -14.4 4.8 0 7.2 0 
4.8 0 7.2 0 4.8 0 4.8 -2.4 7.2 -14.4 4.8 0 7.2 0 4.8 0 
4.8 0 7.2 0 4.8 0 7.2 -14.4 4.8 0 7.2 0 4.8 0 4.8 0 
7.2 0 p
4.8 0 7.2 -14.4 4.8 0 4.8 0 7.2 0 4.8 0 7.2 0 4.8 -14.4 
4.8 0 7.2 0 4.8 0 7.2 0 4.8 -14.4 7.2 0 4.8 0 4.8 0 
7.2 -14.4 4.8 0 7.2 0 4.8 -16.8 4.8 0 7.2 0 4.8 -14.4 7.2 0 
4.8 0 7.2 -14.4 4.8 0 4.8 0 7.2 -14.4 4.8 0 7.2 0 4.8 -14.4 
4.8 0 7.2 0 4.8 -14.4 7.2 0 4.8 0 4.8 0 7.2 -14.4 4.8 0 
7.2 -2.4 4.8 0 7.2 -14.4 4.8 0 4.8 0 7.2 0 4.8 -14.4 7.2 0 
4.8 0 4.8 0 7.2 -14.4 4.8 0 7.2 0 4.8 0 7.2 -14.4 4.8 0 
4.8 0 7.2 0 4.8 -14.4 7.2 0 4.8 0 4.8 0 7.2 -14.4 4.8 0 
7.2 0 4.8 -2.4 4.8 -14.4 7.2 0 4.8 0 7.2 0 4.8 -14.4 7.2 0 
4.8 0 4.8 -14.4 7.2 0 4.8 0 7.2 -14.4 4.8 0 4.8 0 7.2 -14.4 
4.8 0 7.2 0 4.8 -14.4 7.2 0 4.8 -16.8 4.8 0 7.2 -14.4 4.8 0 
7.2 -14.4 4.8 0 4.8 -14.4 7.2 0 4.8 -14.4 7.2 0 4.8 -14.4 4.8 0 
7.2 -14.4 4.8 -2.4 7.2 -14.4 4.8 0 7.2 -14.4 4.8 0 4.8 -14.4 7.2 0 
4.8 -14.4 7.2 0 4.8 0 4.8 -14.4 7.2 0 4.8 0 7.2 -14.4 4.8 0 
7.2 -2.4 4.8 -14.4 4.8 0 7.2 0 4.8 -14.4 7.2 0 4.8 0 4.8 -14.4 
7.2 0 4.8 0 7.2 -14.4 4.8 0 4.8 0 7.2 -14.4 4.8 0 7.2 0 
4.8 -14.4 7.2 0 4.8 0 4.8 -16.8 7.2 0 4.8 0 7.2 -14.4 4.8 0 
4.8 0 7.2 -14.4 4.8 0 7.2 0 4.8 -14.4 7.2 0 4.8 0 4.8 -14.4 
7.2 0 4.8 0 7.2 -14.4 4.8 0 4.8 0 7.2 -14.4 4.8 -2.4 7.2 0 
4.8 -14.4 4.8 0 7.2 0 4.8 -14.4 7.2 0 4.8 0 7.2 -14.4 4.8 0 
4.8 0 7.2 -14.4 4.8 0 7.2 0 4.8 -14.4 4.8 0 7.2 0 4.8 -14.4 
7.2 0 4.8 -16.8 7.2 0 4.8 -14.4 4.8 0 7.2 -14.4 4.8 0 7.2 -14.4 
4.8 0 4.8 -14.4 7.2 0 4.8 -14.4 7.2 0 4.8 0 4.8 -16.8 7.2 0 
4.8 0 7.2 -14.4 4.8 0 7.2 0 4.8 -14.4 4.8 0 7.2 0 4.8 -14.4 
7.2 0 4.8 0 4.8 -14.4 7.2 0 4.8 0 7.2 -14.4 4.8 0 7.2 -14.4 
4.8 0 4.8 -16.8 7.2 0 4.8 -14.4 7.2 0 4.8 -14.4 4.8 0 7.2 -14.4 
4.8 0 7.2 -14.4 4.8 0 4.8 -14.4 7.2 0 4.8 -16.8 7.2 0 4.8 -14.4 
7.2 0 4.8 -14.4 p S
Q
q 1 -0.999998 scale
6031.31 -3060.06 4.8 0 7.2 -14.4 4.8 0 7.2 -14.4 4.8 0 4.8 -14.4 7.2 0 
4.8 -14.4 7.2 -2.4 4.8 -14.4 7.2 -14.4 4.8 -14.4 4.8 -14.4 7.2 -14.4 4.8 -14.4 
7.2 -16.8 4.8 -14.4 4.8 -14.4 7.2 0 4.8 -14.4 7.2 0 4.8 -14.4 4.8 0 
7.2 -14.4 4.8 0 7.2 -16.8 4.8 0 7.2 -14.4 4.8 0 4.8 -14.4 7.2 0 
4.8 -14.4 7.2 0 4.8 -14.4 4.8 0 7.2 -14.4 4.8 0 7.2 -14.4 4.8 -16.8 
7.2 -14.4 4.8 -14.4 4.8 -14.4 7.2 -14.4 4.8 -14.4 7.2 -16.8 4.8 -14.4 4.8 -14.4 
7.2 -14.4 4.8 -14.4 7.2 -14.4 4.8 0 4.8 0 7.2 -2.4 4.8 -14.4 7.2 0 
4.8 0 7.2 0 4.8 -14.4 4.8 0 7.2 0 4.8 0 7.2 -14.4 4.8 0 
4.8 0 7.2 0 4.8 -14.4 7.2 0 4.8 0 7.2 -14.4 4.8 0 4.8 0 
7.2 -14.4 4.8 0 7.2 0 4.8 -14.4 4.8 -2.4 7.2 0 4.8 -14.4 7.2 0 
4.8 -14.4 4.8 0 7.2 -14.4 4.8 0 7.2 -14.4 4.8 0 7.2 -14.4 4.8 0 
4.8 -14.4 7.2 0 4.8 -16.8 7.2 0 4.8 -14.4 4.8 0 7.2 -14.4 4.8 -14.4 
7.2 0 4.8 -14.4 7.2 0 4.8 -14.4 4.8 0 7.2 -16.8 4.8 0 7.2 -14.4 
4.8 0 4.8 -14.4 7.2 0 4.8 -14.4 7.2 0 4.8 -14.4 4.8 0 7.2 -14.4 
4.8 0 7.2 -14.4 4.8 -2.4 7.2 -14.4 4.8 0 4.8 -14.4 7.2 0 4.8 -14.4 
7.2 0 4.8 -14.4 4.8 0 7.2 -14.4 4.8 0 7.2 -14.4 4.8 0 7.2 -16.8 
4.8 0 4.8 -14.4 7.2 0 4.8 -14.4 7.2 0 4.8 -14.4 4.8 0 7.2 -14.4 
4.8 0 7.2 -14.4 4.8 0 7.2 -14.4 4.8 -2.4 4.8 -14.4 7.2 0 4.8 -14.4 
7.2 0 4.8 -14.4 4.8 0 7.2 -14.4 4.8 0 7.2 -14.4 4.8 0 4.8 -14.4 
7.2 0 4.8 -16.8 7.2 0 4.8 -14.4 7.2 0 4.8 -14.4 4.8 0 7.2 -14.4 
4.8 0 7.2 -14.4 4.8 0 4.8 -14.4 7.2 0 4.8 -16.8 7.2 0 4.8 -14.4 
7.2 0 4.8 -14.4 4.8 0 7.2 -14.4 4.8 -14.4 7.2 -14.4 4.8 -14.4 4.8 -16.8 
7.2 -14.4 4.8 -14.4 7.2 -14.4 4.8 -14.4 4.8 -14.4 7.2 -16.8 4.8 -14.4 7.2 -14.4 
4.8 -14.4 7.2 -14.4 4.8 -14.4 4.8 -16.8 7.2 -14.4 4.8 -14.4 7.2 -14.4 4.8 -14.4 
4.8 -14.4 7.2 -14.4 4.8 -16.8 7.2 -14.4 4.8 -14.4 7.2 -14.4 4.8 -14.4 4.8 -14.4 
7.2 -16.8 S
Q
Q q
1454.43 948.016 6259.33 4428.07 re
Y*
31.2006 w
1 J
1 j
255 0 r3
q 1 -0.999998 scale
1982.44 -1243.22 4.8 0 4.8 0 7.2 0 4.8 0 7.2 0 4.8 0 7.2 0 
4.8 0 4.8 0 7.2 0 4.8 0 7.2 0 4.8 0 4.8 0 7.2 0 
4.8 0 7.2 0 4.8 0 7.2 0 4.8 0 4.8 0 7.2 0 4.8 0 
7.2 0 4.8 0 4.8 0 7.2 0 4.8 0 7.2 0 4.8 0 4.8 0 
7.2 0 4.8 0 7.2 0 4.8 0 7.2 0 4.8 0 4.8 0 7.2 0 
4.8 0 7.2 0 4.8 0 4.8 0 7.2 0 4.8 0 7.2 0 4.8 0 
7.2 0 4.8 0 4.8 0 7.2 0 4.8 0 7.2 0 4.8 0 4.8 0 
7.2 0 4.8 0 7.2 0 4.8 0 4.8 0 7.2 0 4.8 0 7.2 0 
4.8 -14.4 7.2 0 4.8 0 4.8 0 7.2 0 4.8 0 7.2 0 4.8 0 
4.8 0 7.2 0 4.8 0 7.2 0 4.8 0 7.2 0 4.8 0 4.8 0 
7.2 0 4.8 0 7.2 0 4.8 0 4.8 0 7.2 0 4.8 0 7.2 0 
4.8 0 4.8 0 7.2 0 4.8 0 7.2 0 4.8 0 7.2 0 4.8 0 
4.8 0 7.2 0 4.8 0 7.2 0 4.8 0 4.8 0 7.2 0 4.8 0 
7.2 0 4.8 0 7.2 0 4.8 0 4.8 0 7.2 0 4.8 0 7.2 0 
4.8 0 4.8 0 7.2 0 4.8 0 7.2 0 4.8 0 7.2 0 4.8 0 
4.8 0 7.2 0 4.8 0 7.2 0 4.8 0 4.8 0 7.2 0 4.8 0 
7.2 -14.4 4.8 0 4.8 0 7.2 0 4.8 0 7.2 0 4.8 0 7.2 0 
4.8 0 4.8 0 7.2 0 4.8 0 7.2 0 4.8 0 4.8 0 7.2 0 
4.8 0 7.2 0 4.8 0 7.2 0 4.8 0 4.8 0 7.2 0 4.8 0 
7.2 0 4.8 0 4.8 0 7.2 0 4.8 0 7.2 0 4.8 0 4.8 0 
7.2 0 4.8 0 7.2 0 4.8 0 7.2 0 4.8 0 4.8 0 7.2 0 
4.8 0 7.2 0 4.8 0 4.8 0 7.2 0 4.8 0 7.2 0 4.8 0 
7.2 0 4.8 0 4.8 0 7.2 0 4.8 0 7.2 0 4.8 0 4.8 0 
7.2 0 4.8 0 7.2 0 4.8 0 4.8 -2.4 7.2 0 4.8 0 7.2 0 
4.8 -12 7.2 0 4.8 0 4.8 0 7.2 0 4.8 0 7.2 0 4.8 0 
4.8 0 7.2 0 4.8 0 7.2 0 4.8 0 7.2 0 4.8 0 4.8 0 
7.2 0 4.8 0 7.2 0 4.8 0 4.8 0 7.2 0 4.8 0 7.2 0 
4.8 0 4.8 0 7.2 0 4.8 0 7.2 0 4.8 0 7.2 0 4.8 0 
4.8 0 7.2 0 4.8 0 7.2 0 4.8 0 4.8 0 7.2 0 4.8 0 
7.2 0 4.8 0 7.2 0 4.8 0 4.8 0 7.2 0 4.8 0 7.2 0 
4.8 -2.4 P
4.8 0 7.2 0 4.8 0 7.2 0 4.8 0 4.8 0 7.2 0 4.8 0 
7.2 0 4.8 0 7.2 0 4.8 0 4.8 0 7.2 0 4.8 0 7.2 -12 
4.8 0 4.8 0 7.2 0 4.8 0 7.2 0 4.8 0 7.2 0 4.8 0 
4.8 0 7.2 0 4.8 0 7.2 0 4.8 0 4.8 0 7.2 0 4.8 0 
7.2 0 4.8 0 4.8 0 7.2 0 4.8 0 7.2 0 4.8 0 7.2 0 
4.8 0 4.8 0 7.2 0 4.8 0 7.2 0 4.8 0 4.8 0 7.2 -2.4 
4.8 0 7.2 0 4.8 0 7.2 0 4.8 0 4.8 0 7.2 0 4.8 0 
7.2 0 4.8 0 4.8 0 7.2 0 4.8 0 7.2 0 4.8 0 4.8 0 
7.2 0 4.8 0 7.2 0 4.8 0 7.2 0 4.8 0 4.8 0 7.2 0 
4.8 0 7.2 0 4.8 0 4.8 0 7.2 0 4.8 0 7.2 0 4.8 -12 
7.2 0 4.8 0 4.8 0 7.2 0 4.8 0 7.2 0 4.8 0 4.8 0 
7.2 0 4.8 0 7.2 0 4.8 0 4.8 0 7.2 0 4.8 0 7.2 -2.4 
4.8 0 7.2 0 4.8 0 4.8 0 7.2 0 4.8 0 7.2 0 4.8 0 
4.8 0 7.2 0 4.8 0 7.2 0 4.8 0 7.2 0 4.8 0 4.8 0 
7.2 0 4.8 0 7.2 0 4.8 0 4.8 0 7.2 0 4.8 0 7.2 0 
4.8 0 4.8 0 7.2 0 4.8 0 7.2 0 4.8 0 7.2 0 4.8 0 
4.8 -12 7.2 0 4.8 0 7.2 0 4.8 0 4.8 0 7.2 -2.4 4.8 0 
7.2 0 4.8 0 7.2 0 4.8 0 4.8 0 7.2 0 4.8 0 7.2 0 
4.8 0 4.8 0 7.2 0 4.8 0 7.2 0 4.8 0 4.8 0 7.2 0 
4.8 0 7.2 0 4.8 0 7.2 0 4.8 0 4.8 0 7.2 0 4.8 0 
7.2 0 4.8 0 4.8 0 7.2 0 4.8 0 7.2 0 4.8 0 7.2 0 
4.8 0 4.8 0 7.2 0 4.8 0 7.2 0 4.8 0 4.8 0 7.2 0 
4.8 -14.4 7.2 0 4.8 0 4.8 0 7.2 0 4.8 0 7.2 0 4.8 0 
7.2 0 4.8 0 4.8 0 7.2 0 4.8 0 7.2 0 4.8 0 4.8 0 
7.2 0 4.8 0 7.2 0 4.8 0 7.2 0 4.8 0 4.8 0 7.2 0 
4.8 0 7.2 0 4.8 0 4.8 0 7.2 0 4.8 0 7.2 0 4.8 0 
7.2 0 4.8 0 4.8 0 7.2 0 4.8 0 7.2 0 4.8 0 4.8 0 
7.2 0 4.8 0 7.2 0 4.8 0 4.8 0 7.2 0 4.8 0 7.2 0 
4.8 -14.4 7.2 0 4.8 0 4.8 0 7.2 0 4.8 0 7.2 0 4.8 0 
4.8 0 7.2 0 4.8 0 7.2 0 4.8 0 7.2 0 4.8 0 4.8 0 
7.2 0 p
4.8 0 7.2 0 4.8 0 4.8 0 7.2 0 4.8 0 7.2 0 4.8 0 
4.8 0 7.2 0 4.8 0 7.2 0 4.8 0 7.2 0 4.8 0 4.8 0 
7.2 0 4.8 0 7.2 0 4.8 0 4.8 0 7.2 0 4.8 0 7.2 0 
4.8 0 7.2 0 4.8 0 4.8 0 7.2 0 4.8 0 7.2 0 4.8 -14.4 
4.8 0 7.2 0 4.8 0 7.2 0 4.8 0 4.8 0 7.2 0 4.8 0 
7.2 0 4.8 0 7.2 0 4.8 0 4.8 0 7.2 0 4.8 0 7.2 0 
4.8 0 4.8 0 7.2 0 4.8 0 7.2 0 4.8 0 7.2 0 4.8 0 
4.8 0 7.2 0 4.8 0 7.2 0 4.8 0 4.8 0 7.2 0 4.8 0 
7.2 0 4.8 0 4.8 0 7.2 0 4.8 0 7.2 0 4.8 -2.4 7.2 0 
4.8 0 4.8 0 7.2 0 4.8 0 7.2 0 4.8 0 4.8 0 7.2 -12 
4.8 0 7.2 0 4.8 0 7.2 0 4.8 0 4.8 0 7.2 0 4.8 0 
7.2 0 4.8 0 4.8 0 7.2 0 4.8 0 7.2 0 4.8 0 4.8 0 
7.2 0 4.8 -2.4 7.2 0 4.8 0 7.2 0 4.8 0 4.8 0 7.2 0 
4.8 0 7.2 0 4.8 -12 4.8 0 7.2 0 4.8 0 7.2 0 4.8 0 
7.2 -2.4 4.8 0 4.8 0 7.2 0 4.8 0 7.2 0 4.8 0 4.8 0 
7.2 0 4.8 0 7.2 -12 4.8 0 4.8 0 7.2 -2.4 4.8 0 7.2 0 
4.8 0 7.2 0 4.8 0 4.8 0 7.2 0 4.8 0 7.2 0 4.8 0 
4.8 0 7.2 0 4.8 -14.4 7.2 0 4.8 0 7.2 0 4.8 0 4.8 0 
7.2 0 4.8 0 7.2 0 4.8 0 4.8 0 7.2 0 4.8 0 7.2 0 
4.8 0 4.8 0 7.2 -14.4 4.8 0 7.2 0 4.8 0 7.2 0 4.8 0 
4.8 0 7.2 0 4.8 0 7.2 0 4.8 0 4.8 0 7.2 0 4.8 0 
7.2 0 4.8 0 7.2 -14.4 4.8 0 4.8 0 7.2 0 4.8 0 7.2 0 
4.8 0 4.8 0 7.2 0 4.8 0 7.2 0 4.8 0 4.8 0 7.2 0 
4.8 -2.4 7.2 0 4.8 -12 7.2 0 4.8 0 4.8 0 7.2 0 4.8 0 
7.2 0 4.8 0 4.8 0 7.2 0 4.8 0 7.2 -2.4 4.8 0 7.2 0 
4.8 0 4.8 0 7.2 -12 4.8 0 7.2 0 4.8 0 4.8 0 7.2 0 
4.8 0 7.2 -2.4 4.8 0 4.8 0 7.2 0 4.8 0 7.2 0 4.8 0 
7.2 0 4.8 0 p S
Q
q 1 -0.999998 scale
6031.31 -1495.23 4.8 -12 7.2 0 4.8 0 7.2 0 4.8 -2.4 4.8 0 7.2 0 
4.8 0 7.2 0 4.8 0 7.2 0 4.8 0 4.8 0 7.2 0 4.8 0 
7.2 0 4.8 -12 4.8 -2.4 7.2 0 4.8 0 7.2 0 4.8 0 4.8 0 
7.2 0 4.8 0 7.2 0 4.8 0 7.2 0 4.8 0 4.8 0 7.2 0 
4.8 0 7.2 -14.4 4.8 0 4.8 0 7.2 0 4.8 0 7.2 0 4.8 0 
7.2 0 4.8 0 4.8 0 7.2 0 4.8 0 7.2 0 4.8 0 4.8 0 
7.2 0 4.8 -14.4 7.2 0 4.8 0 4.8 0 7.2 0 4.8 0 7.2 0 
4.8 0 7.2 0 4.8 0 4.8 0 7.2 0 4.8 0 7.2 0 4.8 0 
4.8 -2.4 7.2 -12 4.8 0 7.2 0 4.8 0 7.2 0 4.8 0 4.8 0 
7.2 0 4.8 0 7.2 0 4.8 0 4.8 0 7.2 -2.4 4.8 0 7.2 0 
4.8 0 4.8 -12 7.2 0 4.8 0 7.2 0 4.8 0 7.2 0 4.8 0 
4.8 0 7.2 0 4.8 -2.4 7.2 0 4.8 0 4.8 0 7.2 0 4.8 0 
7.2 0 4.8 -12 7.2 0 4.8 0 4.8 0 7.2 0 4.8 -2.4 7.2 0 
4.8 0 4.8 0 7.2 0 4.8 0 7.2 0 4.8 0 4.8 0 7.2 0 
4.8 0 7.2 -12 4.8 0 7.2 -2.4 4.8 0 4.8 0 7.2 0 4.8 0 
7.2 0 4.8 0 4.8 0 7.2 0 4.8 0 7.2 0 4.8 0 7.2 0 
4.8 0 4.8 -14.4 7.2 0 4.8 0 7.2 0 4.8 0 4.8 0 7.2 0 
4.8 0 7.2 0 4.8 0 7.2 0 4.8 0 4.8 0 7.2 0 4.8 0 
7.2 0 4.8 -14.4 4.8 0 7.2 0 4.8 0 7.2 0 4.8 0 4.8 0 
7.2 0 4.8 0 7.2 0 4.8 0 7.2 0 4.8 0 4.8 0 7.2 0 
4.8 0 7.2 -14.4 4.8 0 4.8 0 7.2 0 4.8 0 7.2 0 4.8 0 
7.2 0 4.8 0 4.8 0 7.2 0 4.8 0 7.2 0 4.8 -2.4 4.8 0 
7.2 0 4.8 -12 7.2 0 4.8 0 4.8 0 7.2 0 4.8 0 7.2 0 
4.8 0 7.2 0 4.8 0 4.8 -2.4 7.2 0 4.8 0 7.2 0 4.8 0 
4.8 0 7.2 -12 4.8 0 7.2 0 4.8 0 7.2 0 4.8 0 4.8 -2.4 
7.2 0 S
Q
Q q
0 0 8140 5720 re
Y
K
178 1991.66 m
-250.83 0 0 0 -250.83 0 c
0 33.19 0 0 0 33.19 c
221.23 0 0 0 221.23 0 c
0 123.54 0 0 0 123.54 c
29.6 0 0 0 29.6 0 c
0 -156.73 0 0 0 -156.73 c
f
155.59 2301.67 m
9.7 -11.41 16.54 -22.38 20.53 -32.94 c
3.99 -10.55 5.99 -21.87 5.99 -33.96 c
0 -19.96 -4.87 -35.3 -14.63 -46.02 c
-9.75 -10.72 -22.21 -16.09 -37.38 -16.09 c
-8.9 0 -17.02 2.02 -24.38 6.07 c
-7.36 4.05 -13.26 9.36 -17.71 15.91 c
-4.45 6.56 -7.82 13.94 -10.1 22.16 c
-1.59 6.04 -3.13 15.17 -4.62 27.38 c
-2.96 24.87 -6.5 43.17 -10.61 54.92 c
-4.22 0.11 -6.9 0.17 -8.04 0.17 c
-12.55 0 -21.39 -2.91 -26.52 -8.73 c
-6.96 -7.87 -10.43 -19.56 -10.43 -35.07 c
0 -14.49 2.54 -25.18 7.61 -32.08 c
5.07 -6.9 14.06 -12 26.95 -15.31 c
-4.11 -30.11 0 0 -4.11 -30.11 c
-12.89 2.74 -23.3 7.24 -31.23 13.52 c
-7.93 6.28 -14.03 15.34 -18.3 27.21 c
-4.28 11.86 -6.42 25.61 -6.42 41.23 c
0 15.51 1.83 28.11 5.48 37.81 c
3.65 9.7 8.24 16.82 13.77 21.39 c
5.53 4.56 12.52 7.75 20.96 9.58 c
5.25 1.02 14.71 1.54 28.4 1.54 c
41.07 0 0 0 41.07 0 c
28.63 0 46.74 0.65 54.32 1.96 c
7.59 1.31 14.86 3.91 21.82 7.79 c
0 -32.16 0 0 0 -32.16 c
-6.39 -3.2 -13.86 -5.25 -22.41 -6.16 c
h
86.8 2299.1 m
4.56 -11.18 8.44 -27.95 11.64 -50.3 c
1.82 -12.66 3.88 -21.62 6.16 -26.86 c
2.28 -5.25 5.62 -9.3 10.01 -12.15 c
4.39 -2.85 9.27 -4.28 14.63 -4.28 c
8.21 0 15.05 3.11 20.53 9.32 c
5.47 6.21 8.21 15.31 8.21 27.29 c
0 11.86 -2.59 22.41 -7.79 31.65 c
-5.19 9.24 -12.29 16.03 -21.3 20.36 c
-6.96 3.3 -17.22 4.96 -30.8 4.96 c
-11.29 0 0 0 -11.29 0 c
f
150.45 2444.34 m
27.2 4.45 0 0 27.2 4.45 c
1.83 -8.67 2.74 -16.43 2.74 -23.27 c
0 -11.18 -1.77 -19.85 -5.3 -26.01 c
-3.54 -6.16 -8.18 -10.49 -13.94 -13 c
-5.76 -2.51 -17.88 -3.76 -36.36 -3.76 c
-104.54 0 0 0 -104.54 0 c
0 -22.59 0 0 0 -22.59 c
-23.96 0 0 0 -23.96 0 c
0 22.59 0 0 0 22.59 c
-45 0 0 0 -45 0 c
-18.48 30.63 0 0 -18.48 30.63 c
63.48 0 0 0 63.48 0 c
0 30.97 0 0 0 30.97 c
23.96 0 0 0 23.96 0 c
0 -30.97 0 0 0 -30.97 c
106.25 0 0 0 106.25 0 c
8.78 0 14.43 0.54 16.94 1.63 c
2.51 1.08 4.5 2.85 5.99 5.3 c
1.48 2.45 2.23 5.96 2.23 10.52 c
0 3.42 -0.4 7.93 -1.2 13.52 c
f
119.48 2600.48 m
3.94 31.82 0 0 3.94 31.82 c
18.59 -5.02 33.02 -14.32 43.29 -27.89 c
10.27 -13.57 15.4 -30.91 15.4 -52.02 c
0 -26.57 -8.18 -47.65 -24.55 -63.22 c
-16.37 -15.57 -39.32 -23.36 -68.87 -23.36 c
-30.57 0 -54.29 7.87 -71.18 23.61 c
-16.88 15.74 -25.32 36.16 -25.32 61.25 c
0 24.3 8.27 44.14 24.81 59.54 c
16.54 15.4 39.81 23.1 69.81 23.1 c
1.82 0 4.56 -0.05 8.21 -0.17 c
0 -135.51 0 0 0 -135.51 c
19.96 1.14 35.25 6.79 45.85 16.94 c
10.61 10.15 15.91 22.81 15.91 37.98 c
0 11.29 -2.96 20.93 -8.9 28.91 c
-5.93 7.99 -15.4 14.32 -28.4 18.99 c
h
69.7 2499.37 m
0 101.46 0 0 0 101.46 c
-15.29 -1.37 -26.75 -5.25 -34.39 -11.64 c
-11.86 -9.81 -17.79 -22.53 -17.79 -38.15 c
0 -14.14 4.73 -26.04 14.2 -35.68 c
9.47 -9.64 22.13 -14.97 37.98 -16 c
f
178 2670.1 m
-181.71 0 0 0 -181.71 0 c
0 27.72 0 0 0 27.72 c
25.84 0 0 0 25.84 0 c
-19.96 13.34 -29.94 32.62 -29.94 57.83 c
0 10.95 1.97 21.02 5.9 30.2 c
3.94 9.18 9.1 16.05 15.48 20.62 c
6.39 4.56 13.98 7.76 22.76 9.58 c
5.7 1.14 15.68 1.71 29.94 1.71 c
111.73 0 0 0 111.73 0 c
0 -30.8 0 0 0 -30.8 c
-110.53 0 0 0 -110.53 0 c
-12.55 0 -21.93 -1.2 -28.15 -3.59 c
-6.21 -2.39 -11.18 -6.64 -14.88 -12.75 c
-3.71 -6.1 -5.56 -13.26 -5.56 -21.47 c
0 -13.12 4.16 -24.44 12.49 -33.96 c
8.32 -9.53 24.13 -14.29 47.39 -14.29 c
99.24 0 0 0 99.24 0 c
0 -30.8 0 0 0 -30.8 c
f
111.44 2983.67 m
3.94 30.29 0 0 3.94 30.29 c
20.88 -3.31 37.21 -11.78 49.02 -25.41 c
11.8 -13.63 17.71 -30.37 17.71 -50.21 c
0 -24.87 -8.12 -44.86 -24.38 -59.97 c
-16.25 -15.11 -39.55 -22.67 -69.89 -22.67 c
-19.62 0 -36.79 3.25 -51.5 9.75 c
-14.71 6.5 -25.75 16.39 -33.11 29.68 c
-7.36 13.29 -11.04 27.75 -11.04 43.38 c
0 19.73 4.99 35.87 14.97 48.42 c
9.98 12.55 24.15 20.59 42.52 24.13 c
4.62 -29.94 0 0 4.62 -29.94 c
-12.2 -2.85 -21.39 -7.9 -27.55 -15.14 c
-6.16 -7.24 -9.24 -16 -9.24 -26.27 c
0 -15.51 5.56 -28.12 16.68 -37.81 c
11.12 -9.7 28.71 -14.54 52.79 -14.54 c
24.41 0 42.14 4.68 53.21 14.03 c
11.07 9.35 16.6 21.56 16.6 36.61 c
0 12.09 -3.71 22.19 -11.12 30.29 c
-7.41 8.1 -18.82 13.23 -34.22 15.4 c
f
247.98 3038.73 m
-28.92 -3.42 0 0 -28.92 -3.42 c
1.83 6.73 2.74 12.6 2.74 17.62 c
0 6.84 -1.14 12.32 -3.42 16.43 c
-2.28 4.11 -5.48 7.47 -9.58 10.09 c
-3.08 1.94 -10.72 5.08 -22.93 9.41 c
-1.71 0.57 -4.22 1.48 -7.53 2.74 c
-182.05 -68.95 0 0 -182.05 -68.95 c
0 33.2 0 0 0 33.2 c
105.23 37.81 0 0 105.23 37.81 c
13.34 4.9 27.38 9.29 42.09 13.17 c
-14.14 3.54 -27.95 7.76 -41.41 12.66 c
-105.91 38.84 0 0 -105.91 38.84 c
0 30.8 0 0 0 30.8 c
184.79 -69.12 0 0 184.79 -69.12 c
19.96 -7.41 33.71 -13.18 41.23 -17.28 c
10.15 -5.47 17.59 -11.75 22.33 -18.82 c
4.73 -7.07 7.1 -15.51 7.1 -25.32 c
0 -5.93 -1.25 -12.55 -3.76 -19.85 c
f
251.74 3371.96 m
-21.44 -17 -46.54 -31.37 -75.28 -43.12 c
-28.75 -11.75 -58.52 -17.62 -89.31 -17.62 c
-27.15 0 -53.16 4.39 -78.02 13.18 c
-28.86 10.27 -57.61 26.12 -86.23 47.57 c
0 22.07 0 0 0 22.07 c
23.73 -13.8 40.66 -22.93 50.82 -27.37 c
15.74 -6.96 32.16 -12.43 49.27 -16.43 c
21.33 -4.91 42.78 -7.36 64.34 -7.36 c
54.86 0 109.67 17.05 164.42 51.16 c
0 -22.07 0 0 0 -22.07 c
f
178 3550.18 m
-26.69 0 0 0 -26.69 0 c
20.53 -14.14 30.8 -33.36 30.8 -57.66 c
0 -10.72 -2.05 -20.73 -6.16 -30.03 c
-4.11 -9.3 -9.27 -16.2 -15.48 -20.7 c
-6.21 -4.51 -13.83 -7.67 -22.84 -9.5 c
-6.04 -1.25 -15.62 -1.88 -28.75 -1.88 c
-112.58 0 0 0 -112.58 0 c
0 30.8 0 0 0 30.8 c
100.78 0 0 0 100.78 0 c
16.08 0 26.92 0.63 32.51 1.88 c
8.1 1.94 14.46 6.04 19.08 12.32 c
4.62 6.28 6.93 14.03 6.93 23.27 c
0 9.24 -2.37 17.91 -7.1 26.01 c
-4.73 8.1 -11.18 13.83 -19.33 17.2 c
-8.16 3.37 -19.99 5.05 -35.5 5.05 c
-97.36 0 0 0 -97.36 0 c
0 30.8 0 0 0 30.8 c
181.71 0 0 0 181.71 0 c
0 -27.55 0 0 0 -27.55 c
f
123.76 3612.78 m
-4.79 30.46 0 0 -4.79 30.46 c
12.2 1.71 21.56 6.47 28.06 14.29 c
6.5 7.82 9.75 18.74 9.75 32.77 c
0 14.14 -2.88 24.64 -8.64 31.48 c
-5.76 6.84 -12.52 10.27 -20.28 10.27 c
-6.96 0 -12.43 -3.02 -16.43 -9.07 c
-2.73 -4.22 -6.21 -14.71 -10.43 -31.48 c
-5.7 -22.59 -10.64 -38.24 -14.8 -46.97 c
-4.16 -8.72 -9.93 -15.34 -17.28 -19.84 c
-7.36 -4.51 -15.48 -6.76 -24.38 -6.76 c
-8.1 0 -15.6 1.86 -22.5 5.56 c
-6.9 3.71 -12.63 8.75 -17.19 15.14 c
-3.54 4.79 -6.53 11.32 -8.98 19.59 c
-2.45 8.27 -3.68 17.14 -3.68 26.61 c
0 14.25 2.05 26.77 6.16 37.55 c
4.11 10.78 9.67 18.73 16.68 23.87 c
7.01 5.13 16.39 8.67 28.14 10.61 c
4.11 -30.11 0 0 4.11 -30.11 c
-9.35 -1.37 -16.65 -5.34 -21.9 -11.89 c
-5.25 -6.56 -7.87 -15.83 -7.87 -27.8 c
0 -14.14 2.34 -24.24 7.02 -30.29 c
4.68 -6.04 10.15 -9.07 16.42 -9.07 c
3.99 0 7.59 1.25 10.78 3.76 c
3.31 2.51 6.04 6.45 8.21 11.81 c
1.14 3.08 3.77 12.15 7.87 27.2 c
5.82 21.79 10.58 36.98 14.29 45.6 c
3.71 8.61 9.09 15.37 16.17 20.27 c
7.07 4.91 15.86 7.36 26.35 7.36 c
10.27 0 19.93 -3 29 -8.98 c
9.07 -5.99 16.09 -14.63 21.05 -25.92 c
4.96 -11.29 7.44 -24.07 7.44 -38.32 c
0 -23.61 -4.91 -41.61 -14.71 -53.98 c
-9.81 -12.37 -24.35 -20.28 -43.63 -23.7 c
f
251.74 3821.29 m
0 -22.07 0 0 0 -22.07 c
-54.75 34.11 -109.56 51.16 -164.42 51.16 c
-21.45 0 -42.72 -2.45 -63.82 -7.36 c
-17.11 -3.88 -33.54 -9.29 -49.28 -16.25 c
-10.27 -4.45 -27.37 -13.63 -51.33 -27.55 c
0 22.07 0 0 0 22.07 c
28.63 21.44 57.38 37.3 86.23 47.56 c
24.86 8.78 50.87 13.18 78.02 13.18 c
30.8 0 60.57 -5.9 89.31 -17.71 c
28.74 -11.8 53.84 -26.15 75.28 -43.03 c
f
3735.04 158 m
0 250.83 0 0 0 250.83 c
86.4 0 0 0 86.4 0 c
19.5 0 34.39 -1.2 44.66 -3.59 c
14.37 -3.31 26.64 -9.3 36.79 -17.96 c
13.23 -11.18 23.13 -25.46 29.69 -42.86 c
6.56 -17.39 9.84 -37.27 9.84 -59.63 c
0 -19.05 -2.22 -35.93 -6.67 -50.64 c
-4.45 -14.71 -10.15 -26.89 -17.11 -36.53 c
-6.96 -9.64 -14.57 -17.23 -22.84 -22.76 c
-8.27 -5.53 -18.25 -9.72 -29.95 -12.57 c
-11.69 -2.85 -25.12 -4.28 -40.29 -4.28 c
-90.51 0 0 0 -90.51 0 c
h
3768.23 187.6 m
53.55 0 0 0 53.55 0 c
16.54 0 29.51 1.54 38.92 4.62 c
9.41 3.08 16.91 7.41 22.5 13 c
7.87 7.87 14 18.45 18.39 31.74 c
4.39 13.29 6.59 29.4 6.59 48.34 c
0 26.23 -4.3 46.39 -12.92 60.48 c
-8.61 14.09 -19.08 23.53 -31.39 28.32 c
-8.9 3.42 -23.21 5.13 -42.95 5.13 c
-52.7 0 0 0 -52.7 0 c
0 -191.62 0 0 0 -191.62 c
f
3983.27 373.41 m
0 35.42 0 0 0 35.42 c
30.8 0 0 0 30.8 0 c
0 -35.42 0 0 0 -35.42 c
-30.8 0 0 0 -30.8 0 c
h
3983.27 158 m
0 181.7 0 0 0 181.7 c
30.8 0 0 0 30.8 0 c
0 -181.7 0 0 0 -181.7 c
-30.8 0 0 0 -30.8 0 c
f
4047.78 212.24 m
30.46 4.79 0 0 30.46 4.79 c
1.71 -12.2 6.47 -21.56 14.29 -28.06 c
7.82 -6.5 18.74 -9.75 32.77 -9.75 c
14.14 0 24.64 2.88 31.48 8.64 c
6.84 5.76 10.27 12.52 10.27 20.28 c
0 6.96 -3.02 12.43 -9.07 16.42 c
-4.22 2.74 -14.71 6.22 -31.48 10.44 c
-22.59 5.7 -38.24 10.64 -46.96 14.8 c
-8.73 4.16 -15.34 9.93 -19.85 17.28 c
-4.51 7.36 -6.76 15.48 -6.76 24.38 c
0 8.1 1.85 15.6 5.56 22.5 c
3.71 6.9 8.75 12.63 15.14 17.2 c
4.79 3.54 11.32 6.53 19.59 8.98 c
8.27 2.45 17.14 3.68 26.61 3.68 c
14.26 0 26.78 -2.05 37.55 -6.16 c
10.78 -4.11 18.73 -9.67 23.87 -16.68 c
5.13 -7.02 8.67 -16.39 10.61 -28.14 c
-30.11 -4.11 0 0 -30.11 -4.11 c
-1.37 9.35 -5.33 16.65 -11.89 21.9 c
-6.56 5.25 -15.83 7.87 -27.8 7.87 c
-14.14 0 -24.24 -2.34 -30.29 -7.02 c
-6.04 -4.68 -9.07 -10.15 -9.07 -16.43 c
0 -3.99 1.25 -7.58 3.76 -10.78 c
2.51 -3.31 6.45 -6.05 11.81 -8.21 c
3.08 -1.14 12.15 -3.77 27.2 -7.87 c
21.79 -5.82 36.99 -10.58 45.6 -14.29 c
8.61 -3.71 15.37 -9.1 20.27 -16.17 c
4.91 -7.07 7.36 -15.86 7.36 -26.35 c
0 -10.27 -3 -19.93 -8.98 -29 c
-5.99 -9.07 -14.63 -16.09 -25.92 -21.05 c
-11.29 -4.96 -24.07 -7.44 -38.33 -7.44 c
-23.61 0 -41.61 4.91 -53.98 14.71 c
-12.37 9.81 -20.27 24.35 -23.7 43.63 c
f
4302.34 185.55 m
4.45 -27.2 0 0 4.45 -27.2 c
-8.67 -1.83 -16.43 -2.74 -23.27 -2.74 c
-11.18 0 -19.85 1.77 -26.01 5.3 c
-6.16 3.54 -10.49 8.18 -13 13.94 c
-2.51 5.76 -3.76 17.88 -3.76 36.36 c
0 104.54 0 0 0 104.54 c
-22.59 0 0 0 -22.59 0 c
0 23.95 0 0 0 23.95 c
22.59 0 0 0 22.59 0 c
0 45 0 0 0 45 c
30.63 18.48 0 0 30.63 18.48 c
0 -63.48 0 0 0 -63.48 c
30.97 0 0 0 30.97 0 c
0 -23.95 0 0 0 -23.95 c
-30.97 0 0 0 -30.97 0 c
0 -106.25 0 0 0 -106.25 c
0 -8.78 0.54 -14.43 1.63 -16.94 c
1.08 -2.51 2.85 -4.51 5.3 -5.99 c
2.45 -1.48 5.96 -2.23 10.52 -2.23 c
3.42 0 7.93 0.4 13.52 1.2 c
f
4332.76 158 m
0 181.7 0 0 0 181.7 c
27.71 0 0 0 27.71 0 c
0 -27.55 0 0 0 -27.55 c
7.07 12.89 13.6 21.39 19.59 25.5 c
5.99 4.11 12.57 6.16 19.76 6.16 c
10.38 0 20.93 -3.31 31.65 -9.93 c
-10.61 -28.57 0 0 -10.61 -28.57 c
-7.53 4.45 -15.05 6.68 -22.59 6.68 c
-6.73 0 -12.77 -2.02 -18.14 -6.07 c
-5.36 -4.05 -9.18 -9.67 -11.46 -16.86 c
-3.42 -10.95 -5.13 -22.93 -5.13 -35.93 c
0 -95.13 0 0 0 -95.13 c
-30.8 0 0 0 -30.8 0 c
f
4451.27 373.41 m
0 35.42 0 0 0 35.42 c
30.8 0 0 0 30.8 0 c
0 -35.42 0 0 0 -35.42 c
-30.8 0 0 0 -30.8 0 c
h
4451.27 158 m
0 181.7 0 0 0 181.7 c
30.8 0 0 0 30.8 0 c
0 -181.7 0 0 0 -181.7 c
-30.8 0 0 0 -30.8 0 c
f
4556.5 158 m
-28.57 0 0 0 -28.57 0 c
0 250.83 0 0 0 250.83 c
30.8 0 0 0 30.8 0 c
0 -89.48 0 0 0 -89.48 c
13 16.31 29.6 24.47 49.79 24.47 c
11.18 0 21.76 -2.25 31.74 -6.76 c
9.98 -4.5 18.19 -10.83 24.64 -18.99 c
6.45 -8.16 11.49 -18 15.14 -29.52 c
3.65 -11.52 5.48 -23.84 5.48 -36.96 c
0 -31.14 -7.7 -55.21 -23.1 -72.2 c
-15.4 -17 -33.88 -25.49 -55.44 -25.49 c
-21.44 0 -38.27 8.95 -50.47 26.86 c
0 -22.75 0 0 0 -22.75 c
h
4556.16 250.22 m
0 -21.79 2.96 -37.53 8.89 -47.22 c
9.7 -15.86 22.81 -23.79 39.35 -23.79 c
13.46 0 25.1 5.85 34.91 17.54 c
9.81 11.69 14.71 29.11 14.71 52.27 c
0 23.73 -4.71 41.23 -14.12 52.53 c
-9.41 11.29 -20.79 16.94 -34.13 16.94 c
-13.46 0 -25.09 -5.85 -34.91 -17.54 c
-9.81 -11.69 -14.71 -28.61 -14.71 -50.73 c
f
4841.18 158 m
0 26.69 0 0 0 26.69 c
-14.14 -20.53 -33.37 -30.8 -57.66 -30.8 c
-10.72 0 -20.73 2.05 -30.03 6.16 c
-9.3 4.11 -16.2 9.27 -20.7 15.48 c
-4.51 6.21 -7.67 13.83 -9.5 22.84 c
-1.25 6.04 -1.88 15.63 -1.88 28.74 c
0 112.58 0 0 0 112.58 c
30.8 0 0 0 30.8 0 c
0 -100.77 0 0 0 -100.77 c
0 -16.09 0.63 -26.92 1.88 -32.51 c
1.94 -8.1 6.04 -14.46 12.32 -19.08 c
6.27 -4.62 14.03 -6.93 23.27 -6.93 c
9.24 0 17.91 2.37 26 7.1 c
8.1 4.73 13.83 11.18 17.2 19.33 c
3.37 8.16 5.05 19.99 5.05 35.5 c
0 97.35 0 0 0 97.35 c
30.8 0 0 0 30.8 0 c
0 -181.7 0 0 0 -181.7 c
-27.55 0 0 0 -27.55 0 c
f
4984.34 185.55 m
4.45 -27.2 0 0 4.45 -27.2 c
-8.67 -1.83 -16.43 -2.74 -23.27 -2.74 c
-11.18 0 -19.85 1.77 -26.01 5.3 c
-6.16 3.54 -10.49 8.18 -13 13.94 c
-2.51 5.76 -3.76 17.88 -3.76 36.36 c
0 104.54 0 0 0 104.54 c
-22.59 0 0 0 -22.59 0 c
0 23.95 0 0 0 23.95 c
22.59 0 0 0 22.59 0 c
0 45 0 0 0 45 c
30.63 18.48 0 0 30.63 18.48 c
0 -63.48 0 0 0 -63.48 c
30.97 0 0 0 30.97 0 c
0 -23.95 0 0 0 -23.95 c
-30.97 0 0 0 -30.97 0 c
0 -106.25 0 0 0 -106.25 c
0 -8.78 0.54 -14.43 1.63 -16.94 c
1.08 -2.51 2.85 -4.51 5.3 -5.99 c
2.45 -1.48 5.96 -2.23 10.52 -2.23 c
3.42 0 7.93 0.4 13.52 1.2 c
f
5015.27 373.41 m
0 35.42 0 0 0 35.42 c
30.8 0 0 0 30.8 0 c
0 -35.42 0 0 0 -35.42 c
-30.8 0 0 0 -30.8 0 c
h
5015.27 158 m
0 181.7 0 0 0 181.7 c
30.8 0 0 0 30.8 0 c
0 -181.7 0 0 0 -181.7 c
-30.8 0 0 0 -30.8 0 c
f
5080.64 248.85 m
0 33.65 9.35 58.57 28.06 74.77 c
15.63 13.46 34.68 20.19 57.14 20.19 c
24.98 0 45.4 -8.18 61.25 -24.55 c
15.86 -16.37 23.78 -38.98 23.78 -67.84 c
0 -23.38 -3.51 -41.78 -10.52 -55.18 c
-7.02 -13.4 -17.23 -23.81 -30.63 -31.22 c
-13.4 -7.41 -28.03 -11.12 -43.89 -11.12 c
-25.44 0 -46 8.16 -61.68 24.46 c
-15.68 16.31 -23.52 39.81 -23.52 70.49 c
h
5112.29 248.85 m
0 -23.27 5.07 -40.69 15.23 -52.27 c
10.15 -11.58 22.93 -17.37 38.32 -17.37 c
15.29 0 28 5.82 38.16 17.45 c
10.15 11.63 15.23 29.37 15.23 53.21 c
0 22.47 -5.1 39.5 -15.31 51.07 c
-10.21 11.58 -22.9 17.36 -38.07 17.36 c
-15.4 0 -28.17 -5.76 -38.32 -17.28 c
-10.15 -11.52 -15.23 -28.91 -15.23 -52.18 c
f
5286.1 158 m
0 181.7 0 0 0 181.7 c
27.72 0 0 0 27.72 0 c
0 -25.84 0 0 0 -25.84 c
13.34 19.96 32.62 29.95 57.83 29.95 c
10.95 0 21.02 -1.97 30.2 -5.91 c
9.18 -3.93 16.05 -9.09 20.62 -15.48 c
4.57 -6.39 7.76 -13.98 9.58 -22.76 c
1.14 -5.7 1.71 -15.68 1.71 -29.94 c
0 -111.73 0 0 0 -111.73 c
-30.8 0 0 0 -30.8 0 c
0 110.53 0 0 0 110.53 c
0 12.55 -1.2 21.93 -3.59 28.14 c
-2.39 6.22 -6.64 11.18 -12.75 14.89 c
-6.1 3.71 -13.26 5.56 -21.47 5.56 c
-13.12 0 -24.44 -4.16 -33.96 -12.49 c
-9.53 -8.33 -14.29 -24.12 -14.29 -47.39 c
0 -99.23 0 0 0 -99.23 c
-30.8 0 0 0 -30.8 0 c
f
255 G
1694.43 4497.68 3655.27 688.812 re
f*
7.20013 w
1 J
1 j
K
q 1 -0.999998 scale
1694.43 -5186.5 3655.27 0 0 688.81 ^ H
S
Q
31.2006 w
q 1 -0.999998 scale
1917.64 -5004.09 628.81 0 S
Q
2639.57 5005.9 m
0 33.36 8.96 59.48 26.88 78.36 c
17.91 18.88 41.04 28.31 69.38 28.31 c
18.55 0 35.28 -4.43 50.18 -13.3 c
14.9 -8.87 26.25 -21.23 34.07 -37.09 c
7.82 -15.86 11.72 -33.84 11.72 -53.95 c
0 -20.39 -4.11 -38.62 -12.34 -54.71 c
-8.23 -16.09 -19.88 -28.27 -34.96 -36.54 c
-15.08 -8.27 -31.35 -12.41 -48.81 -12.41 c
-18.92 0 -35.83 4.57 -50.73 13.71 c
-14.9 9.14 -26.19 21.62 -33.87 37.43 c
-7.68 15.81 -11.52 32.54 -11.52 50.18 c
h
2667 5005.49 m
0 -24.23 6.51 -43.3 19.54 -57.25 c
13.03 -13.94 29.37 -20.91 49.02 -20.91 c
20.02 0 36.49 7.04 49.43 21.12 c
12.93 14.08 19.4 34.05 19.4 59.92 c
0 16.36 -2.77 30.64 -8.3 42.85 c
-5.53 12.2 -13.62 21.66 -24.27 28.38 c
-10.65 6.72 -22.6 10.08 -35.86 10.08 c
-18.83 0 -35.03 -6.46 -48.61 -19.4 c
-13.57 -12.93 -20.36 -34.53 -20.36 -64.79 c
f
2853.32 4980.8 m
0 26.97 7.5 46.94 22.48 59.92 c
12.52 10.79 27.79 16.18 45.8 16.18 c
20.02 0 36.38 -6.56 49.09 -19.68 c
12.71 -13.12 19.06 -31.24 19.06 -54.36 c
0 -18.74 -2.81 -33.48 -8.43 -44.22 c
-5.62 -10.74 -13.8 -19.08 -24.54 -25.02 c
-10.74 -5.94 -22.46 -8.91 -35.17 -8.91 c
-20.38 0 -36.86 6.54 -49.43 19.61 c
-12.57 13.07 -18.85 31.9 -18.85 56.49 c
h
2878.69 4980.8 m
0 -18.64 4.07 -32.61 12.2 -41.89 c
8.14 -9.28 18.38 -13.91 30.71 -13.91 c
12.25 0 22.44 4.66 30.57 13.98 c
8.14 9.32 12.2 23.54 12.2 42.64 c
0 18.01 -4.09 31.65 -12.27 40.93 c
-8.18 9.28 -18.35 13.91 -30.51 13.91 c
-12.34 0 -22.58 -4.62 -30.71 -13.85 c
-8.13 -9.23 -12.2 -23.17 -12.2 -41.82 c
f
3165.08 4978.48 m
26.6 -6.72 0 0 26.6 -6.72 c
-5.58 -21.85 -15.61 -38.5 -30.1 -49.98 c
-14.49 -11.47 -32.2 -17.21 -53.13 -17.21 c
-21.66 0 -39.29 4.41 -52.86 13.23 c
-13.57 8.82 -23.9 21.59 -30.98 38.32 c
-7.09 16.73 -10.63 34.69 -10.63 53.89 c
0 20.93 4 39.19 12 54.78 c
8 15.58 19.38 27.42 34.14 35.51 c
14.76 8.09 31.01 12.13 48.74 12.13 c
20.11 0 37.02 -5.12 50.73 -15.36 c
13.71 -10.24 23.27 -24.64 28.66 -43.19 c
-26.19 -6.17 0 0 -26.19 -6.17 c
-4.66 14.63 -11.43 25.27 -20.29 31.95 c
-8.87 6.67 -20.02 10.01 -33.45 10.01 c
-15.45 0 -28.36 -3.7 -38.73 -11.11 c
-10.37 -7.4 -17.66 -17.34 -21.87 -29.82 c
-4.2 -12.48 -6.31 -25.34 -6.31 -38.6 c
0 -17.09 2.49 -32.02 7.47 -44.77 c
4.98 -12.75 12.73 -22.28 23.24 -28.59 c
10.51 -6.3 21.89 -9.46 34.14 -9.46 c
14.9 0 27.52 4.3 37.84 12.89 c
10.33 8.59 17.32 21.34 20.98 38.25 c
f
3326.38 4908 m
-44.56 145.61 0 0 -44.56 145.61 c
25.5 0 0 0 25.5 0 c
23.17 -84.05 0 0 23.17 -84.05 c
8.64 -31.26 0 0 8.64 -31.26 c
0.36 1.55 2.88 11.56 7.54 30.03 c
23.17 85.29 0 0 23.17 85.29 c
25.37 0 0 0 25.37 0 c
21.8 -84.46 0 0 21.8 -84.46 c
7.27 -27.83 0 0 7.27 -27.83 c
8.36 28.11 0 0 8.36 28.11 c
24.96 84.19 0 0 24.96 84.19 c
23.99 0 0 0 23.99 0 c
-45.52 -145.61 0 0 -45.52 -145.61 c
-25.64 0 0 0 -25.64 0 c
-23.17 87.2 0 0 -23.17 87.2 c
-5.62 24.82 0 0 -5.62 24.82 c
-29.48 -112.02 0 0 -29.48 -112.02 c
-25.78 0 0 0 -25.78 0 c
f
3498.65 5080.63 m
0 28.38 0 0 0 28.38 c
24.68 0 0 0 24.68 0 c
0 -28.38 0 0 0 -28.38 c
-24.68 0 0 0 -24.68 0 c
h
3498.65 4908 m
0 145.61 0 0 0 145.61 c
24.68 0 0 0 24.68 0 c
0 -145.61 0 0 0 -145.61 c
-24.68 0 0 0 -24.68 0 c
f
3614.39 4930.07 m
3.57 -21.8 0 0 3.57 -21.8 c
-6.95 -1.46 -13.16 -2.19 -18.65 -2.19 c
-8.96 0 -15.91 1.41 -20.84 4.25 c
-4.94 2.83 -8.41 6.56 -10.42 11.17 c
-2.01 4.62 -3.02 14.33 -3.02 29.14 c
0 83.78 0 0 0 83.78 c
-18.1 0 0 0 -18.1 0 c
0 19.2 0 0 0 19.2 c
18.1 0 0 0 18.1 0 c
0 36.06 0 0 0 36.06 c
24.54 14.81 0 0 24.54 14.81 c
0 -50.87 0 0 0 -50.87 c
24.82 0 0 0 24.82 0 c
0 -19.2 0 0 0 -19.2 c
-24.82 0 0 0 -24.82 0 c
0 -85.15 0 0 0 -85.15 c
0 -7.04 0.43 -11.56 1.3 -13.57 c
0.87 -2.01 2.29 -3.61 4.25 -4.8 c
1.96 -1.19 4.77 -1.78 8.43 -1.78 c
2.74 0 6.35 0.32 10.83 0.96 c
f
3640.51 4908 m
0 201.01 0 0 0 201.01 c
24.68 0 0 0 24.68 0 c
0 -72.12 0 0 0 -72.12 c
11.52 13.34 26.05 20.02 43.6 20.02 c
10.79 0 20.16 -2.12 28.11 -6.37 c
7.95 -4.25 13.64 -10.12 17.07 -17.62 c
3.43 -7.5 5.14 -18.37 5.14 -32.63 c
0 -92.28 0 0 0 -92.28 c
-24.68 0 0 0 -24.68 0 c
0 92.28 0 0 0 92.28 c
0 12.34 -2.68 21.32 -8.02 26.94 c
-5.35 5.62 -12.91 8.43 -22.69 8.43 c
-7.31 0 -14.19 -1.9 -20.64 -5.69 c
-6.44 -3.79 -11.04 -8.93 -13.78 -15.43 c
-2.74 -6.49 -4.11 -15.45 -4.11 -26.87 c
0 -79.66 0 0 0 -79.66 c
-24.68 0 0 0 -24.68 0 c
f
3787.32 4980.8 m
0 26.97 7.5 46.94 22.48 59.92 c
12.52 10.79 27.79 16.18 45.8 16.18 c
20.02 0 36.38 -6.56 49.09 -19.68 c
12.71 -13.12 19.06 -31.24 19.06 -54.36 c
0 -18.74 -2.81 -33.48 -8.43 -44.22 c
-5.62 -10.74 -13.8 -19.08 -24.54 -25.02 c
-10.74 -5.94 -22.46 -8.91 -35.17 -8.91 c
-20.38 0 -36.86 6.54 -49.43 19.61 c
-12.57 13.07 -18.85 31.9 -18.85 56.49 c
h
3812.69 4980.8 m
0 -18.64 4.07 -32.61 12.2 -41.89 c
8.14 -9.28 18.38 -13.91 30.71 -13.91 c
12.25 0 22.44 4.66 30.57 13.98 c
8.14 9.32 12.2 23.54 12.2 42.64 c
0 18.01 -4.09 31.65 -12.27 40.93 c
-8.18 9.28 -18.35 13.91 -30.51 13.91 c
-12.34 0 -22.58 -4.62 -30.71 -13.85 c
-8.13 -9.23 -12.2 -23.17 -12.2 -41.82 c
f
4047.94 4908 m
0 21.39 0 0 0 21.39 c
-11.34 -16.45 -26.74 -24.68 -46.21 -24.68 c
-8.59 0 -16.61 1.64 -24.06 4.93 c
-7.45 3.29 -12.98 7.43 -16.59 12.41 c
-3.61 4.98 -6.14 11.08 -7.61 18.3 c
-1 4.84 -1.51 12.52 -1.51 23.04 c
0 90.22 0 0 0 90.22 c
24.68 0 0 0 24.68 0 c
0 -80.76 0 0 0 -80.76 c
0 -12.89 0.5 -21.57 1.51 -26.05 c
1.55 -6.49 4.85 -11.59 9.88 -15.29 c
5.03 -3.7 11.24 -5.55 18.64 -5.55 c
7.41 0 14.35 1.9 20.84 5.69 c
6.49 3.79 11.08 8.96 13.78 15.49 c
2.7 6.54 4.05 16.02 4.05 28.45 c
0 78.02 0 0 0 78.02 c
24.68 0 0 0 24.68 0 c
0 -145.61 0 0 0 -145.61 c
-22.07 0 0 0 -22.07 0 c
f
4162.39 4930.07 m
3.57 -21.8 0 0 3.57 -21.8 c
-6.95 -1.46 -13.16 -2.19 -18.65 -2.19 c
-8.96 0 -15.91 1.41 -20.84 4.25 c
-4.94 2.83 -8.41 6.56 -10.42 11.17 c
-2.01 4.62 -3.02 14.33 -3.02 29.14 c
0 83.78 0 0 0 83.78 c
-18.1 0 0 0 -18.1 0 c
0 19.2 0 0 0 19.2 c
18.1 0 0 0 18.1 0 c
0 36.06 0 0 0 36.06 c
24.54 14.81 0 0 24.54 14.81 c
0 -50.87 0 0 0 -50.87 c
24.82 0 0 0 24.82 0 c
0 -19.2 0 0 0 -19.2 c
-24.82 0 0 0 -24.82 0 c
0 -85.15 0 0 0 -85.15 c
0 -7.04 0.43 -11.56 1.3 -13.57 c
0.87 -2.01 2.29 -3.61 4.25 -4.8 c
1.96 -1.19 4.77 -1.78 8.43 -1.78 c
2.74 0 6.35 0.32 10.83 0.96 c
f
4320.81 4908 m
0 177.29 0 0 0 177.29 c
-66.23 0 0 0 -66.23 0 c
0 23.72 0 0 0 23.72 c
159.32 0 0 0 159.32 0 c
0 -23.72 0 0 0 -23.72 c
-66.5 0 0 0 -66.5 0 c
0 -177.29 0 0 0 -177.29 c
-26.6 0 0 0 -26.6 0 c
f
4436.23 4908 m
0 145.61 0 0 0 145.61 c
22.21 0 0 0 22.21 0 c
0 -22.07 0 0 0 -22.07 c
5.66 10.33 10.9 17.14 15.7 20.43 c
4.8 3.29 10.08 4.93 15.84 4.93 c
8.32 0 16.77 -2.65 25.37 -7.95 c
-8.5 -22.89 0 0 -8.5 -22.89 c
-6.03 3.56 -12.07 5.35 -18.1 5.35 c
-5.39 0 -10.24 -1.62 -14.54 -4.87 c
-4.29 -3.25 -7.36 -7.75 -9.18 -13.51 c
-2.74 -8.77 -4.11 -18.37 -4.11 -28.79 c
0 -76.23 0 0 0 -76.23 c
-24.68 0 0 0 -24.68 0 c
f
4530.65 5080.63 m
0 28.38 0 0 0 28.38 c
24.68 0 0 0 24.68 0 c
0 -28.38 0 0 0 -28.38 c
-24.68 0 0 0 -24.68 0 c
h
4530.65 4908 m
0 145.61 0 0 0 145.61 c
24.68 0 0 0 24.68 0 c
0 -145.61 0 0 0 -145.61 c
-24.68 0 0 0 -24.68 0 c
f
4592.51 4852.2 m
0 201.42 0 0 0 201.42 c
22.48 0 0 0 22.48 0 c
0 -18.92 0 0 0 -18.92 c
5.3 7.4 11.29 12.96 17.96 16.66 c
6.68 3.7 14.77 5.55 24.27 5.55 c
12.43 0 23.4 -3.2 32.91 -9.6 c
9.51 -6.4 16.68 -15.43 21.53 -27.08 c
4.84 -11.66 7.27 -24.43 7.27 -38.32 c
0 -14.9 -2.68 -28.31 -8.02 -40.24 c
-5.35 -11.93 -13.12 -21.07 -23.31 -27.42 c
-10.19 -6.35 -20.91 -9.53 -32.15 -9.53 c
-8.23 0 -15.61 1.73 -22.14 5.21 c
-6.54 3.48 -11.91 7.86 -16.11 13.16 c
0 -70.89 0 0 0 -70.89 c
-24.68 0 0 0 -24.68 0 c
h
4614.86 4979.98 m
0 -18.74 3.79 -32.59 11.38 -41.55 c
7.59 -8.96 16.77 -13.43 27.56 -13.43 c
10.97 0 20.36 4.64 28.18 13.91 c
7.82 9.28 11.72 23.65 11.72 43.12 c
0 18.56 -3.82 32.45 -11.45 41.68 c
-7.63 9.23 -16.75 13.85 -27.36 13.85 c
-10.51 0 -19.81 -4.91 -27.9 -14.74 c
-8.09 -9.83 -12.13 -24.11 -12.13 -42.85 c
f
4747.96 4908 m
0 201.01 0 0 0 201.01 c
24.68 0 0 0 24.68 0 c
0 -201.01 0 0 0 -201.01 c
-24.68 0 0 0 -24.68 0 c
f
4911.19 4954.89 m
25.5 -3.15 0 0 25.5 -3.15 c
-4.02 -14.9 -11.47 -26.46 -22.35 -34.69 c
-10.87 -8.23 -24.77 -12.34 -41.68 -12.34 c
-21.3 0 -38.19 6.56 -50.66 19.68 c
-12.48 13.12 -18.71 31.51 -18.71 55.19 c
0 24.5 6.3 43.51 18.92 57.04 c
12.61 13.53 28.97 20.29 49.09 20.29 c
19.47 0 35.38 -6.62 47.71 -19.88 c
12.34 -13.25 18.51 -31.9 18.51 -55.94 c
0 -1.46 -0.04 -3.66 -0.14 -6.58 c
-108.59 0 0 0 -108.59 0 c
0.91 -16 5.44 -28.25 13.57 -36.75 c
8.14 -8.5 18.28 -12.75 30.44 -12.75 c
9.05 0 16.77 2.38 23.17 7.13 c
6.4 4.75 11.47 12.34 15.22 22.76 c
h
4830.16 4994.79 m
81.31 0 0 0 81.31 0 c
-1.1 12.25 -4.2 21.43 -9.32 27.56 c
-7.86 9.5 -18.05 14.26 -30.57 14.26 c
-11.34 0 -20.87 -3.79 -28.59 -11.38 c
-7.72 -7.59 -12 -17.73 -12.82 -30.44 c
f
4957.91 4968.33 m
0 24.82 0 0 0 24.82 c
75.82 0 0 0 75.82 0 c
0 -24.82 0 0 0 -24.82 c
-75.82 0 0 0 -75.82 0 c
f
5041.59 4908 m
77.19 201.01 0 0 77.19 201.01 c
28.66 0 0 0 28.66 0 c
82.27 -201.01 0 0 82.27 -201.01 c
-30.3 0 0 0 -30.3 0 c
-23.45 60.88 0 0 -23.45 60.88 c
-84.05 0 0 0 -84.05 0 c
-22.07 -60.88 0 0 -22.07 -60.88 c
-28.25 0 0 0 -28.25 0 c
h
5099.59 4990.54 m
68.14 0 0 0 68.14 0 c
-20.98 55.66 0 0 -20.98 55.66 c
-6.4 16.91 -11.15 30.81 -14.26 41.68 c
-2.56 -12.89 -6.17 -25.68 -10.83 -38.39 c
-22.08 -58.96 0 0 -22.08 -58.96 c
f
255 0 r3
q 1 -0.999998 scale
1917.64 -4658.48 628.81 0 S
Q
K
2639.57 4659.9 m
0 33.36 8.96 59.48 26.88 78.36 c
17.91 18.88 41.04 28.31 69.38 28.31 c
18.55 0 35.28 -4.43 50.18 -13.3 c
14.9 -8.87 26.25 -21.23 34.07 -37.09 c
7.82 -15.86 11.72 -33.84 11.72 -53.95 c
0 -20.39 -4.11 -38.62 -12.34 -54.71 c
-8.23 -16.09 -19.88 -28.27 -34.96 -36.54 c
-15.08 -8.27 -31.35 -12.41 -48.81 -12.41 c
-18.92 0 -35.83 4.57 -50.73 13.71 c
-14.9 9.14 -26.19 21.62 -33.87 37.43 c
-7.68 15.81 -11.52 32.54 -11.52 50.18 c
h
2667 4659.49 m
0 -24.23 6.51 -43.3 19.54 -57.25 c
13.03 -13.94 29.37 -20.91 49.02 -20.91 c
20.02 0 36.49 7.04 49.43 21.12 c
12.93 14.08 19.4 34.05 19.4 59.92 c
0 16.36 -2.77 30.64 -8.3 42.85 c
-5.53 12.2 -13.62 21.66 -24.27 28.38 c
-10.65 6.72 -22.6 10.08 -35.86 10.08 c
-18.83 0 -35.03 -6.46 -48.61 -19.4 c
-13.57 -12.93 -20.36 -34.53 -20.36 -64.79 c
f
2853.32 4634.8 m
0 26.97 7.5 46.94 22.48 59.92 c
12.52 10.79 27.79 16.18 45.8 16.18 c
20.02 0 36.38 -6.56 49.09 -19.68 c
12.71 -13.12 19.06 -31.24 19.06 -54.36 c
0 -18.74 -2.81 -33.48 -8.43 -44.22 c
-5.62 -10.74 -13.8 -19.08 -24.54 -25.02 c
-10.74 -5.94 -22.46 -8.91 -35.17 -8.91 c
-20.38 0 -36.86 6.54 -49.43 19.61 c
-12.57 13.07 -18.85 31.9 -18.85 56.49 c
h
2878.69 4634.8 m
0 -18.64 4.07 -32.61 12.2 -41.89 c
8.14 -9.28 18.38 -13.91 30.71 -13.91 c
12.25 0 22.44 4.66 30.57 13.98 c
8.14 9.32 12.2 23.54 12.2 42.64 c
0 18.01 -4.09 31.65 -12.27 40.93 c
-8.18 9.28 -18.35 13.91 -30.51 13.91 c
-12.34 0 -22.58 -4.62 -30.71 -13.85 c
-8.13 -9.23 -12.2 -23.17 -12.2 -41.82 c
f
3165.08 4632.48 m
26.6 -6.72 0 0 26.6 -6.72 c
-5.58 -21.85 -15.61 -38.5 -30.1 -49.98 c
-14.49 -11.47 -32.2 -17.21 -53.13 -17.21 c
-21.66 0 -39.29 4.41 -52.86 13.23 c
-13.57 8.82 -23.9 21.59 -30.98 38.32 c
-7.09 16.73 -10.63 34.69 -10.63 53.89 c
0 20.93 4 39.19 12 54.78 c
8 15.58 19.38 27.42 34.14 35.51 c
14.76 8.09 31.01 12.13 48.74 12.13 c
20.11 0 37.02 -5.12 50.73 -15.36 c
13.71 -10.24 23.27 -24.64 28.66 -43.19 c
-26.19 -6.17 0 0 -26.19 -6.17 c
-4.66 14.63 -11.43 25.27 -20.29 31.95 c
-8.87 6.67 -20.02 10.01 -33.45 10.01 c
-15.45 0 -28.36 -3.7 -38.73 -11.11 c
-10.37 -7.4 -17.66 -17.34 -21.87 -29.82 c
-4.2 -12.48 -6.31 -25.34 -6.31 -38.6 c
0 -17.09 2.49 -32.02 7.47 -44.77 c
4.98 -12.75 12.73 -22.28 23.24 -28.59 c
10.51 -6.3 21.89 -9.46 34.14 -9.46 c
14.9 0 27.52 4.3 37.84 12.89 c
10.33 8.59 17.32 21.34 20.98 38.25 c
f
3326.38 4562 m
-44.56 145.61 0 0 -44.56 145.61 c
25.5 0 0 0 25.5 0 c
23.17 -84.05 0 0 23.17 -84.05 c
8.64 -31.26 0 0 8.64 -31.26 c
0.36 1.55 2.88 11.56 7.54 30.03 c
23.17 85.29 0 0 23.17 85.29 c
25.37 0 0 0 25.37 0 c
21.8 -84.46 0 0 21.8 -84.46 c
7.27 -27.83 0 0 7.27 -27.83 c
8.36 28.11 0 0 8.36 28.11 c
24.96 84.19 0 0 24.96 84.19 c
23.99 0 0 0 23.99 0 c
-45.52 -145.61 0 0 -45.52 -145.61 c
-25.64 0 0 0 -25.64 0 c
-23.17 87.2 0 0 -23.17 87.2 c
-5.62 24.82 0 0 -5.62 24.82 c
-29.48 -112.02 0 0 -29.48 -112.02 c
-25.78 0 0 0 -25.78 0 c
f
3498.65 4734.63 m
0 28.38 0 0 0 28.38 c
24.68 0 0 0 24.68 0 c
0 -28.38 0 0 0 -28.38 c
-24.68 0 0 0 -24.68 0 c
h
3498.65 4562 m
0 145.61 0 0 0 145.61 c
24.68 0 0 0 24.68 0 c
0 -145.61 0 0 0 -145.61 c
-24.68 0 0 0 -24.68 0 c
f
3614.39 4584.07 m
3.57 -21.8 0 0 3.57 -21.8 c
-6.95 -1.46 -13.16 -2.19 -18.65 -2.19 c
-8.96 0 -15.91 1.41 -20.84 4.25 c
-4.94 2.83 -8.41 6.56 -10.42 11.17 c
-2.01 4.62 -3.02 14.33 -3.02 29.14 c
0 83.78 0 0 0 83.78 c
-18.1 0 0 0 -18.1 0 c
0 19.2 0 0 0 19.2 c
18.1 0 0 0 18.1 0 c
0 36.06 0 0 0 36.06 c
24.54 14.81 0 0 24.54 14.81 c
0 -50.87 0 0 0 -50.87 c
24.82 0 0 0 24.82 0 c
0 -19.2 0 0 0 -19.2 c
-24.82 0 0 0 -24.82 0 c
0 -85.15 0 0 0 -85.15 c
0 -7.04 0.43 -11.56 1.3 -13.57 c
0.87 -2.01 2.29 -3.61 4.25 -4.8 c
1.96 -1.19 4.77 -1.78 8.43 -1.78 c
2.74 0 6.35 0.32 10.83 0.96 c
f
3640.51 4562 m
0 201.01 0 0 0 201.01 c
24.68 0 0 0 24.68 0 c
0 -72.12 0 0 0 -72.12 c
11.52 13.34 26.05 20.02 43.6 20.02 c
10.79 0 20.16 -2.12 28.11 -6.37 c
7.95 -4.25 13.64 -10.12 17.07 -17.62 c
3.43 -7.5 5.14 -18.37 5.14 -32.63 c
0 -92.28 0 0 0 -92.28 c
-24.68 0 0 0 -24.68 0 c
0 92.28 0 0 0 92.28 c
0 12.34 -2.68 21.32 -8.02 26.94 c
-5.35 5.62 -12.91 8.43 -22.69 8.43 c
-7.31 0 -14.19 -1.9 -20.64 -5.69 c
-6.44 -3.79 -11.04 -8.93 -13.78 -15.43 c
-2.74 -6.49 -4.11 -15.45 -4.11 -26.87 c
0 -79.66 0 0 0 -79.66 c
-24.68 0 0 0 -24.68 0 c
f
3850.81 4562 m
0 177.29 0 0 0 177.29 c
-66.23 0 0 0 -66.23 0 c
0 23.72 0 0 0 23.72 c
159.32 0 0 0 159.32 0 c
0 -23.72 0 0 0 -23.72 c
-66.5 0 0 0 -66.5 0 c
0 -177.29 0 0 0 -177.29 c
-26.6 0 0 0 -26.6 0 c
f
3966.23 4562 m
0 145.61 0 0 0 145.61 c
22.21 0 0 0 22.21 0 c
0 -22.07 0 0 0 -22.07 c
5.66 10.33 10.9 17.14 15.7 20.43 c
4.8 3.29 10.08 4.93 15.84 4.93 c
8.32 0 16.77 -2.65 25.37 -7.95 c
-8.5 -22.89 0 0 -8.5 -22.89 c
-6.03 3.56 -12.07 5.35 -18.1 5.35 c
-5.39 0 -10.24 -1.62 -14.54 -4.87 c
-4.29 -3.25 -7.36 -7.75 -9.18 -13.51 c
-2.74 -8.77 -4.11 -18.37 -4.11 -28.79 c
0 -76.23 0 0 0 -76.23 c
-24.68 0 0 0 -24.68 0 c
f
4060.65 4734.63 m
0 28.38 0 0 0 28.38 c
24.68 0 0 0 24.68 0 c
0 -28.38 0 0 0 -28.38 c
-24.68 0 0 0 -24.68 0 c
h
4060.65 4562 m
0 145.61 0 0 0 145.61 c
24.68 0 0 0 24.68 0 c
0 -145.61 0 0 0 -145.61 c
-24.68 0 0 0 -24.68 0 c
f
4122.51 4506.2 m
0 201.42 0 0 0 201.42 c
22.48 0 0 0 22.48 0 c
0 -18.92 0 0 0 -18.92 c
5.3 7.4 11.29 12.96 17.96 16.66 c
6.68 3.7 14.77 5.55 24.27 5.55 c
12.43 0 23.4 -3.2 32.91 -9.6 c
9.51 -6.4 16.68 -15.43 21.53 -27.08 c
4.84 -11.66 7.27 -24.43 7.27 -38.32 c
0 -14.9 -2.68 -28.31 -8.02 -40.24 c
-5.35 -11.93 -13.12 -21.07 -23.31 -27.42 c
-10.19 -6.35 -20.91 -9.53 -32.15 -9.53 c
-8.23 0 -15.61 1.73 -22.14 5.21 c
-6.54 3.48 -11.91 7.86 -16.11 13.16 c
0 -70.89 0 0 0 -70.89 c
-24.68 0 0 0 -24.68 0 c
h
4144.86 4633.98 m
0 -18.74 3.79 -32.59 11.38 -41.55 c
7.59 -8.96 16.77 -13.43 27.56 -13.43 c
10.97 0 20.36 4.64 28.18 13.91 c
7.82 9.28 11.72 23.65 11.72 43.12 c
0 18.56 -3.82 32.45 -11.45 41.68 c
-7.63 9.23 -16.75 13.85 -27.36 13.85 c
-10.51 0 -19.81 -4.91 -27.9 -14.74 c
-8.09 -9.83 -12.13 -24.11 -12.13 -42.85 c
f
4277.96 4562 m
0 201.01 0 0 0 201.01 c
24.68 0 0 0 24.68 0 c
0 -201.01 0 0 0 -201.01 c
-24.68 0 0 0 -24.68 0 c
f
4440.19 4608.89 m
25.5 -3.15 0 0 25.5 -3.15 c
-4.02 -14.9 -11.47 -26.46 -22.35 -34.69 c
-10.87 -8.23 -24.77 -12.34 -41.68 -12.34 c
-21.3 0 -38.19 6.56 -50.66 19.68 c
-12.48 13.12 -18.71 31.51 -18.71 55.19 c
0 24.5 6.3 43.51 18.92 57.04 c
12.61 13.53 28.97 20.29 49.09 20.29 c
19.47 0 35.38 -6.62 47.71 -19.88 c
12.34 -13.25 18.51 -31.9 18.51 -55.94 c
0 -1.46 -0.04 -3.66 -0.14 -6.58 c
-108.59 0 0 0 -108.59 0 c
0.91 -16 5.44 -28.25 13.57 -36.75 c
8.14 -8.5 18.28 -12.75 30.44 -12.75 c
9.05 0 16.77 2.38 23.17 7.13 c
6.4 4.75 11.47 12.34 15.22 22.76 c
h
4359.16 4648.79 m
81.31 0 0 0 81.31 0 c
-1.1 12.25 -4.2 21.43 -9.32 27.56 c
-7.86 9.5 -18.05 14.26 -30.57 14.26 c
-11.34 0 -20.87 -3.79 -28.59 -11.38 c
-7.72 -7.59 -12 -17.73 -12.82 -30.44 c
f
4486.91 4622.33 m
0 24.82 0 0 0 24.82 c
75.82 0 0 0 75.82 0 c
0 -24.82 0 0 0 -24.82 c
-75.82 0 0 0 -75.82 0 c
f
4571.59 4562 m
77.19 201.01 0 0 77.19 201.01 c
28.66 0 0 0 28.66 0 c
82.27 -201.01 0 0 82.27 -201.01 c
-30.3 0 0 0 -30.3 0 c
-23.45 60.88 0 0 -23.45 60.88 c
-84.05 0 0 0 -84.05 0 c
-22.07 -60.88 0 0 -22.07 -60.88 c
-28.25 0 0 0 -28.25 0 c
h
4629.59 4644.54 m
68.14 0 0 0 68.14 0 c
-20.98 55.66 0 0 -20.98 55.66 c
-6.4 16.91 -11.15 30.81 -14.26 41.68 c
-2.56 -12.89 -6.17 -25.68 -10.83 -38.39 c
-22.08 -58.96 0 0 -22.08 -58.96 c
f
16.8003 w
q 1 -0.999998 scale
1454.43 -5376.1 0 0 S
Q
q 1 -0.999998 scale
2080.84 -5376.1 0 0 S
Q
q 1 -0.999998 scale
2704.85 -5376.1 0 0 S
Q
q 1 -0.999998 scale
3331.26 -5376.1 0 0 S
Q
q 1 -0.999998 scale
3957.67 -5376.1 0 0 S
Q
q 1 -0.999998 scale
4584.09 -5376.1 0 0 S
Q
q 1 -0.999998 scale
5208.1 -5376.1 0 0 S
Q
q 1 -0.999998 scale
5834.51 -5376.1 0 0 S
Q
q 1 -0.999998 scale
6460.92 -5376.1 0 0 S
Q
q 1 -0.999998 scale
7084.93 -5376.1 0 0 S
Q
q 1 -0.999998 scale
7711.34 -5376.1 0 0 S
Q
q 1 -0.999998 scale
1454.43 -5376.1 6256.91 0 S
Q
q 1 -0.999998 scale
7711.34 -950.42 0 0 S
Q
q 1 -0.999998 scale
7711.34 -1392.03 0 0 S
Q
q 1 -0.999998 scale
7711.34 -1836.03 0 0 S
Q
q 1 -0.999998 scale
7711.34 -2277.64 0 0 S
Q
q 1 -0.999998 scale
7711.34 -2721.65 0 0 S
Q
q 1 -0.999998 scale
7711.34 -3163.26 0 0 S
Q
q 1 -0.999998 scale
7711.34 -3604.87 0 0 S
Q
q 1 -0.999998 scale
7711.34 -4048.87 0 0 S
Q
q 1 -0.999998 scale
7711.34 -4490.48 0 0 S
Q
q 1 -0.999998 scale
7711.34 -4934.49 0 0 S
Q
q 1 -0.999998 scale
7711.34 -5376.1 0 0 S
Q
q 1 -0.999998 scale
7711.34 -950.42 0 -4425.68 S
Q
cleartomark end end pagesave restore
 showpage
%%PageTrailer
%%Trailer
%%Pages: 1
