%!PS-Adobe-3.0 EPSF-3.0
%%BoundingBox: 13 0 751 519
%%HiResBoundingBox: 13.039453 0.522266 750.262109 518.935547
%.......................................
%%Creator: GPL Ghostscript 870 (epswrite)
%%CreationDate: 2014/01/15 22:09:31
%%DocumentData: Clean7Bit
%%LanguageLevel: 2
%%EndComments
%%BeginProlog
% This copyright applies to everything between here and the %%EndProlog:
% Copyright (C) 2009 Artifex Software, Inc.  All rights reserved.
%%BeginResource: procset GS_epswrite_2_0_1001 1.001 0
/GS_epswrite_2_0_1001 80 dict dup begin
/PageSize 2 array def/setpagesize{ PageSize aload pop 3 index eq exch
4 index eq and{ pop pop pop}{ PageSize dup  1
5 -1 roll put 0 4 -1 roll put dup null eq {false} {dup where} ifelse{ exch get exec}
{ pop/setpagedevice where
{ pop 1 dict dup /PageSize PageSize put setpagedevice}
{ /setpage where{ pop PageSize aload pop pageparams 3 {exch pop} repeat
setpage}if}ifelse}ifelse}ifelse} bind def
/!{bind def}bind def/#{load def}!/N/counttomark #
/rG{3{3 -1 roll 255 div}repeat setrgbcolor}!/G{255 div setgray}!/K{0 G}!
/r6{dup 3 -1 roll rG}!/r5{dup 3 1 roll rG}!/r3{dup rG}!
/w/setlinewidth #/J/setlinecap #
/j/setlinejoin #/M/setmiterlimit #/d/setdash #/i/setflat #
/m/moveto #/l/lineto #/c/rcurveto #
/p{N 2 idiv{N -2 roll rlineto}repeat}!
/P{N 0 gt{N -2 roll moveto p}if}!
/h{p closepath}!/H{P closepath}!
/lx{0 rlineto}!/ly{0 exch rlineto}!/v{0 0 6 2 roll c}!/y{2 copy c}!
/re{4 -2 roll m exch dup lx exch ly neg lx h}!
/^{3 index neg 3 index neg}!
/f{P fill}!/f*{P eofill}!/s{H stroke}!/S{P stroke}!
/q/gsave #/Q/grestore #/rf{re fill}!
/Y{P clip newpath}!/Y*{P eoclip newpath}!/rY{re Y}!
/|={pop exch 4 1 roll 1 array astore cvx 3 array astore cvx exch 1 index def exec}!
/|{exch string readstring |=}!
/+{dup type/nametype eq{2 index 7 add -3 bitshift 2 index mul}if}!
/@/currentfile #/${+ @ |}!
/B{{2 copy string{readstring pop}aload pop 4 array astore cvx
3 1 roll}repeat pop pop true}!
/Ix{[1 0 0 1 11 -2 roll exch neg exch neg]exch}!
/,{true exch Ix imagemask}!/If{false exch Ix imagemask}!/I{exch Ix image}!
/Ic{exch Ix false 3 colorimage}!
/F{/Columns counttomark 3 add -2 roll/Rows exch/K -1/BlackIs1 true>>
/CCITTFaxDecode filter}!/FX{<</EndOfBlock false F}!
/X{/ASCII85Decode filter}!/@X{@ X}!/&2{2 index 2 index}!
/@F{@ &2<<F}!/@C{@X &2 FX}!
/$X{+ @X |}!/&4{4 index 4 index}!/$F{+ @ &4<<F |}!/$C{+ @X &4 FX |}!
/IC{3 1 roll 10 dict begin 1{/ImageType/Interpolate/Decode/DataSource
/ImageMatrix/BitsPerComponent/Height/Width}{exch def}forall
currentdict end image}!
/~{@ read {pop} if}!
end def
%%EndResource
/pagesave null def
%%EndProlog
%%Page: 1 1
%%BeginPageSetup
GS_epswrite_2_0_1001 begin
/pagesave save store 197 dict begin
0.1 0.1 scale
%%EndPageSetup
gsave mark
Q q
1080.02 799.215 4418.49 4243.27 re
Y*
255 G
1080.02 801.613 4416.09 4240.87 re
f*
0 128 255 rG
5496.11 1862.43 -1471.23 196.8 -1092.02 -196.8 -196.8 -266.4 1288.83 -247.2 1286.43 247.2 184.8 264 0 2.4 f*
0 255 r3
2920.86 1596.03 1104.02 -211.2 1104.02 211.2 -144 266.4 -960.02 127.2 -710.41 -127.2 -393.61 -266.4 f*
0 255 128 rG
3103.26 1596.03 921.62 -177.6 919.22 177.6 -475.21 266.4 -444.01 57.6 -328.81 -57.6 -592.81 -266.4 f*
255 0 r5
3288.07 1596.03 736.82 -141.6 734.41 141.6 -734.41 256.8 -736.82 -256.8 f*
0 255 r6
3472.87 1596.03 552.01 -105.6 552.01 105.6 -552.01 192 -552.01 -192 f*
0 128 255 rG
1987.24 1065.62 564.01 -141.6 566.41 141.6 -566.41 103.2 -564.01 -103.2 f*
5496.11 4912.88 -756.02 -134.4 756.02 -136.8 0 271.2 f*
255 128 0 rG
3655.27 1596.03 369.61 -69.6 367.21 69.6 -367.21 129.6 -369.61 -129.6 f*
255 0 r3
3840.08 1596.03 184.8 -33.6 182.4 33.6 -182.4 64.8 -184.8 -64.8 f*
0 255 r3
5496.11 4785.68 -40.8 -7.2 40.8 -9.6 0 16.8 f*
0 128 255 rG
5496.11 1068.02 -7.2 -2.4 7.2 -14.4 0 16.8 f*
9.60018 w
1 J
1 j
K
q 1 -0.999998 scale
1080.02 -801.61 4416.08 0 0 -4240.88 ^ ^ S
Q
q 1 -0.999998 scale
5496.1 -1862.43 -1471.23 -196.81 -1092.02 196.81 -196.8 266.4 1288.83 247.2 1286.42 -247.2 184.8 -264 0 -2.4 S
Q
q 1 -0.999998 scale
2920.85 -1596.03 1104.02 211.2 1104.02 -211.2 -144 -266.4 -960.02 -127.2 -710.41 127.2 -393.61 266.4 S
Q
q 1 -0.999998 scale
3103.26 -1596.03 921.62 177.6 919.22 -177.6 -475.21 -266.4 -444.01 -57.6 -328.81 57.6 -592.81 266.4 S
Q
q 1 -0.999998 scale
3288.06 -1596.03 736.82 141.6 734.41 -141.6 -734.41 -256.81 -736.82 256.81 S
Q
q 1 -0.999998 scale
3472.86 -1596.03 552.01 105.6 552.01 -105.6 -552.01 -192 -552.01 192 S
Q
q 1 -0.999998 scale
1987.24 -1065.62 564.01 141.6 566.41 -141.6 -566.41 -103.2 -564.01 103.2 S
Q
q 1 -0.999998 scale
5496.1 -4912.89 -756.01 134.4 756.01 136.8 0 -271.2 S
Q
q 1 -0.999998 scale
3655.27 -1596.03 369.61 69.6 367.21 -69.6 -367.21 -129.6 -369.61 129.6 S
Q
q 1 -0.999998 scale
3840.07 -1596.03 184.8 33.6 182.4 -33.6 -182.4 -64.8 -184.8 64.8 S
Q
q 1 -0.999998 scale
5496.1 -4785.69 -40.8 7.2 40.8 9.6 0 -16.8 S
Q
q 1 -0.999998 scale
5496.1 -1068.02 -7.2 2.4 7.2 14.4 0 -16.8 S
Q
Q q
0 0 8140 5720 re
Y
K
1112.55 456 m
-30.8 0 0 0 -30.8 0 c
0 196.25 0 0 0 196.25 c
-7.41 -7.07 -17.14 -14.14 -29.17 -21.21 c
-12.04 -7.07 -22.84 -12.37 -32.42 -15.91 c
0 29.77 0 0 0 29.77 c
17.22 8.1 32.28 17.91 45.17 29.43 c
12.89 11.52 22.02 22.7 27.38 33.54 c
19.85 0 0 0 19.85 0 c
0 -251.86 0 0 0 -251.86 c
f
2629.4 485.6 m
0 -29.6 0 0 0 -29.6 c
-165.79 0 0 0 -165.79 0 c
-0.23 7.41 0.97 14.54 3.59 21.39 c
4.22 11.29 10.98 22.41 20.27 33.36 c
9.3 10.95 22.73 23.61 40.29 37.98 c
27.26 22.36 45.68 40.07 55.27 53.13 c
9.58 13.06 14.37 25.41 14.37 37.04 c
0 12.2 -4.36 22.5 -13.09 30.88 c
-8.73 8.38 -20.1 12.57 -34.13 12.57 c
-14.83 0 -26.69 -4.45 -35.59 -13.34 c
-8.89 -8.9 -13.4 -21.21 -13.52 -36.96 c
-31.65 3.25 0 0 -31.65 3.25 c
2.17 23.61 10.32 41.61 24.46 53.98 c
14.14 12.38 33.14 18.57 56.98 18.57 c
24.07 0 43.12 -6.68 57.15 -20.02 c
14.03 -13.34 21.04 -29.89 21.04 -49.62 c
0 -10.04 -2.05 -19.91 -6.16 -29.6 c
-4.11 -9.7 -10.92 -19.9 -20.45 -30.62 c
-9.52 -10.72 -25.35 -25.44 -47.48 -44.14 c
-18.48 -15.51 -30.34 -26.04 -35.59 -31.57 c
-5.25 -5.53 -9.58 -11.09 -13 -16.68 c
123.02 0 0 0 123.02 0 c
f
3940.71 522.21 m
30.8 4.11 0 0 30.8 4.11 c
3.54 -17.45 9.55 -30.03 18.05 -37.73 c
8.5 -7.7 18.85 -11.55 31.05 -11.55 c
14.49 0 26.72 5.02 36.7 15.06 c
9.98 10.04 14.97 22.47 14.97 37.3 c
0 14.14 -4.62 25.8 -13.86 34.99 c
-9.24 9.18 -20.99 13.77 -35.25 13.77 c
-5.82 0 -13.06 -1.14 -21.73 -3.42 c
3.42 27.03 0 0 3.42 27.03 c
2.05 -0.23 3.71 -0.34 4.96 -0.34 c
13.12 0 24.93 3.42 35.42 10.27 c
10.5 6.84 15.74 17.39 15.74 31.65 c
0 11.29 -3.82 20.64 -11.46 28.06 c
-7.64 7.41 -17.51 11.12 -29.6 11.12 c
-11.98 0 -21.96 -3.76 -29.94 -11.29 c
-7.99 -7.53 -13.12 -18.82 -15.4 -33.87 c
-30.8 5.47 0 0 -30.8 5.47 c
3.77 20.65 12.32 36.64 25.66 48 c
13.35 11.35 29.95 17.02 49.79 17.02 c
13.69 0 26.29 -2.94 37.81 -8.81 c
11.52 -5.87 20.33 -13.89 26.43 -24.04 c
6.1 -10.15 9.15 -20.93 9.15 -32.34 c
0 -10.84 -2.91 -20.7 -8.73 -29.6 c
-5.82 -8.9 -14.43 -15.97 -25.84 -21.21 c
14.83 -3.42 26.35 -10.52 34.56 -21.3 c
8.21 -10.78 12.32 -24.27 12.32 -40.46 c
0 -21.9 -7.98 -40.46 -23.95 -55.69 c
-15.97 -15.23 -36.16 -22.84 -60.57 -22.84 c
-22.02 0 -40.29 6.56 -54.84 19.68 c
-14.54 13.12 -22.84 30.11 -24.89 50.99 c
f
5511.27 456 m
0 60.05 0 0 0 60.05 c
-108.82 0 0 0 -108.82 0 c
0 28.23 0 0 0 28.23 c
114.46 162.54 0 0 114.46 162.54 c
25.15 0 0 0 25.15 0 c
0 -162.54 0 0 0 -162.54 c
33.88 0 0 0 33.88 0 c
0 -28.23 0 0 0 -28.23 c
-33.88 0 0 0 -33.88 0 c
0 -60.05 0 0 0 -60.05 c
-30.8 0 0 0 -30.8 0 c
h
5511.27 544.29 m
0 113.09 0 0 0 113.09 c
-78.53 -113.09 0 0 -78.53 -113.09 c
78.53 0 0 0 78.53 0 c
f
944.55 696 m
-30.8 0 0 0 -30.8 0 c
0 196.25 0 0 0 196.25 c
-7.41 -7.07 -17.14 -14.14 -29.17 -21.21 c
-12.04 -7.07 -22.84 -12.37 -32.42 -15.91 c
0 29.77 0 0 0 29.77 c
17.22 8.1 32.28 17.91 45.17 29.43 c
12.89 11.52 22.02 22.7 27.38 33.54 c
19.85 0 0 0 19.85 0 c
0 -251.86 0 0 0 -251.86 c
f
990.4 989.6 m
0 -29.6 0 0 0 -29.6 c
-165.79 0 0 0 -165.79 0 c
-0.23 7.41 0.97 14.54 3.59 21.39 c
4.22 11.29 10.98 22.41 20.28 33.36 c
9.3 10.95 22.73 23.61 40.29 37.98 c
27.26 22.36 45.68 40.07 55.27 53.13 c
9.58 13.06 14.37 25.41 14.37 37.04 c
0 12.2 -4.36 22.5 -13.09 30.88 c
-8.73 8.38 -20.1 12.57 -34.13 12.57 c
-14.83 0 -26.69 -4.45 -35.59 -13.34 c
-8.89 -8.9 -13.4 -21.21 -13.52 -36.96 c
-31.65 3.25 0 0 -31.65 3.25 c
2.17 23.61 10.32 41.61 24.46 53.98 c
14.14 12.38 33.14 18.57 56.98 18.57 c
24.07 0 43.12 -6.68 57.15 -20.02 c
14.03 -13.34 21.04 -29.89 21.04 -49.62 c
0 -10.04 -2.05 -19.91 -6.16 -29.6 c
-4.11 -9.7 -10.92 -19.9 -20.45 -30.62 c
-9.52 -10.72 -25.35 -25.44 -47.48 -44.14 c
-18.48 -15.51 -30.34 -26.04 -35.59 -31.57 c
-5.25 -5.53 -9.58 -11.09 -13 -16.68 c
123.02 0 0 0 123.02 0 c
f
828.71 1292.21 m
30.8 4.11 0 0 30.8 4.11 c
3.54 -17.45 9.55 -30.03 18.05 -37.73 c
8.5 -7.7 18.85 -11.55 31.05 -11.55 c
14.49 0 26.72 5.02 36.7 15.05 c
9.98 10.04 14.97 22.47 14.97 37.3 c
0 14.14 -4.62 25.8 -13.86 34.99 c
-9.24 9.18 -20.99 13.77 -35.25 13.77 c
-5.82 0 -13.06 -1.14 -21.73 -3.42 c
3.42 27.03 0 0 3.42 27.03 c
2.05 -0.23 3.71 -0.34 4.96 -0.34 c
13.12 0 24.93 3.42 35.42 10.27 c
10.5 6.84 15.74 17.39 15.74 31.65 c
0 11.29 -3.82 20.64 -11.46 28.06 c
-7.64 7.41 -17.51 11.12 -29.6 11.12 c
-11.98 0 -21.96 -3.76 -29.94 -11.29 c
-7.99 -7.53 -13.12 -18.82 -15.4 -33.87 c
-30.8 5.47 0 0 -30.8 5.47 c
3.77 20.65 12.32 36.64 25.66 48 c
13.35 11.35 29.95 17.02 49.79 17.02 c
13.69 0 26.29 -2.94 37.81 -8.81 c
11.52 -5.87 20.33 -13.89 26.44 -24.04 c
6.1 -10.15 9.15 -20.93 9.15 -32.34 c
0 -10.84 -2.91 -20.7 -8.73 -29.6 c
-5.82 -8.9 -14.43 -15.97 -25.84 -21.21 c
14.83 -3.42 26.35 -10.52 34.56 -21.3 c
8.21 -10.78 12.32 -24.27 12.32 -40.46 c
0 -21.9 -7.98 -40.46 -23.95 -55.69 c
-15.97 -15.23 -36.16 -22.84 -60.57 -22.84 c
-22.02 0 -40.29 6.56 -54.84 19.68 c
-14.54 13.12 -22.84 30.11 -24.89 50.99 c
f
927.27 1490 m
0 60.05 0 0 0 60.05 c
-108.82 0 0 0 -108.82 0 c
0 28.23 0 0 0 28.23 c
114.46 162.54 0 0 114.46 162.54 c
25.15 0 0 0 25.15 0 c
0 -162.54 0 0 0 -162.54 c
33.88 0 0 0 33.88 0 c
0 -28.23 0 0 0 -28.23 c
-33.88 0 0 0 -33.88 0 c
0 -60.05 0 0 0 -60.05 c
-30.8 0 0 0 -30.8 0 c
h
927.27 1578.29 m
0 113.09 0 0 0 113.09 c
-78.53 -113.09 0 0 -78.53 -113.09 c
78.53 0 0 0 78.53 0 c
f
828.54 1822.7 m
32.34 2.74 0 0 32.34 2.74 c
2.4 -15.74 7.96 -27.57 16.68 -35.5 c
8.73 -7.93 19.25 -11.89 31.57 -11.89 c
14.83 0 27.38 5.59 37.64 16.77 c
10.27 11.18 15.4 26.01 15.4 44.48 c
0 17.57 -4.93 31.43 -14.8 41.58 c
-9.87 10.15 -22.79 15.23 -38.75 15.23 c
-9.93 0 -18.88 -2.25 -26.86 -6.76 c
-7.98 -4.5 -14.26 -10.35 -18.82 -17.54 c
-28.91 3.77 0 0 -28.91 3.77 c
24.29 128.84 0 0 24.29 128.84 c
124.73 0 0 0 124.73 0 c
0 -29.43 0 0 0 -29.43 c
-100.09 0 0 0 -100.09 0 c
-13.52 -67.41 0 0 -13.52 -67.41 c
15.06 10.49 30.86 15.74 47.39 15.74 c
21.9 0 40.38 -7.58 55.44 -22.75 c
15.05 -15.17 22.59 -34.68 22.59 -58.52 c
0 -22.7 -6.62 -42.32 -19.85 -58.86 c
-16.09 -20.3 -38.04 -30.46 -65.87 -30.46 c
-22.81 0 -41.43 6.39 -55.86 19.16 c
-14.43 12.77 -22.67 29.71 -24.72 50.81 c
f
988.35 2210.4 m
-30.62 -2.39 0 0 -30.62 -2.39 c
-2.74 12.09 -6.62 20.88 -11.64 26.35 c
-8.32 8.78 -18.59 13.17 -30.8 13.17 c
-9.81 0 -18.42 -2.74 -25.84 -8.21 c
-9.7 -7.07 -17.34 -17.39 -22.93 -30.97 c
-5.59 -13.57 -8.5 -32.91 -8.73 -58 c
7.41 11.29 16.48 19.68 27.2 25.15 c
10.72 5.48 21.96 8.21 33.71 8.21 c
20.53 0 38.01 -7.56 52.44 -22.67 c
14.43 -15.11 21.64 -34.65 21.64 -58.6 c
0 -15.74 -3.39 -30.37 -10.18 -43.89 c
-6.79 -13.52 -16.11 -23.87 -27.98 -31.05 c
-11.86 -7.18 -25.32 -10.78 -40.38 -10.78 c
-25.66 0 -46.59 9.44 -62.79 28.32 c
-16.2 18.88 -24.29 49.99 -24.29 93.33 c
0 48.48 8.95 83.72 26.86 105.74 c
15.63 19.16 36.67 28.75 63.14 28.75 c
19.73 0 35.9 -5.53 48.5 -16.6 c
12.61 -11.07 20.16 -26.35 22.67 -45.86 c
h
862.59 2102.27 m
0 -10.61 2.25 -20.76 6.76 -30.45 c
4.5 -9.7 10.8 -17.08 18.91 -22.16 c
8.1 -5.08 16.59 -7.61 25.49 -7.61 c
13 0 24.18 5.25 33.54 15.74 c
9.35 10.49 14.03 24.75 14.03 42.77 c
0 17.34 -4.62 31 -13.86 40.98 c
-9.24 9.98 -20.87 14.97 -34.91 14.97 c
-13.91 0 -25.72 -4.99 -35.41 -14.97 c
-9.7 -9.98 -14.55 -23.07 -14.55 -39.27 c
f
830.6 2504.98 m
0 29.6 0 0 0 29.6 c
162.37 0 0 0 162.37 0 c
0 -23.95 0 0 0 -23.95 c
-15.97 -17 -31.8 -39.58 -47.48 -67.76 c
-15.68 -28.17 -27.8 -57.14 -36.36 -86.91 c
-6.16 -20.99 -10.09 -43.97 -11.8 -68.95 c
-31.65 0 0 0 -31.65 0 c
0.34 19.73 4.22 43.57 11.63 71.52 c
7.41 27.95 18.05 54.89 31.91 80.84 c
13.86 25.95 28.6 47.82 44.23 65.61 c
-122.85 0 0 0 -122.85 0 c
f
875.94 2687.02 m
-12.78 4.68 -22.24 11.35 -28.4 20.02 c
-6.16 8.67 -9.24 19.05 -9.24 31.14 c
0 18.25 6.56 33.59 19.68 46.02 c
13.12 12.43 30.57 18.65 52.36 18.65 c
21.9 0 39.52 -6.36 52.87 -19.08 c
13.35 -12.72 20.02 -28.2 20.02 -46.45 c
0 -11.63 -3.05 -21.76 -9.15 -30.37 c
-6.11 -8.61 -15.37 -15.25 -27.8 -19.93 c
15.4 -5.02 27.12 -13.12 35.16 -24.3 c
8.04 -11.18 12.06 -24.52 12.06 -40.04 c
0 -21.45 -7.59 -39.47 -22.75 -54.07 c
-15.17 -14.6 -35.13 -21.9 -59.89 -21.9 c
-24.75 0 -44.71 7.33 -59.88 21.98 c
-15.17 14.66 -22.76 32.94 -22.76 54.84 c
0 16.31 4.14 29.97 12.41 40.98 c
8.27 11.01 20.05 18.51 35.33 22.5 c
h
869.78 2739.21 m
0 -11.86 3.82 -21.56 11.46 -29.09 c
7.64 -7.53 17.57 -11.29 29.77 -11.29 c
11.86 0 21.59 3.73 29.17 11.21 c
7.59 7.47 11.38 16.63 11.38 27.46 c
0 11.29 -3.91 20.79 -11.72 28.49 c
-7.82 7.7 -17.54 11.55 -29.17 11.55 c
-11.75 0 -21.5 -3.76 -29.26 -11.29 c
-7.76 -7.53 -11.64 -16.54 -11.64 -27.03 c
h
859.86 2623.38 m
0 -8.79 2.08 -17.28 6.24 -25.5 c
4.16 -8.21 10.35 -14.57 18.57 -19.07 c
8.21 -4.51 17.05 -6.76 26.52 -6.76 c
14.71 0 26.86 4.73 36.45 14.2 c
9.58 9.46 14.37 21.5 14.37 36.1 c
0 14.83 -4.93 27.09 -14.8 36.79 c
-9.87 9.7 -22.21 14.54 -37.04 14.54 c
-14.49 0 -26.49 -4.79 -36.02 -14.37 c
-9.52 -9.58 -14.29 -21.56 -14.29 -35.93 c
f
833.16 2873 m
29.6 2.74 0 0 29.6 2.74 c
2.51 -13.91 7.3 -24.01 14.38 -30.28 c
7.07 -6.28 16.14 -9.41 27.2 -9.41 c
9.46 0 17.77 2.16 24.89 6.5 c
7.13 4.33 12.97 10.13 17.54 17.37 c
4.57 7.24 8.39 17.02 11.46 29.34 c
3.08 12.32 4.62 24.86 4.62 37.64 c
0 1.37 -0.06 3.42 -0.17 6.16 c
-6.16 -9.81 -14.57 -17.77 -25.24 -23.87 c
-10.66 -6.1 -22.21 -9.15 -34.64 -9.15 c
-20.76 0 -38.33 7.53 -52.7 22.59 c
-14.37 15.05 -21.56 34.9 -21.56 59.54 c
0 25.44 7.5 45.91 22.5 61.43 c
15 15.51 33.79 23.27 56.38 23.27 c
16.31 0 31.23 -4.39 44.74 -13.18 c
13.52 -8.78 23.79 -21.3 30.8 -37.55 c
7.02 -16.25 10.52 -39.78 10.52 -70.58 c
0 -32.05 -3.48 -57.57 -10.44 -76.57 c
-6.96 -18.99 -17.31 -33.45 -31.05 -43.37 c
-13.74 -9.93 -29.86 -14.89 -48.33 -14.89 c
-19.62 0 -35.64 5.45 -48.08 16.34 c
-12.43 10.89 -19.91 26.21 -22.41 45.94 c
h
959.26 2983.7 m
0 17.68 -4.71 31.71 -14.12 42.09 c
-9.41 10.38 -20.73 15.57 -33.96 15.57 c
-13.69 0 -25.61 -5.59 -35.76 -16.77 c
-10.15 -11.18 -15.23 -25.66 -15.23 -43.46 c
0 -15.97 4.82 -28.95 14.46 -38.93 c
9.64 -9.98 21.53 -14.97 35.68 -14.97 c
14.26 0 25.98 4.99 35.16 14.97 c
9.18 9.98 13.77 23.81 13.77 41.49 c
f
749.55 3082 m
-30.8 0 0 0 -30.8 0 c
0 196.25 0 0 0 196.25 c
-7.41 -7.07 -17.14 -14.14 -29.17 -21.21 c
-12.04 -7.07 -22.84 -12.37 -32.42 -15.91 c
0 29.77 0 0 0 29.77 c
17.22 8.1 32.28 17.91 45.17 29.43 c
12.89 11.52 22.02 22.7 27.38 33.54 c
19.85 0 0 0 19.85 0 c
0 -251.86 0 0 0 -251.86 c
f
828.54 3205.7 m
0 29.66 3.05 53.52 9.15 71.61 c
6.11 18.08 15.17 32.02 27.21 41.83 c
12.03 9.81 27.18 14.71 45.43 14.71 c
13.46 0 25.27 -2.71 35.42 -8.13 c
10.15 -5.42 18.54 -13.23 25.15 -23.44 c
6.62 -10.21 11.81 -22.64 15.57 -37.3 c
3.77 -14.66 5.65 -34.42 5.65 -59.29 c
0 -29.43 -3.02 -53.18 -9.07 -71.26 c
-6.04 -18.08 -15.09 -32.05 -27.12 -41.92 c
-12.04 -9.87 -27.23 -14.8 -45.6 -14.8 c
-24.18 0 -43.17 8.67 -56.98 26.01 c
-16.54 20.87 -24.81 54.86 -24.81 101.97 c
h
860.2 3205.7 m
0 -41.18 4.82 -68.58 14.46 -82.21 c
9.64 -13.63 21.53 -20.45 35.68 -20.45 c
14.14 0 26.04 6.84 35.67 20.53 c
9.64 13.69 14.46 41.06 14.46 82.13 c
0 41.29 -4.82 68.72 -14.46 82.3 c
-9.64 13.57 -21.64 20.36 -36.02 20.36 c
-14.14 0 -25.44 -5.99 -33.87 -17.96 c
-10.61 -15.28 -15.91 -43.52 -15.91 -84.69 c
f
749.55 3346 m
-30.8 0 0 0 -30.8 0 c
0 196.25 0 0 0 196.25 c
-7.41 -7.07 -17.14 -14.14 -29.17 -21.21 c
-12.04 -7.07 -22.84 -12.37 -32.42 -15.91 c
0 29.77 0 0 0 29.77 c
17.22 8.1 32.28 17.91 45.17 29.43 c
12.89 11.52 22.02 22.7 27.38 33.54 c
19.85 0 0 0 19.85 0 c
0 -251.86 0 0 0 -251.86 c
f
944.55 3346 m
-30.8 0 0 0 -30.8 0 c
0 196.25 0 0 0 196.25 c
-7.41 -7.07 -17.14 -14.14 -29.17 -21.21 c
-12.04 -7.07 -22.84 -12.37 -32.42 -15.91 c
0 29.77 0 0 0 29.77 c
17.22 8.1 32.28 17.91 45.17 29.43 c
12.89 11.52 22.02 22.7 27.38 33.54 c
19.85 0 0 0 19.85 0 c
0 -251.86 0 0 0 -251.86 c
f
749.55 3612 m
-30.8 0 0 0 -30.8 0 c
0 196.25 0 0 0 196.25 c
-7.41 -7.07 -17.14 -14.14 -29.17 -21.21 c
-12.04 -7.07 -22.84 -12.37 -32.42 -15.91 c
0 29.77 0 0 0 29.77 c
17.22 8.1 32.28 17.91 45.17 29.43 c
12.89 11.52 22.02 22.7 27.38 33.54 c
19.85 0 0 0 19.85 0 c
0 -251.86 0 0 0 -251.86 c
f
990.4 3641.6 m
0 -29.6 0 0 0 -29.6 c
-165.79 0 0 0 -165.79 0 c
-0.23 7.41 0.97 14.54 3.59 21.39 c
4.22 11.29 10.98 22.41 20.28 33.36 c
9.3 10.95 22.73 23.61 40.29 37.98 c
27.26 22.36 45.68 40.07 55.27 53.13 c
9.58 13.06 14.37 25.41 14.37 37.04 c
0 12.2 -4.36 22.5 -13.09 30.88 c
-8.73 8.38 -20.1 12.57 -34.13 12.57 c
-14.83 0 -26.69 -4.45 -35.59 -13.34 c
-8.89 -8.9 -13.4 -21.21 -13.52 -36.96 c
-31.65 3.25 0 0 -31.65 3.25 c
2.17 23.61 10.32 41.61 24.46 53.98 c
14.14 12.38 33.14 18.57 56.98 18.57 c
24.07 0 43.12 -6.68 57.15 -20.02 c
14.03 -13.34 21.04 -29.89 21.04 -49.62 c
0 -10.04 -2.05 -19.91 -6.16 -29.6 c
-4.11 -9.7 -10.92 -19.9 -20.45 -30.62 c
-9.52 -10.72 -25.35 -25.44 -47.48 -44.14 c
-18.48 -15.51 -30.34 -26.04 -35.59 -31.57 c
-5.25 -5.53 -9.58 -11.09 -13 -16.68 c
123.02 0 0 0 123.02 0 c
f
749.55 3876 m
-30.8 0 0 0 -30.8 0 c
0 196.25 0 0 0 196.25 c
-7.41 -7.07 -17.14 -14.14 -29.17 -21.21 c
-12.04 -7.07 -22.84 -12.37 -32.42 -15.91 c
0 29.77 0 0 0 29.77 c
17.22 8.1 32.28 17.91 45.17 29.43 c
12.89 11.52 22.02 22.7 27.38 33.54 c
19.85 0 0 0 19.85 0 c
0 -251.86 0 0 0 -251.86 c
f
828.71 3942.21 m
30.8 4.11 0 0 30.8 4.11 c
3.54 -17.45 9.55 -30.03 18.05 -37.73 c
8.5 -7.7 18.85 -11.55 31.05 -11.55 c
14.49 0 26.72 5.02 36.7 15.05 c
9.98 10.04 14.97 22.47 14.97 37.3 c
0 14.14 -4.62 25.8 -13.86 34.99 c
-9.24 9.18 -20.99 13.77 -35.25 13.77 c
-5.82 0 -13.06 -1.14 -21.73 -3.42 c
3.42 27.03 0 0 3.42 27.03 c
2.05 -0.23 3.71 -0.34 4.96 -0.34 c
13.12 0 24.93 3.42 35.42 10.27 c
10.5 6.84 15.74 17.39 15.74 31.65 c
0 11.29 -3.82 20.64 -11.46 28.06 c
-7.64 7.41 -17.51 11.12 -29.6 11.12 c
-11.98 0 -21.96 -3.76 -29.94 -11.29 c
-7.99 -7.53 -13.12 -18.82 -15.4 -33.87 c
-30.8 5.47 0 0 -30.8 5.47 c
3.77 20.65 12.32 36.64 25.66 48 c
13.35 11.35 29.95 17.02 49.79 17.02 c
13.69 0 26.29 -2.94 37.81 -8.81 c
11.52 -5.87 20.33 -13.89 26.44 -24.04 c
6.1 -10.15 9.15 -20.93 9.15 -32.34 c
0 -10.84 -2.91 -20.7 -8.73 -29.6 c
-5.82 -8.9 -14.43 -15.97 -25.84 -21.21 c
14.83 -3.42 26.35 -10.52 34.56 -21.3 c
8.21 -10.78 12.32 -24.27 12.32 -40.46 c
0 -21.9 -7.98 -40.46 -23.95 -55.69 c
-15.97 -15.23 -36.16 -22.84 -60.57 -22.84 c
-22.02 0 -40.29 6.56 -54.84 19.68 c
-14.54 13.12 -22.84 30.11 -24.89 50.99 c
f
749.55 4142 m
-30.8 0 0 0 -30.8 0 c
0 196.25 0 0 0 196.25 c
-7.41 -7.07 -17.14 -14.15 -29.17 -21.22 c
-12.04 -7.07 -22.84 -12.37 -32.42 -15.91 c
0 29.77 0 0 0 29.77 c
17.22 8.1 32.28 17.91 45.17 29.43 c
12.89 11.52 22.02 22.7 27.38 33.54 c
19.85 0 0 0 19.85 0 c
0 -251.86 0 0 0 -251.86 c
f
927.27 4142 m
0 60.05 0 0 0 60.05 c
-108.82 0 0 0 -108.82 0 c
0 28.23 0 0 0 28.23 c
114.46 162.54 0 0 114.46 162.54 c
25.15 0 0 0 25.15 0 c
0 -162.54 0 0 0 -162.54 c
33.88 0 0 0 33.88 0 c
0 -28.23 0 0 0 -28.23 c
-33.88 0 0 0 -33.88 0 c
0 -60.05 0 0 0 -60.05 c
-30.8 0 0 0 -30.8 0 c
h
927.27 4230.29 m
0 113.1 0 0 0 113.1 c
-78.53 -113.1 0 0 -78.53 -113.1 c
78.53 0 0 0 78.53 0 c
f
749.55 4406 m
-30.8 0 0 0 -30.8 0 c
0 196.25 0 0 0 196.25 c
-7.41 -7.07 -17.14 -14.15 -29.17 -21.22 c
-12.04 -7.07 -22.84 -12.37 -32.42 -15.91 c
0 29.77 0 0 0 29.77 c
17.22 8.1 32.28 17.91 45.17 29.43 c
12.89 11.52 22.02 22.7 27.38 33.54 c
19.85 0 0 0 19.85 0 c
0 -251.86 0 0 0 -251.86 c
f
828.54 4471.7 m
32.34 2.73 0 0 32.34 2.73 c
2.4 -15.74 7.96 -27.57 16.68 -35.5 c
8.73 -7.93 19.25 -11.89 31.57 -11.89 c
14.83 0 27.38 5.59 37.64 16.77 c
10.27 11.18 15.4 26.01 15.4 44.48 c
0 17.57 -4.93 31.43 -14.8 41.58 c
-9.87 10.15 -22.79 15.23 -38.75 15.23 c
-9.93 0 -18.88 -2.25 -26.86 -6.76 c
-7.98 -4.5 -14.26 -10.35 -18.82 -17.54 c
-28.91 3.77 0 0 -28.91 3.77 c
24.29 128.84 0 0 24.29 128.84 c
124.73 0 0 0 124.73 0 c
0 -29.43 0 0 0 -29.43 c
-100.09 0 0 0 -100.09 0 c
-13.52 -67.41 0 0 -13.52 -67.41 c
15.06 10.49 30.86 15.74 47.39 15.74 c
21.9 0 40.38 -7.58 55.44 -22.75 c
15.05 -15.17 22.59 -34.68 22.59 -58.52 c
0 -22.7 -6.62 -42.32 -19.85 -58.86 c
-16.09 -20.3 -38.04 -30.46 -65.87 -30.46 c
-22.81 0 -41.43 6.39 -55.86 19.16 c
-14.43 12.77 -22.67 29.71 -24.72 50.82 c
f
749.55 4673 m
-30.8 0 0 0 -30.8 0 c
0 196.25 0 0 0 196.25 c
-7.41 -7.07 -17.14 -14.15 -29.17 -21.22 c
-12.04 -7.07 -22.84 -12.37 -32.42 -15.91 c
0 29.77 0 0 0 29.77 c
17.22 8.1 32.28 17.91 45.17 29.43 c
12.89 11.52 22.02 22.7 27.38 33.54 c
19.85 0 0 0 19.85 0 c
0 -251.86 0 0 0 -251.86 c
f
988.35 4862.4 m
-30.62 -2.39 0 0 -30.62 -2.39 c
-2.74 12.09 -6.62 20.88 -11.64 26.35 c
-8.32 8.78 -18.59 13.17 -30.8 13.17 c
-9.81 0 -18.42 -2.74 -25.84 -8.21 c
-9.7 -7.07 -17.34 -17.39 -22.93 -30.97 c
-5.59 -13.57 -8.5 -32.91 -8.73 -58 c
7.41 11.29 16.48 19.68 27.2 25.15 c
10.72 5.48 21.96 8.21 33.71 8.21 c
20.53 0 38.01 -7.56 52.44 -22.67 c
14.43 -15.11 21.64 -34.65 21.64 -58.6 c
0 -15.74 -3.39 -30.37 -10.18 -43.89 c
-6.79 -13.52 -16.11 -23.87 -27.98 -31.05 c
-11.86 -7.18 -25.32 -10.78 -40.38 -10.78 c
-25.66 0 -46.59 9.44 -62.79 28.32 c
-16.2 18.88 -24.29 49.99 -24.29 93.33 c
0 48.48 8.95 83.72 26.86 105.74 c
15.63 19.16 36.67 28.75 63.14 28.75 c
19.73 0 35.9 -5.53 48.5 -16.6 c
12.61 -11.07 20.16 -26.35 22.67 -45.86 c
h
862.59 4754.27 m
0 -10.61 2.25 -20.76 6.76 -30.45 c
4.5 -9.7 10.8 -17.08 18.91 -22.16 c
8.1 -5.08 16.59 -7.61 25.49 -7.61 c
13 0 24.18 5.25 33.54 15.74 c
9.35 10.5 14.03 24.75 14.03 42.77 c
0 17.34 -4.62 31 -13.86 40.98 c
-9.24 9.98 -20.87 14.97 -34.91 14.97 c
-13.91 0 -25.72 -4.99 -35.41 -14.97 c
-9.7 -9.98 -14.55 -23.07 -14.55 -39.27 c
f
749.55 4937 m
-30.8 0 0 0 -30.8 0 c
0 196.25 0 0 0 196.25 c
-7.41 -7.07 -17.14 -14.15 -29.17 -21.22 c
-12.04 -7.07 -22.84 -12.37 -32.42 -15.91 c
0 29.77 0 0 0 29.77 c
17.22 8.1 32.28 17.91 45.17 29.43 c
12.89 11.52 22.02 22.7 27.38 33.54 c
19.85 0 0 0 19.85 0 c
0 -251.86 0 0 0 -251.86 c
f
830.6 5154.98 m
0 29.6 0 0 0 29.6 c
162.37 0 0 0 162.37 0 c
0 -23.95 0 0 0 -23.95 c
-15.97 -17 -31.8 -39.58 -47.48 -67.75 c
-15.68 -28.18 -27.8 -57.15 -36.36 -86.92 c
-6.16 -20.99 -10.09 -43.97 -11.8 -68.95 c
-31.65 0 0 0 -31.65 0 c
0.34 19.73 4.22 43.57 11.63 71.52 c
7.41 27.95 18.05 54.89 31.91 80.84 c
13.86 25.95 28.6 47.82 44.23 65.61 c
-122.85 0 0 0 -122.85 0 c
f
16.8003 w
1 J
1 j
q 1 -0.999998 scale
1080.02 -801.61 0 0 S
Q
q 1 -0.999998 scale
1816.83 -801.61 0 0 S
Q
q 1 -0.999998 scale
2551.25 -801.61 0 0 S
Q
q 1 -0.999998 scale
3288.06 -801.61 0 0 S
Q
q 1 -0.999998 scale
4024.88 -801.61 0 0 S
Q
q 1 -0.999998 scale
4759.29 -801.61 0 0 S
Q
q 1 -0.999998 scale
5496.1 -801.61 0 0 S
Q
q 1 -0.999998 scale
1080.02 -801.61 4416.08 0 S
Q
q 1 -0.999998 scale
1080.02 -5042.49 4416.08 0 S
Q
q 1 -0.999998 scale
1080.02 -801.61 0 0 S
Q
q 1 -0.999998 scale
1080.02 -933.62 0 0 S
Q
q 1 -0.999998 scale
1080.02 -1065.62 0 0 S
Q
q 1 -0.999998 scale
1080.02 -1200.02 0 0 S
Q
q 1 -0.999998 scale
1080.02 -1332.03 0 0 S
Q
q 1 -0.999998 scale
1080.02 -1464.03 0 0 S
Q
q 1 -0.999998 scale
1080.02 -1596.03 0 0 S
Q
q 1 -0.999998 scale
1080.02 -1730.43 0 0 S
Q
q 1 -0.999998 scale
1080.02 -1862.43 0 0 S
Q
q 1 -0.999998 scale
1080.02 -1994.44 0 0 S
Q
q 1 -0.999998 scale
1080.02 -2126.44 0 0 S
Q
q 1 -0.999998 scale
1080.02 -2258.44 0 0 S
Q
q 1 -0.999998 scale
1080.02 -2392.84 0 0 S
Q
q 1 -0.999998 scale
1080.02 -2524.85 0 0 S
Q
q 1 -0.999998 scale
1080.02 -2656.85 0 0 S
Q
q 1 -0.999998 scale
1080.02 -2788.85 0 0 S
Q
q 1 -0.999998 scale
1080.02 -2920.85 0 0 S
Q
q 1 -0.999998 scale
1080.02 -3055.26 0 0 S
Q
q 1 -0.999998 scale
1080.02 -3187.26 0 0 S
Q
q 1 -0.999998 scale
1080.02 -3319.26 0 0 S
Q
q 1 -0.999998 scale
1080.02 -3451.26 0 0 S
Q
q 1 -0.999998 scale
1080.02 -3585.67 0 0 S
Q
q 1 -0.999998 scale
1080.02 -3717.67 0 0 S
Q
q 1 -0.999998 scale
1080.02 -3849.67 0 0 S
Q
q 1 -0.999998 scale
1080.02 -3981.68 0 0 S
Q
q 1 -0.999998 scale
1080.02 -4113.68 0 0 S
Q
q 1 -0.999998 scale
1080.02 -4248.08 0 0 S
Q
q 1 -0.999998 scale
1080.02 -4380.08 0 0 S
Q
q 1 -0.999998 scale
1080.02 -4512.08 0 0 S
Q
q 1 -0.999998 scale
1080.02 -4644.09 0 0 S
Q
q 1 -0.999998 scale
1080.02 -4778.49 0 0 S
Q
q 1 -0.999998 scale
1080.02 -4910.49 0 0 S
Q
q 1 -0.999998 scale
1080.02 -5042.49 0 0 S
Q
q 1 -0.999998 scale
1080.02 -801.61 0 -4240.88 S
Q
q 1 -0.999998 scale
5496.1 -801.61 0 -4240.88 S
Q
2789.74 90.59 m
31.31 2.74 0 0 31.31 2.74 c
1.48 -12.55 4.93 -22.84 10.35 -30.88 c
5.42 -8.04 13.83 -14.54 25.24 -19.5 c
11.41 -4.96 24.24 -7.45 38.5 -7.45 c
12.66 0 23.84 1.88 33.54 5.65 c
9.7 3.76 16.91 8.93 21.64 15.48 c
4.73 6.56 7.1 13.71 7.1 21.47 c
0 7.87 -2.28 14.74 -6.84 20.62 c
-4.57 5.87 -12.09 10.81 -22.59 14.8 c
-6.73 2.63 -21.62 6.7 -44.66 12.23 c
-23.04 5.53 -39.18 10.75 -48.42 15.66 c
-11.98 6.27 -20.9 14.06 -26.78 23.36 c
-5.87 9.29 -8.81 19.7 -8.81 31.22 c
0 12.66 3.59 24.5 10.78 35.5 c
7.19 11.01 17.68 19.36 31.48 25.07 c
13.8 5.7 29.14 8.55 46.03 8.55 c
18.59 0 34.99 -3 49.19 -8.98 c
14.2 -5.99 25.12 -14.8 32.76 -26.43 c
7.64 -11.63 11.75 -24.81 12.32 -39.52 c
-31.82 -2.39 0 0 -31.82 -2.39 c
-1.71 15.86 -7.5 27.83 -17.37 35.93 c
-9.87 8.1 -24.44 12.15 -43.71 12.15 c
-20.07 0 -34.7 -3.68 -43.89 -11.04 c
-9.18 -7.36 -13.77 -16.23 -13.77 -26.61 c
0 -9.01 3.25 -16.43 9.75 -22.24 c
6.39 -5.82 23.07 -11.78 50.05 -17.88 c
26.98 -6.11 45.48 -11.44 55.52 -16 c
14.6 -6.73 25.38 -15.26 32.34 -25.58 c
6.96 -10.32 10.44 -22.21 10.44 -35.67 c
0 -13.35 -3.82 -25.92 -11.46 -37.73 c
-7.64 -11.8 -18.62 -20.99 -32.94 -27.54 c
-14.32 -6.56 -30.43 -9.84 -48.34 -9.84 c
-22.7 0 -41.72 3.31 -57.06 9.92 c
-15.34 6.62 -27.37 16.57 -36.1 29.86 c
-8.73 13.29 -13.32 28.32 -13.77 45.08 c
f
3063.63 10 m
-55.61 181.7 0 0 -55.61 181.7 c
31.82 0 0 0 31.82 0 c
28.91 -104.88 0 0 28.91 -104.88 c
10.78 -39.01 0 0 10.78 -39.01 c
0.46 1.94 3.59 14.43 9.41 37.47 c
28.91 106.42 0 0 28.91 106.42 c
31.65 0 0 0 31.65 0 c
27.21 -105.39 0 0 27.21 -105.39 c
9.07 -34.73 0 0 9.07 -34.73 c
10.44 35.07 0 0 10.44 35.07 c
31.14 105.05 0 0 31.14 105.05 c
29.94 0 0 0 29.94 0 c
-56.8 -181.7 0 0 -56.8 -181.7 c
-32 0 0 0 -32 0 c
-28.91 108.82 0 0 -28.91 108.82 c
-7.02 30.97 0 0 -7.02 30.97 c
-36.79 -139.79 0 0 -36.79 -139.79 c
-32.17 0 0 0 -32.17 0 c
f
3282.27 225.41 m
0 35.42 0 0 0 35.42 c
30.8 0 0 0 30.8 0 c
0 -35.42 0 0 0 -35.42 c
-30.8 0 0 0 -30.8 0 c
h
3282.27 10 m
0 181.7 0 0 0 181.7 c
30.8 0 0 0 30.8 0 c
0 -181.7 0 0 0 -181.7 c
-30.8 0 0 0 -30.8 0 c
f
3426.34 37.55 m
4.45 -27.2 0 0 4.45 -27.2 c
-8.67 -1.83 -16.43 -2.74 -23.27 -2.74 c
-11.18 0 -19.85 1.77 -26.01 5.3 c
-6.16 3.54 -10.49 8.18 -13 13.94 c
-2.51 5.76 -3.76 17.88 -3.76 36.36 c
0 104.54 0 0 0 104.54 c
-22.59 0 0 0 -22.59 0 c
0 23.95 0 0 0 23.95 c
22.59 0 0 0 22.59 0 c
0 45 0 0 0 45 c
30.63 18.48 0 0 30.63 18.48 c
0 -63.48 0 0 0 -63.48 c
30.97 0 0 0 30.97 0 c
0 -23.95 0 0 0 -23.95 c
-30.97 0 0 0 -30.97 0 c
0 -106.25 0 0 0 -106.25 c
0 -8.78 0.54 -14.43 1.63 -16.94 c
1.08 -2.51 2.85 -4.51 5.3 -5.99 c
2.45 -1.48 5.96 -2.23 10.52 -2.23 c
3.42 0 7.93 0.4 13.52 1.2 c
f
3575.67 76.55 m
30.29 -3.93 0 0 30.29 -3.93 c
-3.31 -20.87 -11.78 -37.21 -25.41 -49.02 c
-13.63 -11.8 -30.37 -17.71 -50.21 -17.71 c
-24.87 0 -44.86 8.13 -59.97 24.38 c
-15.11 16.25 -22.67 39.55 -22.67 69.89 c
0 19.62 3.25 36.79 9.75 51.5 c
6.5 14.71 16.39 25.75 29.68 33.11 c
13.29 7.36 27.75 11.04 43.38 11.04 c
19.73 0 35.87 -4.99 48.42 -14.97 c
12.55 -9.98 20.59 -24.15 24.13 -42.52 c
-29.94 -4.62 0 0 -29.94 -4.62 c
-2.85 12.2 -7.9 21.39 -15.14 27.55 c
-7.24 6.16 -16 9.24 -26.27 9.24 c
-15.51 0 -28.11 -5.56 -37.81 -16.68 c
-9.7 -11.12 -14.54 -28.72 -14.54 -52.79 c
0 -24.41 4.68 -42.14 14.03 -53.21 c
9.36 -11.07 21.56 -16.6 36.61 -16.6 c
12.09 0 22.19 3.71 30.29 11.12 c
8.1 7.41 13.23 18.82 15.4 34.22 c
f
3633.1 10 m
0 250.83 0 0 0 250.83 c
30.8 0 0 0 30.8 0 c
0 -90 0 0 0 -90 c
14.38 16.65 32.51 24.98 54.41 24.98 c
13.46 0 25.15 -2.65 35.07 -7.96 c
9.93 -5.3 17.02 -12.63 21.3 -21.99 c
4.28 -9.35 6.42 -22.93 6.42 -40.72 c
0 -115.15 0 0 0 -115.15 c
-30.8 0 0 0 -30.8 0 c
0 115.15 0 0 0 115.15 c
0 15.4 -3.34 26.61 -10.01 33.62 c
-6.67 7.02 -16.11 10.52 -28.32 10.52 c
-9.12 0 -17.71 -2.36 -25.75 -7.1 c
-8.04 -4.73 -13.77 -11.15 -17.2 -19.25 c
-3.42 -8.1 -5.13 -19.28 -5.13 -33.54 c
0 -99.41 0 0 0 -99.41 c
-30.8 0 0 0 -30.8 0 c
f
298.05 1944 m
8.39 33.19 0 0 8.39 33.19 c
27.26 -6.96 48.05 -19.47 62.36 -37.55 c
14.32 -18.08 21.47 -40.18 21.47 -66.3 c
0 -27.03 -5.5 -49.02 -16.51 -65.96 c
-11 -16.94 -26.95 -29.83 -47.82 -38.67 c
-20.87 -8.84 -43.29 -13.26 -67.24 -13.26 c
-26.12 0 -48.9 4.99 -68.35 14.97 c
-19.45 9.98 -34.22 24.18 -44.32 42.61 c
-10.09 18.42 -15.14 38.7 -15.14 60.82 c
0 25.09 6.39 46.2 19.16 63.3 c
12.77 17.11 30.74 29.03 53.89 35.76 c
7.7 -32.68 0 0 7.7 -32.68 c
-18.25 -5.82 -31.54 -14.25 -39.87 -25.32 c
-8.33 -11.07 -12.49 -24.98 -12.49 -41.75 c
0 -19.28 4.62 -35.39 13.86 -48.34 c
9.24 -12.95 21.64 -22.04 37.21 -27.29 c
15.57 -5.25 31.63 -7.87 48.16 -7.87 c
21.33 0 39.95 3.11 55.86 9.32 c
15.91 6.21 27.8 15.88 35.68 29 c
7.87 13.12 11.8 27.32 11.8 42.61 c
0 18.59 -5.36 34.33 -16.08 47.22 c
-10.72 12.89 -26.64 21.61 -47.74 26.18 c
f
386 2012.41 m
-250.83 0 0 0 -250.83 0 c
0 30.8 0 0 0 30.8 c
250.83 0 0 0 250.83 0 c
0 -30.8 0 0 0 -30.8 c
f
386 2208.18 m
-26.69 0 0 0 -26.69 0 c
20.53 -14.14 30.8 -33.36 30.8 -57.66 c
0 -10.72 -2.05 -20.73 -6.16 -30.03 c
-4.11 -9.3 -9.27 -16.2 -15.48 -20.7 c
-6.21 -4.51 -13.83 -7.67 -22.84 -9.5 c
-6.04 -1.25 -15.62 -1.88 -28.75 -1.88 c
-112.58 0 0 0 -112.58 0 c
0 30.8 0 0 0 30.8 c
100.78 0 0 0 100.78 0 c
16.08 0 26.92 0.63 32.51 1.88 c
8.1 1.94 14.46 6.04 19.08 12.32 c
4.62 6.28 6.93 14.03 6.93 23.27 c
0 9.24 -2.37 17.91 -7.1 26.01 c
-4.73 8.1 -11.18 13.83 -19.33 17.2 c
-8.16 3.37 -19.99 5.05 -35.5 5.05 c
-97.36 0 0 0 -97.36 0 c
0 30.8 0 0 0 30.8 c
181.71 0 0 0 181.71 0 c
0 -27.55 0 0 0 -27.55 c
f
331.76 2271.78 m
-4.79 30.46 0 0 -4.79 30.46 c
12.2 1.71 21.56 6.47 28.06 14.29 c
6.5 7.82 9.75 18.74 9.75 32.77 c
0 14.14 -2.88 24.64 -8.64 31.48 c
-5.76 6.84 -12.52 10.27 -20.28 10.27 c
-6.96 0 -12.43 -3.02 -16.43 -9.07 c
-2.73 -4.22 -6.21 -14.71 -10.43 -31.48 c
-5.7 -22.59 -10.64 -38.24 -14.8 -46.97 c
-4.16 -8.72 -9.93 -15.34 -17.28 -19.84 c
-7.36 -4.51 -15.48 -6.76 -24.38 -6.76 c
-8.1 0 -15.6 1.86 -22.5 5.56 c
-6.9 3.71 -12.63 8.75 -17.19 15.14 c
-3.54 4.79 -6.53 11.32 -8.98 19.59 c
-2.45 8.27 -3.68 17.14 -3.68 26.61 c
0 14.25 2.05 26.77 6.16 37.55 c
4.11 10.78 9.67 18.73 16.68 23.87 c
7.01 5.13 16.39 8.67 28.14 10.61 c
4.11 -30.11 0 0 4.11 -30.11 c
-9.35 -1.37 -16.65 -5.34 -21.9 -11.89 c
-5.25 -6.56 -7.87 -15.83 -7.87 -27.8 c
0 -14.14 2.34 -24.24 7.02 -30.29 c
4.68 -6.04 10.15 -9.07 16.42 -9.07 c
3.99 0 7.59 1.25 10.78 3.76 c
3.31 2.51 6.04 6.45 8.21 11.81 c
1.14 3.08 3.77 12.15 7.87 27.2 c
5.82 21.79 10.58 36.98 14.29 45.6 c
3.71 8.61 9.09 15.37 16.17 20.27 c
7.07 4.91 15.86 7.36 26.35 7.36 c
10.27 0 19.93 -3 29 -8.98 c
9.07 -5.99 16.09 -14.63 21.05 -25.92 c
4.96 -11.29 7.44 -24.07 7.44 -38.32 c
0 -23.61 -4.91 -41.61 -14.71 -53.98 c
-9.81 -12.37 -24.35 -20.28 -43.63 -23.7 c
f
358.45 2526.34 m
27.2 4.45 0 0 27.2 4.45 c
1.83 -8.67 2.74 -16.43 2.74 -23.27 c
0 -11.18 -1.77 -19.85 -5.3 -26.01 c
-3.54 -6.16 -8.18 -10.49 -13.94 -13 c
-5.76 -2.51 -17.88 -3.76 -36.36 -3.76 c
-104.54 0 0 0 -104.54 0 c
0 -22.59 0 0 0 -22.59 c
-23.96 0 0 0 -23.96 0 c
0 22.59 0 0 0 22.59 c
-45 0 0 0 -45 0 c
-18.48 30.63 0 0 -18.48 30.63 c
63.48 0 0 0 63.48 0 c
0 30.97 0 0 0 30.97 c
23.96 0 0 0 23.96 0 c
0 -30.97 0 0 0 -30.97 c
106.25 0 0 0 106.25 0 c
8.78 0 14.43 0.54 16.94 1.63 c
2.51 1.08 4.5 2.85 5.99 5.3 c
1.48 2.45 2.23 5.96 2.23 10.52 c
0 3.42 -0.4 7.93 -1.2 13.52 c
f
327.48 2681.48 m
3.94 31.82 0 0 3.94 31.82 c
18.59 -5.02 33.02 -14.32 43.29 -27.89 c
10.27 -13.57 15.4 -30.91 15.4 -52.02 c
0 -26.57 -8.18 -47.65 -24.55 -63.22 c
-16.37 -15.57 -39.32 -23.36 -68.87 -23.36 c
-30.57 0 -54.29 7.87 -71.18 23.61 c
-16.88 15.74 -25.32 36.16 -25.32 61.25 c
0 24.3 8.27 44.14 24.81 59.54 c
16.54 15.4 39.81 23.1 69.81 23.1 c
1.82 0 4.56 -0.05 8.21 -0.17 c
0 -135.51 0 0 0 -135.51 c
19.96 1.14 35.25 6.79 45.85 16.94 c
10.61 10.15 15.91 22.81 15.91 37.98 c
0 11.29 -2.96 20.93 -8.9 28.91 c
-5.93 7.99 -15.4 14.32 -28.4 18.99 c
h
277.7 2580.37 m
0 101.46 0 0 0 101.46 c
-15.29 -1.37 -26.75 -5.25 -34.39 -11.64 c
-11.86 -9.81 -17.79 -22.53 -17.79 -38.15 c
0 -14.14 4.73 -26.04 14.2 -35.68 c
9.47 -9.64 22.13 -14.97 37.98 -16 c
f
386 2751.75 m
-181.71 0 0 0 -181.71 0 c
0 27.72 0 0 0 27.72 c
27.55 0 0 0 27.55 0 c
-12.89 7.07 -21.39 13.6 -25.49 19.59 c
-4.11 5.99 -6.16 12.58 -6.16 19.76 c
0 10.38 3.31 20.93 9.93 31.66 c
28.57 -10.61 0 0 28.57 -10.61 c
-4.45 -7.53 -6.67 -15.06 -6.67 -22.59 c
0 -6.73 2.02 -12.77 6.07 -18.14 c
4.05 -5.36 9.67 -9.18 16.86 -11.46 c
10.95 -3.42 22.93 -5.13 35.93 -5.13 c
95.13 0 0 0 95.13 0 c
0 -30.8 0 0 0 -30.8 c
f
459.74 3026.96 m
-21.44 -17 -46.54 -31.37 -75.28 -43.12 c
-28.75 -11.75 -58.52 -17.62 -89.31 -17.62 c
-27.15 0 -53.16 4.39 -78.02 13.18 c
-28.86 10.27 -57.61 26.12 -86.23 47.57 c
0 22.07 0 0 0 22.07 c
23.73 -13.8 40.66 -22.93 50.82 -27.37 c
15.74 -6.96 32.16 -12.43 49.27 -16.43 c
21.33 -4.91 42.78 -7.36 64.34 -7.36 c
54.86 0 109.67 17.05 164.42 51.16 c
0 -22.07 0 0 0 -22.07 c
f
386 3089.72 m
-250.83 0 0 0 -250.83 0 c
0 181.36 0 0 0 181.36 c
29.6 0 0 0 29.6 0 c
0 -148.17 0 0 0 -148.17 c
76.82 0 0 0 76.82 0 c
0 138.76 0 0 0 138.76 c
29.43 0 0 0 29.43 0 c
0 -138.76 0 0 0 -138.76 c
85.38 0 0 0 85.38 0 c
0 153.99 0 0 0 153.99 c
29.6 0 0 0 29.6 0 c
0 -187.18 0 0 0 -187.18 c
f
386 3322.04 m
-250.83 0 0 0 -250.83 0 c
0 94.61 0 0 0 94.61 c
0 16.65 0.8 29.38 2.39 38.16 c
2.05 12.32 5.96 22.64 11.72 30.97 c
5.76 8.33 13.83 15.03 24.21 20.1 c
10.38 5.08 21.79 7.62 34.22 7.62 c
21.33 0 39.38 -6.79 54.15 -20.36 c
14.77 -13.57 22.16 -38.1 22.16 -73.57 c
0 -64.33 0 0 0 -64.33 c
101.97 0 0 0 101.97 0 c
0 -33.19 0 0 0 -33.19 c
h
254.43 3355.23 m
0 64.84 0 0 0 64.84 c
0 21.45 -3.99 36.67 -11.98 45.68 c
-7.98 9.01 -19.22 13.52 -33.71 13.52 c
-10.49 0 -19.48 -2.65 -26.95 -7.95 c
-7.47 -5.3 -12.41 -12.29 -14.8 -20.96 c
-1.48 -5.59 -2.23 -15.91 -2.23 -30.97 c
0 -64.16 0 0 0 -64.16 c
89.66 0 0 0 89.66 0 c
f
459.74 3571.29 m
0 -22.07 0 0 0 -22.07 c
-54.75 34.11 -109.56 51.16 -164.42 51.16 c
-21.45 0 -42.72 -2.45 -63.82 -7.36 c
-17.11 -3.88 -33.54 -9.29 -49.28 -16.25 c
-10.27 -4.45 -27.37 -13.63 -51.33 -27.55 c
0 22.07 0 0 0 22.07 c
28.63 21.44 57.38 37.3 86.23 47.56 c
24.86 8.78 50.87 13.18 78.02 13.18 c
30.8 0 60.57 -5.9 89.31 -17.71 c
28.74 -11.8 53.84 -26.15 75.28 -43.03 c
f
5868.12 4891.28 792.016 295.207 re
f*
255 G
5868.12 4593.68 792.016 297.605 re
f*
0 128 255 rG
5868.12 4296.07 792.016 297.602 re
f*
0 255 r3
5868.12 3998.47 792.016 297.605 re
f*
0 255 128 rG
5868.12 3700.86 792.016 297.605 re
f*
255 0 r5
5868.12 3403.26 792.016 297.605 re
f*
0 255 r6
5868.12 3105.65 792.016 297.605 re
f*
255 128 0 rG
5868.12 2808.05 792.016 297.605 re
f*
255 0 r3
5868.12 2510.44 792.016 297.605 re
f*
255 G
5868.12 2212.84 792.016 297.605 re
f*
K
6792.15 4896.37 m
0 24.78 2.55 44.73 7.65 59.84 c
5.1 15.11 12.68 26.76 22.73 34.96 c
10.05 8.2 22.71 12.29 37.96 12.29 c
11.25 0 21.11 -2.26 29.6 -6.79 c
8.48 -4.53 15.49 -11.06 21.02 -19.59 c
5.53 -8.53 9.86 -18.92 13.01 -31.17 c
3.14 -12.25 4.71 -28.76 4.71 -49.54 c
0 -24.59 -2.52 -44.44 -7.57 -59.55 c
-5.05 -15.11 -12.61 -26.78 -22.66 -35.03 c
-10.05 -8.25 -22.75 -12.37 -38.1 -12.37 c
-20.21 0 -36.07 7.25 -47.61 21.73 c
-13.82 17.45 -20.73 45.85 -20.73 85.21 c
h
6818.6 4896.37 m
0 -34.41 4.03 -57.3 12.08 -68.7 c
8.05 -11.39 17.99 -17.09 29.81 -17.09 c
11.82 0 21.76 5.72 29.81 17.16 c
8.05 11.44 12.08 34.31 12.08 68.63 c
0 34.5 -4.03 57.43 -12.08 68.77 c
-8.05 11.34 -18.09 17.02 -30.1 17.02 c
-11.82 0 -21.25 -5 -28.31 -15.01 c
-8.86 -12.77 -13.3 -36.36 -13.3 -70.77 c
f
6969.59 4793 m
0 29.31 0 0 0 29.31 c
29.31 0 0 0 29.31 0 c
0 -29.31 0 0 0 -29.31 c
-29.31 0 0 0 -29.31 0 c
f
7037.15 4896.37 m
0 24.78 2.55 44.73 7.65 59.84 c
5.1 15.11 12.68 26.76 22.73 34.96 c
10.05 8.2 22.71 12.29 37.96 12.29 c
11.25 0 21.11 -2.26 29.6 -6.79 c
8.48 -4.53 15.49 -11.06 21.02 -19.59 c
5.53 -8.53 9.86 -18.92 13.01 -31.17 c
3.14 -12.25 4.71 -28.76 4.71 -49.54 c
0 -24.59 -2.52 -44.44 -7.57 -59.55 c
-5.05 -15.11 -12.61 -26.78 -22.66 -35.03 c
-10.05 -8.25 -22.75 -12.37 -38.1 -12.37 c
-20.21 0 -36.07 7.25 -47.61 21.73 c
-13.82 17.45 -20.73 45.85 -20.73 85.21 c
h
7063.6 4896.37 m
0 -34.41 4.03 -57.3 12.08 -68.7 c
8.05 -11.39 17.99 -17.09 29.81 -17.09 c
11.82 0 21.76 5.72 29.81 17.16 c
8.05 11.44 12.08 34.31 12.08 68.63 c
0 34.5 -4.03 57.43 -12.08 68.77 c
-8.05 11.34 -18.09 17.02 -30.1 17.02 c
-11.82 0 -21.25 -5 -28.31 -15.01 c
-8.86 -12.77 -13.3 -36.36 -13.3 -70.77 c
f
7200.15 4896.37 m
0 24.78 2.55 44.73 7.65 59.84 c
5.1 15.11 12.68 26.76 22.73 34.96 c
10.05 8.2 22.71 12.29 37.96 12.29 c
11.25 0 21.11 -2.26 29.6 -6.79 c
8.48 -4.53 15.49 -11.06 21.02 -19.59 c
5.53 -8.53 9.86 -18.92 13.01 -31.17 c
3.14 -12.25 4.71 -28.76 4.71 -49.54 c
0 -24.59 -2.52 -44.44 -7.57 -59.55 c
-5.05 -15.11 -12.61 -26.78 -22.66 -35.03 c
-10.05 -8.25 -22.75 -12.37 -38.1 -12.37 c
-20.21 0 -36.07 7.25 -47.61 21.73 c
-13.82 17.45 -20.73 45.85 -20.73 85.21 c
h
7226.6 4896.37 m
0 -34.41 4.03 -57.3 12.08 -68.7 c
8.05 -11.39 17.99 -17.09 29.81 -17.09 c
11.82 0 21.76 5.72 29.81 17.16 c
8.05 11.44 12.08 34.31 12.08 68.63 c
0 34.5 -4.03 57.43 -12.08 68.77 c
-8.05 11.34 -18.09 17.02 -30.1 17.02 c
-11.82 0 -21.25 -5 -28.31 -15.01 c
-8.86 -12.77 -13.3 -36.36 -13.3 -70.77 c
f
7363.15 4896.37 m
0 24.78 2.55 44.73 7.65 59.84 c
5.1 15.11 12.68 26.76 22.73 34.96 c
10.05 8.2 22.71 12.29 37.96 12.29 c
11.25 0 21.11 -2.26 29.6 -6.79 c
8.48 -4.53 15.49 -11.06 21.02 -19.59 c
5.53 -8.53 9.86 -18.92 13.01 -31.17 c
3.14 -12.25 4.71 -28.76 4.71 -49.54 c
0 -24.59 -2.52 -44.44 -7.57 -59.55 c
-5.05 -15.11 -12.61 -26.78 -22.66 -35.03 c
-10.05 -8.25 -22.75 -12.37 -38.1 -12.37 c
-20.21 0 -36.07 7.25 -47.61 21.73 c
-13.82 17.45 -20.73 45.85 -20.73 85.21 c
h
7389.6 4896.37 m
0 -34.41 4.03 -57.3 12.08 -68.7 c
8.05 -11.39 17.99 -17.09 29.81 -17.09 c
11.82 0 21.76 5.72 29.81 17.16 c
8.05 11.44 12.08 34.31 12.08 68.63 c
0 34.5 -4.03 57.43 -12.08 68.77 c
-8.05 11.34 -18.09 17.02 -30.1 17.02 c
-11.82 0 -21.25 -5 -28.31 -15.01 c
-8.86 -12.77 -13.3 -36.36 -13.3 -70.77 c
f
6874.65 4495 m
0 50.18 0 0 0 50.18 c
-90.93 0 0 0 -90.93 0 c
0 23.59 0 0 0 23.59 c
95.65 135.82 0 0 95.65 135.82 c
21.02 0 0 0 21.02 0 c
0 -135.82 0 0 0 -135.82 c
28.31 0 0 0 28.31 0 c
0 -23.59 0 0 0 -23.59 c
-28.31 0 0 0 -28.31 0 c
0 -50.18 0 0 0 -50.18 c
-25.73 0 0 0 -25.73 0 c
h
6874.65 4568.77 m
0 94.5 0 0 0 94.5 c
-65.62 -94.5 0 0 -65.62 -94.5 c
65.63 0 0 0 65.63 0 c
f
6969.59 4495 m
0 29.31 0 0 0 29.31 c
29.31 0 0 0 29.31 0 c
0 -29.31 0 0 0 -29.31 c
-29.31 0 0 0 -29.31 0 c
f
7037.3 4550.33 m
25.73 3.43 0 0 25.73 3.43 c
2.95 -14.58 7.98 -25.09 15.08 -31.53 c
7.1 -6.43 15.75 -9.65 25.95 -9.65 c
12.11 0 22.33 4.19 30.67 12.58 c
8.34 8.39 12.51 18.78 12.51 31.17 c
0 11.82 -3.86 21.56 -11.58 29.24 c
-7.72 7.67 -17.54 11.51 -29.45 11.51 c
-4.86 0 -10.91 -0.95 -18.16 -2.86 c
2.86 22.59 0 0 2.86 22.59 c
1.71 -0.19 3.1 -0.29 4.14 -0.29 c
10.96 0 20.83 2.86 29.6 8.58 c
8.77 5.72 13.15 14.54 13.15 26.45 c
0 9.43 -3.19 17.25 -9.58 23.45 c
-6.39 6.2 -14.63 9.29 -24.73 9.29 c
-10.01 0 -18.35 -3.14 -25.02 -9.43 c
-6.67 -6.29 -10.96 -15.73 -12.87 -28.31 c
-25.73 4.57 0 0 -25.73 4.57 c
3.14 17.25 10.29 30.62 21.45 40.1 c
11.15 9.48 25.02 14.23 41.6 14.23 c
11.44 0 21.97 -2.45 31.6 -7.36 c
9.63 -4.91 16.99 -11.61 22.09 -20.09 c
5.1 -8.48 7.65 -17.49 7.65 -27.02 c
0 -9.05 -2.43 -17.3 -7.29 -24.73 c
-4.86 -7.43 -12.06 -13.34 -21.59 -17.73 c
12.39 -2.86 22.02 -8.79 28.88 -17.8 c
6.86 -9.01 10.29 -20.28 10.29 -33.81 c
0 -18.3 -6.67 -33.81 -20.02 -46.54 c
-13.34 -12.73 -30.21 -19.09 -50.61 -19.09 c
-18.4 0 -33.67 5.48 -45.82 16.45 c
-12.15 10.96 -19.09 25.16 -20.8 42.61 c
f
7201.87 4677.14 m
0 24.73 0 0 0 24.73 c
135.68 0 0 0 135.68 0 c
0 -20.02 0 0 0 -20.02 c
-13.34 -14.2 -26.57 -33.07 -39.67 -56.62 c
-13.11 -23.54 -23.23 -47.75 -30.38 -72.63 c
-5.15 -17.54 -8.43 -36.74 -9.86 -57.62 c
-26.45 0 0 0 -26.45 0 c
0.29 16.49 3.53 36.41 9.72 59.76 c
6.2 23.35 15.09 45.87 26.66 67.55 c
11.58 21.68 23.9 39.96 36.96 54.83 c
-102.66 0 0 0 -102.66 0 c
f
7363.15 4549.9 m
27.02 2.29 0 0 27.02 2.29 c
2 -13.15 6.65 -23.04 13.94 -29.66 c
7.29 -6.62 16.09 -9.94 26.38 -9.94 c
12.39 0 22.88 4.67 31.45 14.01 c
8.58 9.34 12.87 21.73 12.87 37.17 c
0 14.68 -4.12 26.26 -12.37 34.74 c
-8.24 8.48 -19.04 12.72 -32.38 12.72 c
-8.29 0 -15.77 -1.88 -22.45 -5.64 c
-6.67 -3.77 -11.91 -8.65 -15.73 -14.66 c
-24.16 3.14 0 0 -24.16 3.14 c
20.3 107.66 0 0 20.3 107.66 c
104.23 0 0 0 104.23 0 c
0 -24.59 0 0 0 -24.59 c
-83.64 0 0 0 -83.64 0 c
-11.29 -56.33 0 0 -11.29 -56.33 c
12.58 8.77 25.78 13.15 39.6 13.15 c
18.3 0 33.74 -6.34 46.32 -19.02 c
12.58 -12.68 18.87 -28.98 18.87 -48.89 c
0 -18.97 -5.53 -35.36 -16.59 -49.18 c
-13.44 -16.96 -31.79 -25.45 -55.04 -25.45 c
-19.06 0 -34.62 5.34 -46.68 16.01 c
-12.06 10.68 -18.95 24.83 -20.66 42.46 c
f
6831.76 4311.66 m
-10.68 3.91 -18.59 9.48 -23.73 16.73 c
-5.15 7.24 -7.72 15.92 -7.72 26.02 c
0 15.25 5.48 28.07 16.44 38.46 c
10.96 10.39 25.55 15.58 43.75 15.58 c
18.3 0 33.03 -5.31 44.18 -15.94 c
11.15 -10.62 16.73 -23.57 16.73 -38.82 c
0 -9.72 -2.55 -18.18 -7.65 -25.37 c
-5.1 -7.2 -12.84 -12.75 -23.23 -16.66 c
12.87 -4.2 22.66 -10.96 29.38 -20.3 c
6.72 -9.34 10.08 -20.49 10.08 -33.45 c
0 -17.92 -6.34 -32.98 -19.02 -45.18 c
-12.68 -12.2 -29.36 -18.3 -50.04 -18.3 c
-20.68 0 -37.36 6.13 -50.04 18.37 c
-12.68 12.25 -19.02 27.52 -19.02 45.82 c
0 13.63 3.46 25.04 10.36 34.24 c
6.91 9.2 16.75 15.46 29.53 18.8 c
h
6826.61 4355.27 m
0 -9.91 3.19 -18.02 9.58 -24.3 c
6.39 -6.29 14.68 -9.44 24.88 -9.44 c
9.91 0 18.04 3.12 24.38 9.36 c
6.34 6.25 9.51 13.89 9.51 22.95 c
0 9.43 -3.27 17.37 -9.79 23.8 c
-6.53 6.43 -14.66 9.65 -24.38 9.65 c
-9.82 0 -17.96 -3.14 -24.45 -9.43 c
-6.48 -6.29 -9.72 -13.82 -9.72 -22.59 c
h
6818.32 4258.48 m
0 -7.34 1.74 -14.44 5.22 -21.3 c
3.48 -6.86 8.65 -12.18 15.51 -15.94 c
6.86 -3.77 14.25 -5.65 22.16 -5.65 c
12.3 0 22.45 3.96 30.45 11.87 c
8.01 7.91 12.01 17.96 12.01 30.17 c
0 12.39 -4.12 22.63 -12.37 30.74 c
-8.25 8.1 -18.56 12.15 -30.95 12.15 c
-12.11 0 -22.14 -4 -30.1 -12.01 c
-7.96 -8 -11.94 -18.01 -11.94 -30.02 c
f
6969.59 4198 m
0 29.31 0 0 0 29.31 c
29.31 0 0 0 29.31 0 c
0 -29.31 0 0 0 -29.31 c
-29.31 0 0 0 -29.31 0 c
f
7038.87 4380.14 m
0 24.73 0 0 0 24.73 c
135.68 0 0 0 135.68 0 c
0 -20.02 0 0 0 -20.02 c
-13.34 -14.2 -26.57 -33.07 -39.67 -56.62 c
-13.11 -23.54 -23.23 -47.75 -30.38 -72.63 c
-5.15 -17.54 -8.43 -36.74 -9.86 -57.62 c
-26.45 0 0 0 -26.45 0 c
0.29 16.49 3.53 36.41 9.72 59.76 c
6.2 23.35 15.09 45.87 26.66 67.55 c
11.58 21.68 23.9 39.96 36.96 54.83 c
-102.66 0 0 0 -102.66 0 c
f
7200.15 4252.9 m
27.02 2.29 0 0 27.02 2.29 c
2 -13.15 6.65 -23.04 13.94 -29.66 c
7.29 -6.62 16.09 -9.94 26.38 -9.94 c
12.39 0 22.88 4.67 31.45 14.01 c
8.58 9.34 12.87 21.73 12.87 37.17 c
0 14.68 -4.12 26.26 -12.37 34.74 c
-8.24 8.48 -19.04 12.72 -32.38 12.72 c
-8.29 0 -15.77 -1.88 -22.45 -5.64 c
-6.67 -3.77 -11.91 -8.65 -15.73 -14.66 c
-24.16 3.14 0 0 -24.16 3.14 c
20.3 107.66 0 0 20.3 107.66 c
104.23 0 0 0 104.23 0 c
0 -24.59 0 0 0 -24.59 c
-83.64 0 0 0 -83.64 0 c
-11.29 -56.33 0 0 -11.29 -56.33 c
12.58 8.77 25.78 13.15 39.6 13.15 c
18.3 0 33.74 -6.34 46.32 -19.02 c
12.58 -12.68 18.87 -28.98 18.87 -48.89 c
0 -18.97 -5.53 -35.36 -16.59 -49.18 c
-13.44 -16.96 -31.79 -25.45 -55.04 -25.45 c
-19.06 0 -34.62 5.34 -46.68 16.01 c
-12.06 10.68 -18.95 24.83 -20.66 42.46 c
f
7363.15 4301.37 m
0 24.78 2.55 44.73 7.65 59.84 c
5.1 15.11 12.68 26.76 22.73 34.96 c
10.05 8.2 22.71 12.29 37.96 12.29 c
11.25 0 21.11 -2.26 29.6 -6.79 c
8.48 -4.53 15.49 -11.06 21.02 -19.59 c
5.53 -8.53 9.86 -18.92 13.01 -31.17 c
3.14 -12.25 4.71 -28.76 4.71 -49.54 c
0 -24.59 -2.52 -44.44 -7.57 -59.55 c
-5.05 -15.11 -12.61 -26.78 -22.66 -35.03 c
-10.05 -8.25 -22.75 -12.37 -38.1 -12.37 c
-20.21 0 -36.07 7.25 -47.61 21.73 c
-13.82 17.45 -20.73 45.85 -20.73 85.21 c
h
7389.6 4301.37 m
0 -34.41 4.03 -57.3 12.08 -68.7 c
8.05 -11.39 17.99 -17.09 29.81 -17.09 c
11.82 0 21.76 5.72 29.81 17.16 c
8.05 11.44 12.08 34.31 12.08 68.63 c
0 34.5 -4.03 57.43 -12.08 68.77 c
-8.05 11.34 -18.09 17.02 -30.1 17.02 c
-11.82 0 -21.25 -5 -28.31 -15.01 c
-8.86 -12.77 -13.3 -36.36 -13.3 -70.77 c
f
6889.09 3900 m
-25.73 0 0 0 -25.73 0 c
0 163.99 0 0 0 163.99 c
-6.2 -5.91 -14.32 -11.82 -24.37 -17.73 c
-10.05 -5.91 -19.09 -10.34 -27.09 -13.29 c
0 24.88 0 0 0 24.88 c
14.39 6.77 26.97 14.96 37.75 24.59 c
10.77 9.63 18.39 18.97 22.88 28.02 c
16.58 0 0 0 16.58 0 c
0 -210.45 0 0 0 -210.45 c
f
6955.3 3955.33 m
25.73 3.43 0 0 25.73 3.43 c
2.95 -14.58 7.98 -25.09 15.08 -31.53 c
7.1 -6.43 15.75 -9.65 25.95 -9.65 c
12.11 0 22.33 4.19 30.67 12.58 c
8.34 8.39 12.51 18.78 12.51 31.17 c
0 11.82 -3.86 21.56 -11.58 29.24 c
-7.72 7.67 -17.54 11.51 -29.45 11.51 c
-4.86 0 -10.91 -0.95 -18.16 -2.86 c
2.86 22.59 0 0 2.86 22.59 c
1.71 -0.19 3.1 -0.29 4.14 -0.29 c
10.96 0 20.83 2.86 29.6 8.58 c
8.77 5.72 13.15 14.54 13.15 26.45 c
0 9.43 -3.19 17.25 -9.58 23.45 c
-6.39 6.2 -14.63 9.29 -24.73 9.29 c
-10.01 0 -18.35 -3.14 -25.02 -9.43 c
-6.67 -6.29 -10.96 -15.73 -12.87 -28.31 c
-25.73 4.57 0 0 -25.73 4.57 c
3.14 17.25 10.29 30.62 21.45 40.1 c
11.15 9.48 25.02 14.23 41.6 14.23 c
11.44 0 21.97 -2.45 31.6 -7.36 c
9.63 -4.91 16.99 -11.61 22.09 -20.09 c
5.1 -8.48 7.65 -17.49 7.65 -27.02 c
0 -9.05 -2.43 -17.3 -7.29 -24.73 c
-4.86 -7.43 -12.06 -13.34 -21.59 -17.73 c
12.39 -2.86 22.02 -8.79 28.88 -17.8 c
6.86 -9.01 10.29 -20.28 10.29 -33.81 c
0 -18.3 -6.67 -33.81 -20.02 -46.54 c
-13.34 -12.73 -30.21 -19.09 -50.61 -19.09 c
-18.4 0 -33.67 5.48 -45.82 16.44 c
-12.15 10.96 -19.09 25.16 -20.8 42.61 c
f
7133.59 3900 m
0 29.31 0 0 0 29.31 c
29.31 0 0 0 29.31 0 c
0 -29.31 0 0 0 -29.31 c
-29.31 0 0 0 -29.31 0 c
f
7297.09 3900 m
-25.73 0 0 0 -25.73 0 c
0 163.99 0 0 0 163.99 c
-6.2 -5.91 -14.32 -11.82 -24.37 -17.73 c
-10.05 -5.91 -19.09 -10.34 -27.09 -13.29 c
0 24.88 0 0 0 24.88 c
14.39 6.77 26.97 14.96 37.75 24.59 c
10.77 9.63 18.39 18.97 22.88 28.02 c
16.58 0 0 0 16.58 0 c
0 -210.45 0 0 0 -210.45 c
f
7363.3 3955.33 m
25.73 3.43 0 0 25.73 3.43 c
2.95 -14.58 7.98 -25.09 15.08 -31.53 c
7.1 -6.43 15.75 -9.65 25.95 -9.65 c
12.11 0 22.33 4.19 30.67 12.58 c
8.34 8.39 12.51 18.78 12.51 31.17 c
0 11.82 -3.86 21.56 -11.58 29.24 c
-7.72 7.67 -17.54 11.51 -29.45 11.51 c
-4.86 0 -10.91 -0.95 -18.16 -2.86 c
2.86 22.59 0 0 2.86 22.59 c
1.71 -0.19 3.1 -0.29 4.14 -0.29 c
10.96 0 20.83 2.86 29.6 8.58 c
8.77 5.72 13.15 14.54 13.15 26.45 c
0 9.43 -3.19 17.25 -9.58 23.45 c
-6.39 6.2 -14.63 9.29 -24.73 9.29 c
-10.01 0 -18.35 -3.14 -25.02 -9.43 c
-6.67 -6.29 -10.96 -15.73 -12.87 -28.31 c
-25.73 4.57 0 0 -25.73 4.57 c
3.14 17.25 10.29 30.62 21.45 40.1 c
11.15 9.48 25.02 14.23 41.6 14.23 c
11.44 0 21.97 -2.45 31.6 -7.36 c
9.63 -4.91 16.99 -11.61 22.09 -20.09 c
5.1 -8.48 7.65 -17.49 7.65 -27.02 c
0 -9.05 -2.43 -17.3 -7.29 -24.73 c
-4.86 -7.43 -12.06 -13.34 -21.59 -17.73 c
12.39 -2.86 22.02 -8.79 28.88 -17.8 c
6.86 -9.01 10.29 -20.28 10.29 -33.81 c
0 -18.3 -6.67 -33.81 -20.02 -46.54 c
-13.34 -12.73 -30.21 -19.09 -50.61 -19.09 c
-18.4 0 -33.67 5.48 -45.82 16.44 c
-12.15 10.96 -19.09 25.16 -20.8 42.61 c
f
6889.09 3602 m
-25.73 0 0 0 -25.73 0 c
0 163.99 0 0 0 163.99 c
-6.2 -5.91 -14.32 -11.82 -24.37 -17.73 c
-10.05 -5.91 -19.09 -10.34 -27.09 -13.29 c
0 24.88 0 0 0 24.88 c
14.39 6.77 26.97 14.96 37.75 24.59 c
10.77 9.63 18.39 18.97 22.88 28.02 c
16.58 0 0 0 16.58 0 c
0 -210.45 0 0 0 -210.45 c
f
6956.87 3784.14 m
0 24.73 0 0 0 24.73 c
135.68 0 0 0 135.68 0 c
0 -20.02 0 0 0 -20.02 c
-13.34 -14.2 -26.57 -33.07 -39.67 -56.62 c
-13.11 -23.54 -23.23 -47.75 -30.38 -72.63 c
-5.15 -17.54 -8.43 -36.74 -9.86 -57.62 c
-26.45 0 0 0 -26.45 0 c
0.29 16.49 3.53 36.41 9.72 59.76 c
6.2 23.35 15.09 45.87 26.66 67.55 c
11.58 21.68 23.9 39.96 36.96 54.83 c
-102.66 0 0 0 -102.66 0 c
f
7133.59 3602 m
0 29.31 0 0 0 29.31 c
29.31 0 0 0 29.31 0 c
0 -29.31 0 0 0 -29.31 c
-29.31 0 0 0 -29.31 0 c
f
7200.15 3656.9 m
27.02 2.29 0 0 27.02 2.29 c
2 -13.15 6.65 -23.04 13.94 -29.66 c
7.29 -6.62 16.09 -9.94 26.38 -9.94 c
12.39 0 22.88 4.67 31.45 14.01 c
8.58 9.34 12.87 21.73 12.87 37.17 c
0 14.68 -4.12 26.26 -12.37 34.74 c
-8.24 8.48 -19.04 12.72 -32.38 12.72 c
-8.29 0 -15.77 -1.88 -22.45 -5.64 c
-6.67 -3.77 -11.91 -8.65 -15.73 -14.66 c
-24.16 3.14 0 0 -24.16 3.14 c
20.3 107.66 0 0 20.3 107.66 c
104.23 0 0 0 104.23 0 c
0 -24.59 0 0 0 -24.59 c
-83.64 0 0 0 -83.64 0 c
-11.29 -56.33 0 0 -11.29 -56.33 c
12.58 8.77 25.78 13.15 39.6 13.15 c
18.3 0 33.74 -6.34 46.32 -19.02 c
12.58 -12.68 18.87 -28.98 18.87 -48.89 c
0 -18.97 -5.53 -35.36 -16.59 -49.18 c
-13.44 -16.96 -31.79 -25.45 -55.04 -25.45 c
-19.06 0 -34.62 5.34 -46.68 16.01 c
-12.06 10.68 -18.95 24.83 -20.66 42.46 c
f
7363.15 3705.37 m
0 24.78 2.55 44.73 7.65 59.84 c
5.1 15.11 12.68 26.76 22.73 34.95 c
10.05 8.2 22.71 12.3 37.96 12.3 c
11.25 0 21.11 -2.26 29.6 -6.79 c
8.48 -4.53 15.49 -11.06 21.02 -19.59 c
5.53 -8.53 9.86 -18.92 13.01 -31.17 c
3.14 -12.25 4.71 -28.76 4.71 -49.54 c
0 -24.59 -2.52 -44.44 -7.57 -59.55 c
-5.05 -15.11 -12.61 -26.78 -22.66 -35.03 c
-10.05 -8.25 -22.75 -12.37 -38.1 -12.37 c
-20.21 0 -36.07 7.25 -47.61 21.73 c
-13.82 17.45 -20.73 45.85 -20.73 85.21 c
h
7389.6 3705.37 m
0 -34.41 4.03 -57.3 12.08 -68.7 c
8.05 -11.39 17.99 -17.09 29.81 -17.09 c
11.82 0 21.76 5.72 29.81 17.16 c
8.05 11.44 12.08 34.31 12.08 68.63 c
0 34.5 -4.03 57.43 -12.08 68.77 c
-8.05 11.34 -18.09 17.02 -30.1 17.02 c
-11.82 0 -21.25 -5 -28.31 -15.01 c
-8.86 -12.77 -13.3 -36.36 -13.3 -70.77 c
f
6927.4 3329.73 m
0 -24.73 0 0 0 -24.73 c
-138.54 0 0 0 -138.54 0 c
-0.19 6.2 0.81 12.15 3 17.87 c
3.53 9.44 9.18 18.73 16.94 27.88 c
7.77 9.15 18.99 19.73 33.67 31.74 c
22.78 18.68 38.17 33.48 46.18 44.39 c
8 10.91 12.01 21.23 12.01 30.95 c
0 10.2 -3.64 18.8 -10.94 25.8 c
-7.29 7.01 -16.8 10.51 -28.52 10.51 c
-12.39 0 -22.3 -3.72 -29.74 -11.15 c
-7.43 -7.43 -11.2 -17.73 -11.29 -30.88 c
-26.45 2.71 0 0 -26.45 2.71 c
1.81 19.73 8.63 34.77 20.45 45.11 c
11.82 10.34 27.69 15.51 47.61 15.51 c
20.11 0 36.03 -5.57 47.75 -16.73 c
11.73 -11.15 17.59 -24.97 17.59 -41.46 c
0 -8.39 -1.71 -16.63 -5.14 -24.73 c
-3.43 -8.1 -9.13 -16.63 -17.09 -25.59 c
-7.96 -8.96 -21.18 -21.25 -39.68 -36.89 c
-15.44 -12.96 -25.35 -21.75 -29.74 -26.38 c
-4.38 -4.62 -8 -9.27 -10.87 -13.94 c
102.8 0 0 0 102.8 0 c
f
7052.09 3305 m
-25.73 0 0 0 -25.73 0 c
0 163.99 0 0 0 163.99 c
-6.2 -5.91 -14.32 -11.82 -24.37 -17.73 c
-10.05 -5.91 -19.09 -10.34 -27.09 -13.29 c
0 24.88 0 0 0 24.88 c
14.39 6.77 26.97 14.96 37.75 24.59 c
10.77 9.63 18.39 18.97 22.88 28.02 c
16.58 0 0 0 16.58 0 c
0 -210.45 0 0 0 -210.45 c
f
7133.59 3305 m
0 29.31 0 0 0 29.31 c
29.31 0 0 0 29.31 0 c
0 -29.31 0 0 0 -29.31 c
-29.31 0 0 0 -29.31 0 c
f
7239.76 3418.66 m
-10.68 3.91 -18.59 9.48 -23.73 16.73 c
-5.15 7.24 -7.72 15.92 -7.72 26.02 c
0 15.25 5.48 28.07 16.44 38.46 c
10.96 10.39 25.55 15.58 43.75 15.58 c
18.3 0 33.03 -5.31 44.18 -15.94 c
11.15 -10.62 16.73 -23.57 16.73 -38.82 c
0 -9.72 -2.55 -18.18 -7.65 -25.38 c
-5.1 -7.2 -12.84 -12.75 -23.23 -16.65 c
12.87 -4.2 22.66 -10.96 29.38 -20.3 c
6.72 -9.34 10.08 -20.49 10.08 -33.45 c
0 -17.92 -6.34 -32.98 -19.02 -45.18 c
-12.68 -12.2 -29.36 -18.3 -50.04 -18.3 c
-20.68 0 -37.36 6.13 -50.04 18.37 c
-12.68 12.25 -19.02 27.52 -19.02 45.82 c
0 13.63 3.46 25.04 10.36 34.24 c
6.91 9.2 16.75 15.46 29.53 18.8 c
h
7234.61 3462.27 m
0 -9.91 3.19 -18.02 9.58 -24.3 c
6.39 -6.29 14.68 -9.44 24.88 -9.44 c
9.91 0 18.04 3.12 24.38 9.36 c
6.34 6.25 9.51 13.89 9.51 22.95 c
0 9.43 -3.27 17.37 -9.79 23.8 c
-6.53 6.43 -14.66 9.65 -24.38 9.65 c
-9.82 0 -17.96 -3.14 -24.45 -9.43 c
-6.48 -6.29 -9.72 -13.82 -9.72 -22.59 c
h
7226.32 3365.48 m
0 -7.34 1.74 -14.44 5.22 -21.3 c
3.48 -6.86 8.65 -12.18 15.51 -15.94 c
6.86 -3.77 14.25 -5.65 22.16 -5.65 c
12.3 0 22.45 3.96 30.45 11.87 c
8.01 7.91 12.01 17.96 12.01 30.16 c
0 12.39 -4.12 22.64 -12.37 30.74 c
-8.25 8.1 -18.56 12.15 -30.95 12.15 c
-12.11 0 -22.14 -4 -30.1 -12.01 c
-7.96 -8 -11.94 -18.01 -11.94 -30.02 c
f
7402.76 3418.66 m
-10.68 3.91 -18.59 9.48 -23.73 16.73 c
-5.15 7.24 -7.72 15.92 -7.72 26.02 c
0 15.25 5.48 28.07 16.44 38.46 c
10.96 10.39 25.55 15.58 43.75 15.58 c
18.3 0 33.03 -5.31 44.18 -15.94 c
11.15 -10.62 16.73 -23.57 16.73 -38.82 c
0 -9.72 -2.55 -18.18 -7.65 -25.38 c
-5.1 -7.2 -12.84 -12.75 -23.23 -16.65 c
12.87 -4.2 22.66 -10.96 29.38 -20.3 c
6.72 -9.34 10.08 -20.49 10.08 -33.45 c
0 -17.92 -6.34 -32.98 -19.02 -45.18 c
-12.68 -12.2 -29.36 -18.3 -50.04 -18.3 c
-20.68 0 -37.36 6.13 -50.04 18.37 c
-12.68 12.25 -19.02 27.52 -19.02 45.82 c
0 13.63 3.46 25.04 10.36 34.24 c
6.91 9.2 16.75 15.46 29.53 18.8 c
h
7397.61 3462.27 m
0 -9.91 3.19 -18.02 9.58 -24.3 c
6.39 -6.29 14.68 -9.44 24.88 -9.44 c
9.91 0 18.04 3.12 24.38 9.36 c
6.34 6.25 9.51 13.89 9.51 22.95 c
0 9.43 -3.27 17.37 -9.79 23.8 c
-6.53 6.43 -14.66 9.65 -24.38 9.65 c
-9.82 0 -17.96 -3.14 -24.45 -9.43 c
-6.48 -6.29 -9.72 -13.82 -9.72 -22.59 c
h
7389.32 3365.48 m
0 -7.34 1.74 -14.44 5.22 -21.3 c
3.48 -6.86 8.65 -12.18 15.51 -15.94 c
6.86 -3.77 14.25 -5.65 22.16 -5.65 c
12.3 0 22.45 3.96 30.45 11.87 c
8.01 7.91 12.01 17.96 12.01 30.16 c
0 12.39 -4.12 22.64 -12.37 30.74 c
-8.25 8.1 -18.56 12.15 -30.95 12.15 c
-12.11 0 -22.14 -4 -30.1 -12.01 c
-7.96 -8 -11.94 -18.01 -11.94 -30.02 c
f
6927.4 3031.73 m
0 -24.73 0 0 0 -24.73 c
-138.54 0 0 0 -138.54 0 c
-0.19 6.2 0.81 12.15 3 17.87 c
3.53 9.44 9.18 18.73 16.94 27.88 c
7.77 9.15 18.99 19.73 33.67 31.74 c
22.78 18.68 38.17 33.48 46.18 44.39 c
8 10.91 12.01 21.23 12.01 30.95 c
0 10.2 -3.64 18.8 -10.94 25.8 c
-7.29 7.01 -16.8 10.51 -28.52 10.51 c
-12.39 0 -22.3 -3.72 -29.74 -11.15 c
-7.43 -7.43 -11.2 -17.73 -11.29 -30.88 c
-26.45 2.71 0 0 -26.45 2.71 c
1.81 19.73 8.63 34.77 20.45 45.11 c
11.82 10.34 27.69 15.51 47.61 15.51 c
20.11 0 36.03 -5.57 47.75 -16.73 c
11.73 -11.15 17.59 -24.97 17.59 -41.46 c
0 -8.39 -1.71 -16.63 -5.14 -24.73 c
-3.43 -8.1 -9.13 -16.63 -17.09 -25.59 c
-7.96 -8.96 -21.18 -21.25 -39.68 -36.89 c
-15.44 -12.96 -25.35 -21.75 -29.74 -26.38 c
-4.38 -4.62 -8 -9.27 -10.87 -13.94 c
102.8 0 0 0 102.8 0 c
f
7088.69 3165.27 m
-25.59 -2 0 0 -25.59 -2 c
-2.29 10.1 -5.53 17.44 -9.72 22.02 c
-6.96 7.34 -15.54 11.01 -25.73 11.01 c
-8.2 0 -15.39 -2.29 -21.59 -6.86 c
-8.1 -5.91 -14.49 -14.54 -19.16 -25.87 c
-4.67 -11.34 -7.1 -27.5 -7.29 -48.47 c
6.2 9.44 13.77 16.44 22.73 21.02 c
8.96 4.58 18.35 6.86 28.17 6.86 c
17.16 0 31.76 -6.31 43.82 -18.94 c
12.05 -12.63 18.09 -28.95 18.09 -48.97 c
0 -13.15 -2.84 -25.38 -8.51 -36.67 c
-5.67 -11.3 -13.46 -19.95 -23.37 -25.95 c
-9.91 -6 -21.16 -9.01 -33.74 -9.01 c
-21.45 0 -38.93 7.89 -52.47 23.66 c
-13.54 15.78 -20.3 41.77 -20.3 77.99 c
0 40.51 7.48 69.96 22.45 88.36 c
13.05 16.02 30.64 24.02 52.75 24.02 c
16.49 0 30 -4.62 40.54 -13.87 c
10.53 -9.25 16.84 -22.02 18.94 -38.32 c
h
6983.61 3074.91 m
0 -8.86 1.88 -17.34 5.64 -25.45 c
3.77 -8.1 9.03 -14.27 15.8 -18.51 c
6.77 -4.24 13.87 -6.36 21.3 -6.36 c
10.87 0 20.21 4.38 28.02 13.15 c
7.82 8.77 11.72 20.68 11.72 35.74 c
0 14.49 -3.86 25.9 -11.58 34.24 c
-7.72 8.34 -17.45 12.51 -29.17 12.51 c
-11.63 0 -21.49 -4.17 -29.59 -12.51 c
-8.1 -8.34 -12.15 -19.28 -12.15 -32.81 c
f
7133.59 3007 m
0 29.31 0 0 0 29.31 c
29.31 0 0 0 29.31 0 c
0 -29.31 0 0 0 -29.31 c
-29.31 0 0 0 -29.31 0 c
f
7335.4 3031.73 m
0 -24.73 0 0 0 -24.73 c
-138.54 0 0 0 -138.54 0 c
-0.19 6.2 0.81 12.15 3 17.87 c
3.53 9.44 9.18 18.73 16.94 27.88 c
7.77 9.15 18.99 19.73 33.67 31.74 c
22.78 18.68 38.17 33.48 46.18 44.39 c
8 10.91 12.01 21.23 12.01 30.95 c
0 10.2 -3.64 18.8 -10.94 25.8 c
-7.29 7.01 -16.8 10.51 -28.52 10.51 c
-12.39 0 -22.3 -3.72 -29.74 -11.15 c
-7.43 -7.43 -11.2 -17.73 -11.29 -30.88 c
-26.45 2.71 0 0 -26.45 2.71 c
1.81 19.73 8.63 34.77 20.45 45.11 c
11.82 10.34 27.69 15.51 47.61 15.51 c
20.11 0 36.03 -5.57 47.75 -16.73 c
11.73 -11.15 17.59 -24.97 17.59 -41.46 c
0 -8.39 -1.71 -16.63 -5.14 -24.73 c
-3.43 -8.1 -9.13 -16.63 -17.09 -25.59 c
-7.96 -8.96 -21.18 -21.25 -39.68 -36.89 c
-15.44 -12.96 -25.35 -21.75 -29.74 -26.38 c
-4.38 -4.62 -8 -9.27 -10.87 -13.94 c
102.8 0 0 0 102.8 0 c
f
7363.15 3061.9 m
27.02 2.29 0 0 27.02 2.29 c
2 -13.15 6.65 -23.04 13.94 -29.66 c
7.29 -6.62 16.09 -9.94 26.38 -9.94 c
12.39 0 22.88 4.67 31.45 14.01 c
8.58 9.34 12.87 21.73 12.87 37.17 c
0 14.68 -4.12 26.26 -12.37 34.74 c
-8.24 8.48 -19.04 12.72 -32.38 12.72 c
-8.29 0 -15.77 -1.88 -22.45 -5.64 c
-6.67 -3.77 -11.91 -8.65 -15.73 -14.66 c
-24.16 3.14 0 0 -24.16 3.14 c
20.3 107.66 0 0 20.3 107.66 c
104.23 0 0 0 104.23 0 c
0 -24.59 0 0 0 -24.59 c
-83.64 0 0 0 -83.64 0 c
-11.29 -56.33 0 0 -11.29 -56.33 c
12.58 8.77 25.78 13.15 39.6 13.15 c
18.3 0 33.74 -6.34 46.32 -19.02 c
12.58 -12.68 18.87 -28.98 18.87 -48.89 c
0 -18.97 -5.53 -35.36 -16.59 -49.18 c
-13.44 -16.96 -31.79 -25.45 -55.04 -25.45 c
-19.06 0 -34.62 5.34 -46.68 16.01 c
-12.06 10.68 -18.95 24.83 -20.66 42.46 c
f
6792.3 2765.33 m
25.73 3.43 0 0 25.73 3.43 c
2.95 -14.58 7.98 -25.09 15.08 -31.53 c
7.1 -6.43 15.75 -9.65 25.95 -9.65 c
12.11 0 22.33 4.19 30.67 12.58 c
8.34 8.39 12.51 18.78 12.51 31.17 c
0 11.82 -3.86 21.56 -11.58 29.24 c
-7.72 7.67 -17.54 11.51 -29.45 11.51 c
-4.86 0 -10.91 -0.95 -18.16 -2.86 c
2.86 22.59 0 0 2.86 22.59 c
1.71 -0.19 3.1 -0.29 4.14 -0.29 c
10.96 0 20.83 2.86 29.6 8.58 c
8.77 5.72 13.15 14.54 13.15 26.45 c
0 9.43 -3.19 17.25 -9.58 23.45 c
-6.39 6.2 -14.63 9.29 -24.73 9.29 c
-10.01 0 -18.35 -3.14 -25.02 -9.43 c
-6.67 -6.29 -10.96 -15.73 -12.87 -28.31 c
-25.73 4.57 0 0 -25.73 4.57 c
3.14 17.25 10.29 30.62 21.45 40.1 c
11.15 9.48 25.02 14.23 41.6 14.23 c
11.44 0 21.97 -2.45 31.6 -7.36 c
9.63 -4.91 16.99 -11.61 22.09 -20.09 c
5.1 -8.48 7.65 -17.49 7.65 -27.02 c
0 -9.05 -2.43 -17.3 -7.29 -24.73 c
-4.86 -7.43 -12.06 -13.34 -21.59 -17.73 c
12.39 -2.86 22.02 -8.79 28.88 -17.8 c
6.86 -9.01 10.29 -20.28 10.29 -33.81 c
0 -18.3 -6.67 -33.81 -20.02 -46.54 c
-13.34 -12.73 -30.21 -19.09 -50.61 -19.09 c
-18.4 0 -33.67 5.48 -45.82 16.44 c
-12.15 10.96 -19.09 25.16 -20.8 42.61 c
f
6955.15 2813.37 m
0 24.78 2.55 44.73 7.65 59.84 c
5.1 15.11 12.68 26.76 22.73 34.95 c
10.05 8.2 22.71 12.3 37.96 12.3 c
11.25 0 21.11 -2.26 29.6 -6.79 c
8.48 -4.53 15.49 -11.06 21.02 -19.59 c
5.53 -8.53 9.86 -18.92 13.01 -31.17 c
3.14 -12.25 4.71 -28.76 4.71 -49.54 c
0 -24.59 -2.52 -44.44 -7.57 -59.55 c
-5.05 -15.11 -12.61 -26.78 -22.66 -35.03 c
-10.05 -8.25 -22.75 -12.37 -38.1 -12.37 c
-20.21 0 -36.07 7.25 -47.61 21.73 c
-13.82 17.45 -20.73 45.85 -20.73 85.21 c
h
6981.6 2813.37 m
0 -34.41 4.03 -57.3 12.08 -68.7 c
8.05 -11.39 17.99 -17.09 29.81 -17.09 c
11.82 0 21.76 5.72 29.81 17.16 c
8.05 11.44 12.08 34.31 12.08 68.63 c
0 34.5 -4.03 57.43 -12.08 68.77 c
-8.05 11.34 -18.09 17.02 -30.1 17.02 c
-11.82 0 -21.25 -5 -28.31 -15.01 c
-8.86 -12.77 -13.3 -36.36 -13.3 -70.77 c
f
7133.59 2710 m
0 29.31 0 0 0 29.31 c
29.31 0 0 0 29.31 0 c
0 -29.31 0 0 0 -29.31 c
-29.31 0 0 0 -29.31 0 c
f
7333.69 2868.27 m
-25.59 -2 0 0 -25.59 -2 c
-2.29 10.1 -5.53 17.44 -9.72 22.02 c
-6.96 7.34 -15.54 11.01 -25.73 11.01 c
-8.2 0 -15.39 -2.29 -21.59 -6.86 c
-8.1 -5.91 -14.49 -14.54 -19.16 -25.87 c
-4.67 -11.34 -7.1 -27.5 -7.29 -48.47 c
6.2 9.44 13.77 16.44 22.73 21.02 c
8.96 4.58 18.35 6.86 28.17 6.86 c
17.16 0 31.76 -6.31 43.82 -18.94 c
12.05 -12.63 18.09 -28.95 18.09 -48.97 c
0 -13.15 -2.84 -25.38 -8.51 -36.67 c
-5.67 -11.3 -13.46 -19.95 -23.37 -25.95 c
-9.91 -6 -21.16 -9.01 -33.74 -9.01 c
-21.45 0 -38.93 7.89 -52.47 23.66 c
-13.54 15.78 -20.3 41.77 -20.3 77.99 c
0 40.51 7.48 69.96 22.45 88.36 c
13.05 16.02 30.64 24.02 52.75 24.02 c
16.49 0 30 -4.62 40.54 -13.87 c
10.53 -9.25 16.84 -22.02 18.94 -38.32 c
h
7228.61 2777.91 m
0 -8.86 1.88 -17.34 5.64 -25.45 c
3.77 -8.1 9.03 -14.27 15.8 -18.51 c
6.77 -4.24 13.87 -6.36 21.3 -6.36 c
10.87 0 20.21 4.38 28.02 13.15 c
7.82 8.77 11.72 20.68 11.72 35.74 c
0 14.49 -3.86 25.9 -11.58 34.24 c
-7.72 8.34 -17.45 12.51 -29.17 12.51 c
-11.63 0 -21.49 -4.17 -29.59 -12.51 c
-8.1 -8.34 -12.15 -19.28 -12.15 -32.81 c
f
7363.3 2765.33 m
25.73 3.43 0 0 25.73 3.43 c
2.95 -14.58 7.98 -25.09 15.08 -31.53 c
7.1 -6.43 15.75 -9.65 25.95 -9.65 c
12.11 0 22.33 4.19 30.67 12.58 c
8.34 8.39 12.51 18.78 12.51 31.17 c
0 11.82 -3.86 21.56 -11.58 29.24 c
-7.72 7.67 -17.54 11.51 -29.45 11.51 c
-4.86 0 -10.91 -0.95 -18.16 -2.86 c
2.86 22.59 0 0 2.86 22.59 c
1.71 -0.19 3.1 -0.29 4.14 -0.29 c
10.96 0 20.83 2.86 29.6 8.58 c
8.77 5.72 13.15 14.54 13.15 26.45 c
0 9.43 -3.19 17.25 -9.58 23.45 c
-6.39 6.2 -14.63 9.29 -24.73 9.29 c
-10.01 0 -18.35 -3.14 -25.02 -9.43 c
-6.67 -6.29 -10.96 -15.73 -12.87 -28.31 c
-25.73 4.57 0 0 -25.73 4.57 c
3.14 17.25 10.29 30.62 21.45 40.1 c
11.15 9.48 25.02 14.23 41.6 14.23 c
11.44 0 21.97 -2.45 31.6 -7.36 c
9.63 -4.91 16.99 -11.61 22.09 -20.09 c
5.1 -8.48 7.65 -17.49 7.65 -27.02 c
0 -9.05 -2.43 -17.3 -7.29 -24.73 c
-4.86 -7.43 -12.06 -13.34 -21.59 -17.73 c
12.39 -2.86 22.02 -8.79 28.88 -17.8 c
6.86 -9.01 10.29 -20.28 10.29 -33.81 c
0 -18.3 -6.67 -33.81 -20.02 -46.54 c
-13.34 -12.73 -30.21 -19.09 -50.61 -19.09 c
-18.4 0 -33.67 5.48 -45.82 16.44 c
-12.15 10.96 -19.09 25.16 -20.8 42.61 c
f
6792.3 2467.33 m
25.73 3.43 0 0 25.73 3.43 c
2.95 -14.58 7.98 -25.09 15.08 -31.53 c
7.1 -6.43 15.75 -9.65 25.95 -9.65 c
12.11 0 22.33 4.19 30.67 12.58 c
8.34 8.39 12.51 18.78 12.51 31.17 c
0 11.82 -3.86 21.56 -11.58 29.24 c
-7.72 7.67 -17.54 11.51 -29.45 11.51 c
-4.86 0 -10.91 -0.95 -18.16 -2.86 c
2.86 22.59 0 0 2.86 22.59 c
1.71 -0.19 3.1 -0.29 4.14 -0.29 c
10.96 0 20.83 2.86 29.6 8.58 c
8.77 5.72 13.15 14.54 13.15 26.45 c
0 9.43 -3.19 17.25 -9.58 23.45 c
-6.39 6.2 -14.63 9.29 -24.73 9.29 c
-10.01 0 -18.35 -3.14 -25.02 -9.43 c
-6.67 -6.29 -10.96 -15.73 -12.87 -28.31 c
-25.73 4.57 0 0 -25.73 4.57 c
3.14 17.25 10.29 30.62 21.45 40.1 c
11.15 9.48 25.02 14.23 41.6 14.23 c
11.44 0 21.97 -2.45 31.6 -7.36 c
9.63 -4.91 16.99 -11.61 22.09 -20.09 c
5.1 -8.48 7.65 -17.49 7.65 -27.02 c
0 -9.05 -2.43 -17.3 -7.29 -24.73 c
-4.86 -7.43 -12.06 -13.34 -21.59 -17.73 c
12.39 -2.86 22.02 -8.79 28.88 -17.8 c
6.86 -9.01 10.29 -20.28 10.29 -33.81 c
0 -18.3 -6.67 -33.81 -20.02 -46.54 c
-13.34 -12.73 -30.21 -19.09 -50.61 -19.09 c
-18.4 0 -33.67 5.48 -45.82 16.44 c
-12.15 10.96 -19.09 25.16 -20.8 42.61 c
f
6955.15 2466.9 m
27.02 2.29 0 0 27.02 2.29 c
2 -13.15 6.65 -23.04 13.94 -29.66 c
7.29 -6.62 16.09 -9.94 26.38 -9.94 c
12.39 0 22.88 4.67 31.45 14.01 c
8.58 9.34 12.87 21.73 12.87 37.17 c
0 14.68 -4.12 26.26 -12.37 34.74 c
-8.24 8.48 -19.04 12.72 -32.38 12.72 c
-8.29 0 -15.77 -1.88 -22.45 -5.64 c
-6.67 -3.77 -11.91 -8.65 -15.73 -14.66 c
-24.16 3.14 0 0 -24.16 3.14 c
20.3 107.66 0 0 20.3 107.66 c
104.23 0 0 0 104.23 0 c
0 -24.59 0 0 0 -24.59 c
-83.64 0 0 0 -83.64 0 c
-11.29 -56.33 0 0 -11.29 -56.33 c
12.58 8.77 25.78 13.15 39.6 13.15 c
18.3 0 33.74 -6.34 46.32 -19.02 c
12.58 -12.68 18.87 -28.98 18.87 -48.89 c
0 -18.97 -5.53 -35.36 -16.59 -49.18 c
-13.44 -16.96 -31.79 -25.45 -55.04 -25.45 c
-19.06 0 -34.62 5.34 -46.68 16.01 c
-12.06 10.68 -18.95 24.83 -20.66 42.46 c
f
7133.59 2412 m
0 29.31 0 0 0 29.31 c
29.31 0 0 0 29.31 0 c
0 -29.31 0 0 0 -29.31 c
-29.31 0 0 0 -29.31 0 c
f
7200.15 2515.37 m
0 24.78 2.55 44.73 7.65 59.84 c
5.1 15.11 12.68 26.76 22.73 34.95 c
10.05 8.2 22.71 12.3 37.96 12.3 c
11.25 0 21.11 -2.26 29.6 -6.79 c
8.48 -4.53 15.49 -11.06 21.02 -19.59 c
5.53 -8.53 9.86 -18.92 13.01 -31.17 c
3.14 -12.25 4.71 -28.76 4.71 -49.54 c
0 -24.59 -2.52 -44.44 -7.57 -59.55 c
-5.05 -15.11 -12.61 -26.78 -22.66 -35.03 c
-10.05 -8.25 -22.75 -12.37 -38.1 -12.37 c
-20.21 0 -36.07 7.25 -47.61 21.73 c
-13.82 17.45 -20.73 45.85 -20.73 85.21 c
h
7226.6 2515.37 m
0 -34.41 4.03 -57.3 12.08 -68.7 c
8.05 -11.39 17.99 -17.09 29.81 -17.09 c
11.82 0 21.76 5.72 29.81 17.16 c
8.05 11.44 12.08 34.31 12.08 68.63 c
0 34.5 -4.03 57.43 -12.08 68.77 c
-8.05 11.34 -18.09 17.02 -30.1 17.02 c
-11.82 0 -21.25 -5 -28.31 -15.01 c
-8.86 -12.77 -13.3 -36.36 -13.3 -70.77 c
f
7363.15 2515.37 m
0 24.78 2.55 44.73 7.65 59.84 c
5.1 15.11 12.68 26.76 22.73 34.95 c
10.05 8.2 22.71 12.3 37.96 12.3 c
11.25 0 21.11 -2.26 29.6 -6.79 c
8.48 -4.53 15.49 -11.06 21.02 -19.59 c
5.53 -8.53 9.86 -18.92 13.01 -31.17 c
3.14 -12.25 4.71 -28.76 4.71 -49.54 c
0 -24.59 -2.52 -44.44 -7.57 -59.55 c
-5.05 -15.11 -12.61 -26.78 -22.66 -35.03 c
-10.05 -8.25 -22.75 -12.37 -38.1 -12.37 c
-20.21 0 -36.07 7.25 -47.61 21.73 c
-13.82 17.45 -20.73 45.85 -20.73 85.21 c
h
7389.6 2515.37 m
0 -34.41 4.03 -57.3 12.08 -68.7 c
8.05 -11.39 17.99 -17.09 29.81 -17.09 c
11.82 0 21.76 5.72 29.81 17.16 c
8.05 11.44 12.08 34.31 12.08 68.63 c
0 34.5 -4.03 57.43 -12.08 68.77 c
-8.05 11.34 -18.09 17.02 -30.1 17.02 c
-11.82 0 -21.25 -5 -28.31 -15.01 c
-8.86 -12.77 -13.3 -36.36 -13.3 -70.77 c
f
cleartomark end end pagesave restore
 showpage
%%PageTrailer
%%Trailer
%%Pages: 1
