%!PS-Adobe-3.0 EPSF-3.0
%%BoundingBox: 56 22 775 566
%%HiResBoundingBox: 56.460547 22.881641 774.735547 565.209375
%.....................................
%%Creator: GPL Ghostscript 870 (epswrite)
%%CreationDate: 2014/01/15 22:19:33
%%DocumentData: Clean7Bit
%%LanguageLevel: 2
%%EndComments
%%BeginProlog
% This copyright applies to everything between here and the %%EndProlog:
% Copyright (C) 2009 Artifex Software, Inc.  All rights reserved.
%%BeginResource: procset GS_epswrite_2_0_1001 1.001 0
/GS_epswrite_2_0_1001 80 dict dup begin
/PageSize 2 array def/setpagesize{ PageSize aload pop 3 index eq exch
4 index eq and{ pop pop pop}{ PageSize dup  1
5 -1 roll put 0 4 -1 roll put dup null eq {false} {dup where} ifelse{ exch get exec}
{ pop/setpagedevice where
{ pop 1 dict dup /PageSize PageSize put setpagedevice}
{ /setpage where{ pop PageSize aload pop pageparams 3 {exch pop} repeat
setpage}if}ifelse}ifelse}ifelse} bind def
/!{bind def}bind def/#{load def}!/N/counttomark #
/rG{3{3 -1 roll 255 div}repeat setrgbcolor}!/G{255 div setgray}!/K{0 G}!
/r6{dup 3 -1 roll rG}!/r5{dup 3 1 roll rG}!/r3{dup rG}!
/w/setlinewidth #/J/setlinecap #
/j/setlinejoin #/M/setmiterlimit #/d/setdash #/i/setflat #
/m/moveto #/l/lineto #/c/rcurveto #
/p{N 2 idiv{N -2 roll rlineto}repeat}!
/P{N 0 gt{N -2 roll moveto p}if}!
/h{p closepath}!/H{P closepath}!
/lx{0 rlineto}!/ly{0 exch rlineto}!/v{0 0 6 2 roll c}!/y{2 copy c}!
/re{4 -2 roll m exch dup lx exch ly neg lx h}!
/^{3 index neg 3 index neg}!
/f{P fill}!/f*{P eofill}!/s{H stroke}!/S{P stroke}!
/q/gsave #/Q/grestore #/rf{re fill}!
/Y{P clip newpath}!/Y*{P eoclip newpath}!/rY{re Y}!
/|={pop exch 4 1 roll 1 array astore cvx 3 array astore cvx exch 1 index def exec}!
/|{exch string readstring |=}!
/+{dup type/nametype eq{2 index 7 add -3 bitshift 2 index mul}if}!
/@/currentfile #/${+ @ |}!
/B{{2 copy string{readstring pop}aload pop 4 array astore cvx
3 1 roll}repeat pop pop true}!
/Ix{[1 0 0 1 11 -2 roll exch neg exch neg]exch}!
/,{true exch Ix imagemask}!/If{false exch Ix imagemask}!/I{exch Ix image}!
/Ic{exch Ix false 3 colorimage}!
/F{/Columns counttomark 3 add -2 roll/Rows exch/K -1/BlackIs1 true>>
/CCITTFaxDecode filter}!/FX{<</EndOfBlock false F}!
/X{/ASCII85Decode filter}!/@X{@ X}!/&2{2 index 2 index}!
/@F{@ &2<<F}!/@C{@X &2 FX}!
/$X{+ @X |}!/&4{4 index 4 index}!/$F{+ @ &4<<F |}!/$C{+ @X &4 FX |}!
/IC{3 1 roll 10 dict begin 1{/ImageType/Interpolate/Decode/DataSource
/ImageMatrix/BitsPerComponent/Height/Width}{exch def}forall
currentdict end image}!
/~{@ read {pop} if}!
end def
%%EndResource
/pagesave null def
%%EndProlog
%%Page: 1 1
%%BeginPageSetup
GS_epswrite_2_0_1001 begin
/pagesave save store 197 dict begin
0.1 0.1 scale
%%EndPageSetup
gsave mark
Q q
1456.83 943.215 5551.31 3736.86 re
Y*
K
1596.03 945.617 554.414 556.809 re
f*
9.60018 w
1 J
1 j
q 1 -0.999998 scale
1596.03 -1502.43 554.41 0 0 556.81 ^ H
S
Q
q 1 -0.999998 scale
1596.03 -1502.43 554.41 0 S
Q
q 1 -0.999998 scale
2150.44 -1502.43 0 556.81 S
Q
q 1 -0.999998 scale
1596.03 -945.62 0 -556.81 S
Q
2983.26 945.617 554.41 211.203 re
f*
q 1 -0.999998 scale
2983.26 -1156.82 554.41 0 0 211.2 ^ H
S
Q
q 1 -0.999998 scale
2983.26 -1156.82 554.41 0 S
Q
q 1 -0.999998 scale
3537.67 -1156.82 0 211.2 S
Q
q 1 -0.999998 scale
2983.26 -945.62 0 -211.2 S
Q
4370.49 945.617 554.41 69.6016 re
f*
q 1 -0.999998 scale
4370.48 -1015.22 554.41 0 0 69.6 ^ H
S
Q
q 1 -0.999998 scale
4370.48 -1015.22 554.41 0 S
Q
q 1 -0.999998 scale
4924.89 -1015.22 0 69.6 S
Q
q 1 -0.999998 scale
4370.48 -945.62 0 -69.6 S
Q
5757.72 945.617 554.41 16.8008 re
f*
q 1 -0.999998 scale
5757.71 -962.42 554.41 0 0 16.8 ^ H
S
Q
q 1 -0.999998 scale
5757.71 -962.42 554.41 0 S
Q
q 1 -0.999998 scale
6312.12 -962.42 0 16.8 S
Q
q 1 -0.999998 scale
5757.71 -945.62 0 -16.8 S
Q
Q q
1456.83 943.215 5551.31 3736.86 re
Y*
255 0 r3
2150.45 945.617 554.41 3384.05 re
f*
9.60018 w
1 J
1 j
q 1 -0.999998 scale
2150.44 -4329.68 554.41 0 0 3384.06 ^ H
S
Q
K
q 1 -0.999998 scale
2150.44 -4329.68 554.41 0 S
Q
q 1 -0.999998 scale
2704.85 -4329.68 0 3384.06 S
Q
q 1 -0.999998 scale
2150.44 -945.62 0 -3384.06 S
Q
255 0 r3
3537.67 945.617 554.41 3028.85 re
f*
q 1 -0.999998 scale
3537.67 -3974.48 554.41 0 0 3028.86 ^ H
S
Q
K
q 1 -0.999998 scale
3537.67 -3974.48 554.41 0 S
Q
q 1 -0.999998 scale
4092.07 -3974.48 0 3028.86 S
Q
q 1 -0.999998 scale
3537.67 -945.62 0 -3028.86 S
Q
255 0 r3
4924.9 945.617 554.414 2666.45 re
f*
q 1 -0.999998 scale
4924.89 -3612.07 554.41 0 0 2666.45 ^ H
S
Q
K
q 1 -0.999998 scale
4924.89 -3612.07 554.41 0 S
Q
q 1 -0.999998 scale
5479.3 -3612.07 0 2666.45 S
Q
q 1 -0.999998 scale
4924.89 -945.62 0 -2666.45 S
Q
255 0 r3
6312.13 945.617 554.41 2296.84 re
f*
q 1 -0.999998 scale
6312.12 -3242.46 554.41 0 0 2296.84 ^ H
S
Q
K
q 1 -0.999998 scale
6312.12 -3242.46 554.41 0 S
Q
q 1 -0.999998 scale
6866.53 -3242.46 0 2296.84 S
Q
q 1 -0.999998 scale
6312.12 -945.62 0 -2296.84 S
Q
Q q
0 0 8140 5720 re
Y
K
1997.63 701 m
0 53.89 0 0 0 53.89 c
-97.64 0 0 0 -97.64 0 c
0 25.33 0 0 0 25.33 c
102.7 145.84 0 0 102.7 145.84 c
22.57 0 0 0 22.57 0 c
0 -145.84 0 0 0 -145.84 c
30.4 0 0 0 30.4 0 c
0 -25.33 0 0 0 -25.33 c
-30.4 0 0 0 -30.4 0 c
0 -53.89 0 0 0 -53.89 c
-27.63 0 0 0 -27.63 0 c
h
1997.63 780.21 m
0 101.48 0 0 0 101.48 c
-70.46 -101.48 0 0 -70.46 -101.48 c
70.46 0 0 0 70.46 0 c
f
2073.3 701 m
59.56 84.74 0 0 59.56 84.74 c
-55.11 78.29 0 0 -55.11 78.29 c
34.54 0 0 0 34.54 0 c
25.02 -38.23 0 0 25.02 -38.23 c
4.71 -7.27 8.49 -13.36 11.36 -18.27 c
4.5 6.75 8.65 12.74 12.44 17.96 c
27.48 38.53 0 0 27.48 38.53 c
33.01 0 0 0 33.01 0 c
-56.34 -76.76 0 0 -56.34 -76.76 c
60.64 -86.28 0 0 60.64 -86.28 c
-33.93 0 0 0 -33.93 0 c
-33.47 50.66 0 0 -33.47 50.66 c
-8.9 13.66 0 0 -8.9 13.66 c
-42.83 -64.32 0 0 -42.83 -64.32 c
-33.46 0 0 0 -33.46 0 c
f
2285.57 823.05 m
-11.46 4.2 -19.96 10.18 -25.48 17.96 c
-5.53 7.78 -8.29 17.09 -8.29 27.94 c
0 16.38 5.88 30.14 17.65 41.3 c
11.77 11.16 27.43 16.73 46.98 16.73 c
19.65 0 35.46 -5.71 47.44 -17.12 c
11.98 -11.41 17.96 -25.3 17.96 -41.68 c
0 -10.44 -2.74 -19.52 -8.21 -27.25 c
-5.48 -7.73 -13.79 -13.69 -24.95 -17.89 c
13.82 -4.5 24.33 -11.77 31.55 -21.8 c
7.21 -10.03 10.82 -22 10.82 -35.92 c
0 -19.24 -6.81 -35.41 -20.42 -48.51 c
-13.61 -13.1 -31.52 -19.65 -53.73 -19.65 c
-22.21 0 -40.12 6.58 -53.73 19.73 c
-13.61 13.15 -20.42 29.55 -20.42 49.2 c
0 14.64 3.71 26.89 11.13 36.77 c
7.42 9.88 17.99 16.61 31.7 20.19 c
h
2280.05 869.87 m
0 -10.64 3.43 -19.34 10.29 -26.1 c
6.86 -6.76 15.76 -10.13 26.71 -10.13 c
10.64 0 19.37 3.35 26.17 10.05 c
6.81 6.7 10.21 14.92 10.21 24.64 c
0 10.13 -3.5 18.65 -10.52 25.56 c
-7.01 6.91 -15.74 10.36 -26.18 10.36 c
-10.54 0 -19.29 -3.38 -26.25 -10.13 c
-6.96 -6.75 -10.44 -14.84 -10.44 -24.25 c
h
2271.14 765.94 m
0 -7.88 1.87 -15.5 5.6 -22.87 c
3.73 -7.37 9.29 -13.07 16.66 -17.12 c
7.37 -4.04 15.3 -6.06 23.8 -6.06 c
13.2 0 24.1 4.25 32.7 12.74 c
8.6 8.49 12.89 19.29 12.89 32.39 c
0 13.31 -4.43 24.31 -13.28 33.01 c
-8.86 8.7 -19.93 13.05 -33.24 13.05 c
-13 0 -23.77 -4.3 -32.32 -12.9 c
-8.55 -8.6 -12.82 -19.34 -12.82 -32.24 c
f
3295.63 701 m
0 53.89 0 0 0 53.89 c
-97.64 0 0 0 -97.64 0 c
0 25.33 0 0 0 25.33 c
102.7 145.84 0 0 102.7 145.84 c
22.57 0 0 0 22.57 0 c
0 -145.84 0 0 0 -145.84 c
30.4 0 0 0 30.4 0 c
0 -25.33 0 0 0 -25.33 c
-30.4 0 0 0 -30.4 0 c
0 -53.89 0 0 0 -53.89 c
-27.63 0 0 0 -27.63 0 c
h
3295.63 780.21 m
0 101.48 0 0 0 101.48 c
-70.46 -101.48 0 0 -70.46 -101.48 c
70.46 0 0 0 70.46 0 c
f
3372.3 701 m
59.56 84.74 0 0 59.56 84.74 c
-55.11 78.29 0 0 -55.11 78.29 c
34.54 0 0 0 34.54 0 c
25.02 -38.23 0 0 25.02 -38.23 c
4.71 -7.27 8.49 -13.36 11.36 -18.27 c
4.5 6.75 8.65 12.74 12.44 17.96 c
27.48 38.53 0 0 27.48 38.53 c
33.01 0 0 0 33.01 0 c
-56.34 -76.76 0 0 -56.34 -76.76 c
60.64 -86.28 0 0 60.64 -86.28 c
-33.93 0 0 0 -33.93 0 c
-33.47 50.66 0 0 -33.47 50.66 c
-8.9 13.66 0 0 -8.9 13.66 c
-42.83 -64.32 0 0 -42.83 -64.32 c
-33.46 0 0 0 -33.46 0 c
f
3645.14 701 m
-27.64 0 0 0 -27.64 0 c
0 176.09 0 0 0 176.09 c
-6.65 -6.34 -15.37 -12.69 -26.17 -19.04 c
-10.8 -6.35 -20.5 -11.11 -29.09 -14.28 c
0 26.71 0 0 0 26.71 c
15.46 7.27 28.96 16.07 40.53 26.41 c
11.56 10.34 19.75 20.37 24.56 30.09 c
17.81 0 0 0 17.81 0 c
0 -225.98 0 0 0 -225.98 c
f
3861.28 727.56 m
0 -26.56 0 0 0 -26.56 c
-148.76 0 0 0 -148.76 0 c
-0.21 6.65 0.87 13.05 3.22 19.19 c
3.79 10.13 9.85 20.11 18.19 29.93 c
8.34 9.82 20.39 21.19 36.15 34.08 c
24.46 20.06 40.99 35.95 49.59 47.67 c
8.59 11.72 12.89 22.8 12.89 33.23 c
0 10.95 -3.91 20.19 -11.75 27.71 c
-7.83 7.52 -18.04 11.29 -30.62 11.29 c
-13.3 0 -23.95 -3.99 -31.93 -11.98 c
-7.98 -7.98 -12.02 -19.04 -12.12 -33.16 c
-28.4 2.92 0 0 -28.4 2.92 c
1.95 21.19 9.26 37.33 21.95 48.43 c
12.69 11.11 29.73 16.66 51.12 16.66 c
21.6 0 38.69 -5.99 51.28 -17.96 c
12.59 -11.97 18.88 -26.81 18.88 -44.52 c
0 -9.01 -1.84 -17.86 -5.53 -26.56 c
-3.68 -8.7 -9.8 -17.86 -18.35 -27.48 c
-8.55 -9.62 -22.75 -22.82 -42.6 -39.61 c
-16.58 -13.92 -27.22 -23.36 -31.93 -28.32 c
-4.71 -4.96 -8.6 -9.95 -11.67 -14.97 c
110.38 0 0 0 110.38 0 c
f
4683.63 701 m
0 53.89 0 0 0 53.89 c
-97.64 0 0 0 -97.64 0 c
0 25.33 0 0 0 25.33 c
102.7 145.84 0 0 102.7 145.84 c
22.57 0 0 0 22.57 0 c
0 -145.84 0 0 0 -145.84 c
30.4 0 0 0 30.4 0 c
0 -25.33 0 0 0 -25.33 c
-30.4 0 0 0 -30.4 0 c
0 -53.89 0 0 0 -53.89 c
-27.63 0 0 0 -27.63 0 c
h
4683.63 780.21 m
0 101.48 0 0 0 101.48 c
-70.46 -101.48 0 0 -70.46 -101.48 c
70.46 0 0 0 70.46 0 c
f
4759.3 701 m
59.56 84.74 0 0 59.56 84.74 c
-55.11 78.29 0 0 -55.11 78.29 c
34.54 0 0 0 34.54 0 c
25.02 -38.23 0 0 25.02 -38.23 c
4.71 -7.27 8.5 -13.36 11.36 -18.27 c
4.5 6.75 8.65 12.74 12.44 17.96 c
27.48 38.53 0 0 27.48 38.53 c
33.01 0 0 0 33.01 0 c
-56.34 -76.76 0 0 -56.34 -76.76 c
60.64 -86.28 0 0 60.64 -86.28 c
-33.93 0 0 0 -33.93 0 c
-33.46 50.66 0 0 -33.46 50.66 c
-8.91 13.66 0 0 -8.91 13.66 c
-42.83 -64.32 0 0 -42.83 -64.32 c
-33.46 0 0 0 -33.46 0 c
f
5032.14 701 m
-27.64 0 0 0 -27.64 0 c
0 176.09 0 0 0 176.09 c
-6.65 -6.34 -15.37 -12.69 -26.17 -19.04 c
-10.8 -6.35 -20.5 -11.11 -29.09 -14.28 c
0 26.71 0 0 0 26.71 c
15.46 7.27 28.96 16.07 40.53 26.41 c
11.56 10.34 19.75 20.37 24.56 30.09 c
17.81 0 0 0 17.81 0 c
0 -225.98 0 0 0 -225.98 c
f
5247.44 870.95 m
-27.48 -2.15 0 0 -27.48 -2.15 c
-2.46 10.85 -5.94 18.73 -10.44 23.64 c
-7.47 7.88 -16.68 11.82 -27.63 11.82 c
-8.8 0 -16.53 -2.46 -23.18 -7.37 c
-8.7 -6.35 -15.56 -15.61 -20.57 -27.79 c
-5.02 -12.18 -7.62 -29.52 -7.83 -52.04 c
6.65 10.13 14.79 17.66 24.41 22.57 c
9.62 4.91 19.7 7.37 30.24 7.37 c
18.42 0 34.11 -6.78 47.05 -20.34 c
12.95 -13.56 19.42 -31.09 19.42 -52.58 c
0 -14.12 -3.04 -27.25 -9.13 -39.37 c
-6.09 -12.13 -14.46 -21.42 -25.1 -27.87 c
-10.64 -6.45 -22.72 -9.67 -36.23 -9.67 c
-23.03 0 -41.8 8.47 -56.34 25.41 c
-14.54 16.94 -21.8 44.85 -21.8 83.74 c
0 43.5 8.04 75.12 24.1 94.88 c
14.02 17.2 32.91 25.79 56.65 25.79 c
17.71 0 32.21 -4.96 43.52 -14.89 c
11.31 -9.93 18.09 -23.64 20.34 -41.14 c
h
5134.6 773.92 m
0 -9.52 2.02 -18.63 6.07 -27.33 c
4.04 -8.7 9.7 -15.32 16.96 -19.88 c
7.27 -4.55 14.89 -6.83 22.87 -6.83 c
11.67 0 21.7 4.71 30.09 14.13 c
8.39 9.41 12.59 22.21 12.59 38.38 c
0 15.55 -4.14 27.81 -12.43 36.77 c
-8.29 8.96 -18.73 13.43 -31.32 13.43 c
-12.48 0 -23.08 -4.48 -31.78 -13.43 c
-8.7 -8.95 -13.05 -20.7 -13.05 -35.23 c
f
6070.63 701 m
0 53.89 0 0 0 53.89 c
-97.64 0 0 0 -97.64 0 c
0 25.33 0 0 0 25.33 c
102.7 145.84 0 0 102.7 145.84 c
22.57 0 0 0 22.57 0 c
0 -145.84 0 0 0 -145.84 c
30.4 0 0 0 30.4 0 c
0 -25.33 0 0 0 -25.33 c
-30.4 0 0 0 -30.4 0 c
0 -53.89 0 0 0 -53.89 c
-27.63 0 0 0 -27.63 0 c
h
6070.63 780.21 m
0 101.48 0 0 0 101.48 c
-70.46 -101.48 0 0 -70.46 -101.48 c
70.46 0 0 0 70.46 0 c
f
6146.3 701 m
59.56 84.74 0 0 59.56 84.74 c
-55.11 78.29 0 0 -55.11 78.29 c
34.54 0 0 0 34.54 0 c
25.02 -38.23 0 0 25.02 -38.23 c
4.71 -7.27 8.5 -13.36 11.36 -18.27 c
4.5 6.75 8.65 12.74 12.44 17.96 c
27.48 38.53 0 0 27.48 38.53 c
33.01 0 0 0 33.01 0 c
-56.34 -76.76 0 0 -56.34 -76.76 c
60.64 -86.28 0 0 60.64 -86.28 c
-33.93 0 0 0 -33.93 0 c
-33.46 50.66 0 0 -33.46 50.66 c
-8.91 13.66 0 0 -8.91 13.66 c
-42.83 -64.32 0 0 -42.83 -64.32 c
-33.46 0 0 0 -33.46 0 c
f
6461.28 727.56 m
0 -26.56 0 0 0 -26.56 c
-148.76 0 0 0 -148.76 0 c
-0.21 6.65 0.87 13.05 3.22 19.19 c
3.79 10.13 9.85 20.11 18.19 29.93 c
8.34 9.82 20.39 21.19 36.16 34.08 c
24.46 20.06 40.99 35.95 49.59 47.67 c
8.6 11.72 12.89 22.8 12.89 33.23 c
0 10.95 -3.91 20.19 -11.75 27.71 c
-7.83 7.52 -18.04 11.29 -30.62 11.29 c
-13.3 0 -23.95 -3.99 -31.93 -11.98 c
-7.98 -7.98 -12.02 -19.04 -12.12 -33.16 c
-28.4 2.92 0 0 -28.4 2.92 c
1.95 21.19 9.26 37.33 21.95 48.43 c
12.69 11.11 29.73 16.66 51.12 16.66 c
21.6 0 38.69 -5.99 51.28 -17.96 c
12.59 -11.97 18.88 -26.81 18.88 -44.52 c
0 -9.01 -1.84 -17.86 -5.53 -26.56 c
-3.68 -8.7 -9.8 -17.86 -18.35 -27.48 c
-8.55 -9.62 -22.75 -22.82 -42.6 -39.61 c
-16.58 -13.92 -27.22 -23.36 -31.93 -28.32 c
-4.71 -4.96 -8.6 -9.95 -11.67 -14.97 c
110.38 0 0 0 110.38 0 c
f
6491.05 811.99 m
0 26.61 2.73 48.03 8.21 64.25 c
5.48 16.22 13.61 28.73 24.41 37.54 c
10.8 8.8 24.38 13.2 40.76 13.2 c
12.08 0 22.67 -2.43 31.78 -7.29 c
9.11 -4.86 16.63 -11.87 22.57 -21.03 c
5.94 -9.16 10.59 -20.32 13.97 -33.47 c
3.38 -13.15 5.07 -30.88 5.07 -53.2 c
0 -26.4 -2.71 -47.71 -8.14 -63.94 c
-5.42 -16.22 -13.54 -28.76 -24.33 -37.61 c
-10.8 -8.85 -24.43 -13.28 -40.91 -13.28 c
-21.7 0 -38.73 7.78 -51.12 23.34 c
-14.84 18.73 -22.26 49.23 -22.26 91.5 c
h
6519.45 811.99 m
0 -36.95 4.32 -61.53 12.97 -73.77 c
8.65 -12.23 19.32 -18.34 32.01 -18.34 c
12.69 0 23.36 6.14 32.01 18.42 c
8.64 12.28 12.97 36.84 12.97 73.69 c
0 37.05 -4.33 61.66 -12.97 73.84 c
-8.65 12.18 -19.42 18.27 -32.32 18.27 c
-12.69 0 -22.82 -5.37 -30.4 -16.12 c
-9.52 -13.71 -14.28 -39.04 -14.28 -75.99 c
f
947.05 981.99 m
0 26.61 2.73 48.03 8.21 64.25 c
5.48 16.22 13.61 28.73 24.41 37.54 c
10.8 8.8 24.38 13.2 40.76 13.2 c
12.08 0 22.67 -2.43 31.78 -7.29 c
9.11 -4.86 16.63 -11.87 22.57 -21.03 c
5.94 -9.16 10.59 -20.32 13.97 -33.47 c
3.38 -13.15 5.07 -30.88 5.07 -53.2 c
0 -26.4 -2.71 -47.71 -8.14 -63.94 c
-5.42 -16.22 -13.54 -28.76 -24.33 -37.61 c
-10.8 -8.85 -24.43 -13.28 -40.91 -13.28 c
-21.7 0 -38.73 7.78 -51.12 23.34 c
-14.84 18.73 -22.26 49.23 -22.26 91.5 c
h
975.45 981.99 m
0 -36.95 4.32 -61.53 12.97 -73.77 c
8.65 -12.23 19.32 -18.34 32.01 -18.34 c
12.69 0 23.36 6.14 32.01 18.42 c
8.64 12.28 12.97 36.84 12.97 73.69 c
0 37.05 -4.32 61.66 -12.97 73.84 c
-8.65 12.18 -19.42 18.27 -32.32 18.27 c
-12.69 0 -22.82 -5.37 -30.4 -16.12 c
-9.52 -13.71 -14.28 -39.04 -14.28 -75.99 c
f
1137.55 871 m
0 31.47 0 0 0 31.47 c
31.47 0 0 0 31.47 0 c
0 -31.47 0 0 0 -31.47 c
-31.47 0 0 0 -31.47 0 c
f
1208.05 981.99 m
0 26.61 2.73 48.03 8.21 64.25 c
5.48 16.22 13.61 28.73 24.41 37.54 c
10.8 8.8 24.38 13.2 40.76 13.2 c
12.08 0 22.67 -2.43 31.78 -7.29 c
9.11 -4.86 16.63 -11.87 22.57 -21.03 c
5.94 -9.16 10.59 -20.32 13.97 -33.47 c
3.38 -13.15 5.07 -30.88 5.07 -53.2 c
0 -26.4 -2.71 -47.71 -8.14 -63.94 c
-5.42 -16.22 -13.54 -28.76 -24.33 -37.61 c
-10.8 -8.85 -24.43 -13.28 -40.91 -13.28 c
-21.7 0 -38.73 7.78 -51.12 23.34 c
-14.84 18.73 -22.26 49.23 -22.26 91.5 c
h
1236.45 981.99 m
0 -36.95 4.32 -61.53 12.97 -73.77 c
8.65 -12.23 19.32 -18.34 32.01 -18.34 c
12.69 0 23.36 6.14 32.01 18.42 c
8.64 12.28 12.97 36.84 12.97 73.69 c
0 37.05 -4.32 61.66 -12.97 73.84 c
-8.65 12.18 -19.42 18.27 -32.32 18.27 c
-12.69 0 -22.82 -5.37 -30.4 -16.12 c
-9.52 -13.71 -14.28 -39.04 -14.28 -75.99 c
f
947.05 1603.99 m
0 26.61 2.73 48.03 8.21 64.25 c
5.48 16.22 13.61 28.73 24.41 37.54 c
10.8 8.8 24.38 13.2 40.76 13.2 c
12.08 0 22.67 -2.43 31.78 -7.29 c
9.11 -4.86 16.63 -11.87 22.57 -21.03 c
5.94 -9.16 10.59 -20.32 13.97 -33.47 c
3.38 -13.15 5.07 -30.88 5.07 -53.2 c
0 -26.4 -2.71 -47.71 -8.14 -63.94 c
-5.42 -16.22 -13.54 -28.76 -24.33 -37.61 c
-10.8 -8.85 -24.43 -13.28 -40.91 -13.28 c
-21.7 0 -38.73 7.78 -51.12 23.34 c
-14.84 18.73 -22.26 49.23 -22.26 91.5 c
h
975.45 1603.99 m
0 -36.95 4.32 -61.53 12.97 -73.77 c
8.65 -12.23 19.32 -18.34 32.01 -18.34 c
12.69 0 23.36 6.14 32.01 18.42 c
8.64 12.28 12.97 36.84 12.97 73.69 c
0 37.05 -4.32 61.66 -12.97 73.84 c
-8.65 12.18 -19.42 18.27 -32.32 18.27 c
-12.69 0 -22.82 -5.37 -30.4 -16.12 c
-9.52 -13.71 -14.28 -39.04 -14.28 -75.99 c
f
1137.55 1493 m
0 31.47 0 0 0 31.47 c
31.47 0 0 0 31.47 0 c
0 -31.47 0 0 0 -31.47 c
-31.47 0 0 0 -31.47 0 c
f
1353.28 1519.56 m
0 -26.56 0 0 0 -26.56 c
-148.76 0 0 0 -148.76 0 c
-0.21 6.65 0.87 13.05 3.22 19.19 c
3.79 10.13 9.85 20.11 18.19 29.93 c
8.34 9.82 20.39 21.19 36.15 34.08 c
24.46 20.06 40.99 35.95 49.59 47.67 c
8.59 11.72 12.89 22.8 12.89 33.23 c
0 10.95 -3.91 20.19 -11.75 27.71 c
-7.83 7.52 -18.04 11.29 -30.62 11.29 c
-13.3 0 -23.95 -3.99 -31.93 -11.98 c
-7.98 -7.98 -12.02 -19.04 -12.12 -33.16 c
-28.4 2.92 0 0 -28.4 2.92 c
1.95 21.19 9.26 37.33 21.95 48.43 c
12.69 11.11 29.73 16.66 51.12 16.66 c
21.6 0 38.69 -5.99 51.28 -17.96 c
12.59 -11.97 18.88 -26.81 18.88 -44.52 c
0 -9.01 -1.84 -17.86 -5.53 -26.56 c
-3.69 -8.7 -9.8 -17.86 -18.35 -27.48 c
-8.55 -9.62 -22.75 -22.82 -42.6 -39.61 c
-16.58 -13.92 -27.22 -23.36 -31.93 -28.32 c
-4.71 -4.96 -8.6 -9.95 -11.67 -14.97 c
110.38 0 0 0 110.38 0 c
f
947.05 2227.99 m
0 26.61 2.73 48.03 8.21 64.25 c
5.48 16.22 13.61 28.73 24.41 37.54 c
10.8 8.8 24.38 13.2 40.76 13.2 c
12.08 0 22.67 -2.43 31.78 -7.29 c
9.11 -4.86 16.63 -11.87 22.57 -21.03 c
5.94 -9.16 10.59 -20.32 13.97 -33.47 c
3.38 -13.15 5.07 -30.88 5.07 -53.2 c
0 -26.4 -2.71 -47.71 -8.14 -63.94 c
-5.42 -16.22 -13.54 -28.76 -24.33 -37.61 c
-10.8 -8.85 -24.43 -13.28 -40.91 -13.28 c
-21.7 0 -38.73 7.78 -51.12 23.33 c
-14.84 18.73 -22.26 49.23 -22.26 91.5 c
h
975.45 2227.99 m
0 -36.95 4.32 -61.53 12.97 -73.77 c
8.65 -12.23 19.32 -18.34 32.01 -18.34 c
12.69 0 23.36 6.14 32.01 18.42 c
8.64 12.28 12.97 36.84 12.97 73.69 c
0 37.05 -4.32 61.66 -12.97 73.84 c
-8.65 12.18 -19.42 18.27 -32.32 18.27 c
-12.69 0 -22.82 -5.37 -30.4 -16.12 c
-9.52 -13.71 -14.28 -39.04 -14.28 -75.99 c
f
1137.55 2117 m
0 31.47 0 0 0 31.47 c
31.47 0 0 0 31.47 0 c
0 -31.47 0 0 0 -31.47 c
-31.47 0 0 0 -31.47 0 c
f
1296.63 2117 m
0 53.89 0 0 0 53.89 c
-97.64 0 0 0 -97.64 0 c
0 25.33 0 0 0 25.33 c
102.7 145.84 0 0 102.7 145.84 c
22.57 0 0 0 22.57 0 c
0 -145.84 0 0 0 -145.84 c
30.4 0 0 0 30.4 0 c
0 -25.33 0 0 0 -25.33 c
-30.4 0 0 0 -30.4 0 c
0 -53.89 0 0 0 -53.89 c
-27.63 0 0 0 -27.63 0 c
h
1296.63 2196.21 m
0 101.48 0 0 0 101.48 c
-70.46 -101.48 0 0 -70.46 -101.48 c
70.46 0 0 0 70.46 0 c
f
947.05 2848.99 m
0 26.61 2.73 48.03 8.21 64.25 c
5.48 16.22 13.61 28.73 24.41 37.54 c
10.8 8.8 24.38 13.2 40.76 13.2 c
12.08 0 22.67 -2.43 31.78 -7.29 c
9.11 -4.86 16.63 -11.87 22.57 -21.03 c
5.94 -9.16 10.59 -20.32 13.97 -33.47 c
3.38 -13.15 5.07 -30.88 5.07 -53.2 c
0 -26.4 -2.71 -47.71 -8.14 -63.94 c
-5.42 -16.22 -13.54 -28.76 -24.33 -37.61 c
-10.8 -8.85 -24.43 -13.28 -40.91 -13.28 c
-21.7 0 -38.73 7.78 -51.12 23.33 c
-14.84 18.73 -22.26 49.23 -22.26 91.5 c
h
975.45 2848.99 m
0 -36.95 4.32 -61.53 12.97 -73.77 c
8.65 -12.23 19.32 -18.34 32.01 -18.34 c
12.69 0 23.36 6.14 32.01 18.42 c
8.64 12.28 12.97 36.84 12.97 73.69 c
0 37.05 -4.32 61.66 -12.97 73.84 c
-8.65 12.18 -19.42 18.27 -32.32 18.27 c
-12.69 0 -22.82 -5.37 -30.4 -16.12 c
-9.52 -13.71 -14.28 -39.04 -14.28 -75.99 c
f
1137.55 2738 m
0 31.47 0 0 0 31.47 c
31.47 0 0 0 31.47 0 c
0 -31.47 0 0 0 -31.47 c
-31.47 0 0 0 -31.47 0 c
f
1351.44 2907.95 m
-27.48 -2.15 0 0 -27.48 -2.15 c
-2.46 10.85 -5.94 18.73 -10.44 23.64 c
-7.47 7.88 -16.68 11.82 -27.63 11.82 c
-8.8 0 -16.53 -2.46 -23.18 -7.37 c
-8.7 -6.35 -15.56 -15.61 -20.57 -27.79 c
-5.02 -12.18 -7.62 -29.52 -7.83 -52.04 c
6.65 10.13 14.79 17.66 24.41 22.57 c
9.62 4.91 19.7 7.37 30.24 7.37 c
18.42 0 34.11 -6.78 47.05 -20.34 c
12.95 -13.56 19.42 -31.09 19.42 -52.58 c
0 -14.12 -3.04 -27.25 -9.13 -39.37 c
-6.09 -12.13 -14.46 -21.42 -25.1 -27.87 c
-10.64 -6.45 -22.72 -9.67 -36.23 -9.67 c
-23.03 0 -41.81 8.47 -56.34 25.41 c
-14.54 16.94 -21.8 44.85 -21.8 83.74 c
0 43.5 8.04 75.12 24.1 94.88 c
14.02 17.2 32.91 25.79 56.65 25.79 c
17.71 0 32.21 -4.96 43.52 -14.89 c
11.31 -9.93 18.09 -23.64 20.34 -41.14 c
h
1238.6 2810.92 m
0 -9.52 2.02 -18.63 6.07 -27.33 c
4.04 -8.7 9.7 -15.32 16.96 -19.88 c
7.27 -4.55 14.89 -6.83 22.87 -6.83 c
11.67 0 21.7 4.71 30.09 14.13 c
8.39 9.41 12.59 22.21 12.59 38.38 c
0 15.55 -4.14 27.81 -12.43 36.77 c
-8.29 8.96 -18.73 13.43 -31.32 13.43 c
-12.48 0 -23.08 -4.48 -31.78 -13.43 c
-8.7 -8.95 -13.05 -20.7 -13.05 -35.23 c
f
947.05 3470.99 m
0 26.61 2.73 48.03 8.21 64.25 c
5.48 16.22 13.61 28.73 24.41 37.54 c
10.8 8.8 24.38 13.2 40.76 13.2 c
12.08 0 22.67 -2.43 31.78 -7.29 c
9.11 -4.86 16.63 -11.87 22.57 -21.03 c
5.94 -9.16 10.59 -20.32 13.97 -33.47 c
3.38 -13.15 5.07 -30.88 5.07 -53.2 c
0 -26.4 -2.71 -47.71 -8.14 -63.94 c
-5.42 -16.22 -13.54 -28.76 -24.33 -37.61 c
-10.8 -8.85 -24.43 -13.28 -40.91 -13.28 c
-21.7 0 -38.73 7.78 -51.12 23.33 c
-14.84 18.73 -22.26 49.23 -22.26 91.5 c
h
975.45 3470.99 m
0 -36.95 4.32 -61.53 12.97 -73.77 c
8.65 -12.23 19.32 -18.34 32.01 -18.34 c
12.69 0 23.36 6.14 32.01 18.42 c
8.64 12.28 12.97 36.84 12.97 73.69 c
0 37.05 -4.32 61.66 -12.97 73.84 c
-8.65 12.18 -19.42 18.27 -32.32 18.27 c
-12.69 0 -22.82 -5.37 -30.4 -16.12 c
-9.52 -13.71 -14.28 -39.04 -14.28 -75.99 c
f
1137.55 3360 m
0 31.47 0 0 0 31.47 c
31.47 0 0 0 31.47 0 c
0 -31.47 0 0 0 -31.47 c
-31.47 0 0 0 -31.47 0 c
f
1250.57 3482.05 m
-11.46 4.2 -19.96 10.18 -25.48 17.96 c
-5.53 7.78 -8.29 17.09 -8.29 27.94 c
0 16.38 5.88 30.14 17.65 41.3 c
11.77 11.16 27.43 16.73 46.98 16.73 c
19.65 0 35.46 -5.71 47.44 -17.12 c
11.98 -11.41 17.96 -25.3 17.96 -41.68 c
0 -10.44 -2.74 -19.52 -8.21 -27.25 c
-5.48 -7.73 -13.79 -13.69 -24.95 -17.89 c
13.82 -4.5 24.33 -11.77 31.55 -21.8 c
7.21 -10.03 10.82 -22 10.82 -35.92 c
0 -19.24 -6.81 -35.41 -20.42 -48.51 c
-13.61 -13.1 -31.52 -19.65 -53.73 -19.65 c
-22.21 0 -40.12 6.57 -53.73 19.73 c
-13.61 13.15 -20.42 29.55 -20.42 49.2 c
0 14.63 3.71 26.89 11.13 36.77 c
7.42 9.88 17.99 16.61 31.7 20.19 c
h
1245.05 3528.87 m
0 -10.64 3.43 -19.34 10.29 -26.1 c
6.86 -6.76 15.76 -10.13 26.71 -10.13 c
10.64 0 19.37 3.35 26.17 10.05 c
6.81 6.7 10.21 14.92 10.21 24.64 c
0 10.13 -3.5 18.65 -10.52 25.56 c
-7.01 6.91 -15.74 10.36 -26.18 10.36 c
-10.54 0 -19.29 -3.38 -26.25 -10.13 c
-6.96 -6.75 -10.44 -14.84 -10.44 -24.25 c
h
1236.14 3424.94 m
0 -7.88 1.87 -15.5 5.6 -22.87 c
3.73 -7.37 9.29 -13.07 16.66 -17.12 c
7.37 -4.04 15.3 -6.06 23.8 -6.06 c
13.2 0 24.1 4.25 32.7 12.74 c
8.6 8.49 12.89 19.29 12.89 32.39 c
0 13.31 -4.43 24.31 -13.28 33.01 c
-8.86 8.7 -19.93 13.05 -33.24 13.05 c
-13 0 -23.77 -4.3 -32.32 -12.9 c
-8.55 -8.59 -12.82 -19.34 -12.82 -32.24 c
f
1051.14 3984 m
-27.64 0 0 0 -27.64 0 c
0 176.09 0 0 0 176.09 c
-6.65 -6.34 -15.37 -12.69 -26.17 -19.04 c
-10.8 -6.35 -20.5 -11.11 -29.09 -14.28 c
0 26.71 0 0 0 26.71 c
15.45 7.27 28.96 16.07 40.53 26.41 c
11.57 10.34 19.75 20.37 24.57 30.09 c
17.81 0 0 0 17.81 0 c
0 -225.98 0 0 0 -225.98 c
f
1137.55 3984 m
0 31.47 0 0 0 31.47 c
31.47 0 0 0 31.47 0 c
0 -31.47 0 0 0 -31.47 c
-31.47 0 0 0 -31.47 0 c
f
1208.05 4094.99 m
0 26.61 2.73 48.03 8.21 64.25 c
5.48 16.22 13.61 28.73 24.41 37.54 c
10.8 8.8 24.38 13.2 40.76 13.2 c
12.08 0 22.67 -2.43 31.78 -7.29 c
9.11 -4.86 16.63 -11.87 22.57 -21.03 c
5.94 -9.16 10.59 -20.32 13.97 -33.47 c
3.38 -13.15 5.07 -30.88 5.07 -53.2 c
0 -26.4 -2.71 -47.71 -8.14 -63.94 c
-5.42 -16.22 -13.54 -28.76 -24.33 -37.61 c
-10.8 -8.85 -24.43 -13.28 -40.91 -13.28 c
-21.7 0 -38.73 7.78 -51.12 23.33 c
-14.84 18.73 -22.26 49.23 -22.26 91.5 c
h
1236.45 4094.99 m
0 -36.95 4.32 -61.53 12.97 -73.77 c
8.65 -12.23 19.32 -18.34 32.01 -18.34 c
12.69 0 23.36 6.14 32.01 18.42 c
8.64 12.28 12.97 36.84 12.97 73.69 c
0 37.05 -4.32 61.66 -12.97 73.84 c
-8.65 12.18 -19.42 18.27 -32.32 18.27 c
-12.69 0 -22.82 -5.37 -30.4 -16.12 c
-9.52 -13.71 -14.28 -39.04 -14.28 -75.99 c
f
1051.14 4606 m
-27.64 0 0 0 -27.64 0 c
0 176.09 0 0 0 176.09 c
-6.65 -6.34 -15.37 -12.69 -26.17 -19.04 c
-10.8 -6.35 -20.5 -11.11 -29.09 -14.28 c
0 26.71 0 0 0 26.71 c
15.45 7.27 28.96 16.07 40.53 26.41 c
11.57 10.34 19.75 20.37 24.57 30.09 c
17.81 0 0 0 17.81 0 c
0 -225.98 0 0 0 -225.98 c
f
1137.55 4606 m
0 31.47 0 0 0 31.47 c
31.47 0 0 0 31.47 0 c
0 -31.47 0 0 0 -31.47 c
-31.47 0 0 0 -31.47 0 c
f
1353.28 4632.56 m
0 -26.56 0 0 0 -26.56 c
-148.76 0 0 0 -148.76 0 c
-0.21 6.65 0.87 13.05 3.22 19.19 c
3.79 10.13 9.85 20.11 18.19 29.93 c
8.34 9.83 20.39 21.19 36.15 34.08 c
24.46 20.06 40.99 35.95 49.59 47.67 c
8.59 11.72 12.89 22.8 12.89 33.23 c
0 10.95 -3.91 20.19 -11.75 27.71 c
-7.83 7.52 -18.04 11.29 -30.62 11.29 c
-13.3 0 -23.95 -3.99 -31.93 -11.98 c
-7.98 -7.98 -12.02 -19.04 -12.12 -33.16 c
-28.4 2.92 0 0 -28.4 2.92 c
1.95 21.19 9.26 37.33 21.95 48.44 c
12.69 11.1 29.73 16.66 51.12 16.66 c
21.6 0 38.69 -5.99 51.28 -17.96 c
12.59 -11.97 18.88 -26.81 18.88 -44.52 c
0 -9.01 -1.84 -17.86 -5.53 -26.56 c
-3.69 -8.7 -9.8 -17.86 -18.35 -27.48 c
-8.55 -9.62 -22.75 -22.82 -42.6 -39.61 c
-16.58 -13.92 -27.22 -23.36 -31.93 -28.32 c
-4.71 -4.96 -8.6 -9.95 -11.67 -14.97 c
110.38 0 0 0 110.38 0 c
f
14.4003 w
1 J
1 j
q 1 -0.999998 scale
1456.83 -945.62 0 0 S
Q
q 1 -0.999998 scale
2150.44 -945.62 0 0 S
Q
q 1 -0.999998 scale
2844.05 -945.62 0 0 S
Q
q 1 -0.999998 scale
3537.67 -945.62 0 0 S
Q
q 1 -0.999998 scale
4231.28 -945.62 0 0 S
Q
q 1 -0.999998 scale
4924.89 -945.62 0 0 S
Q
q 1 -0.999998 scale
5618.51 -945.62 0 0 S
Q
q 1 -0.999998 scale
6312.12 -945.62 0 0 S
Q
q 1 -0.999998 scale
7005.73 -945.62 0 0 S
Q
q 1 -0.999998 scale
1456.83 -945.62 5548.9 0 S
Q
q 1 -0.999998 scale
1456.83 -945.62 5548.9 0 S
Q
q 1 -0.999998 scale
1456.83 -945.62 0 0 S
Q
q 1 -0.999998 scale
1456.83 -1257.62 0 0 S
Q
q 1 -0.999998 scale
1456.83 -1567.23 0 0 S
Q
q 1 -0.999998 scale
1456.83 -1879.23 0 0 S
Q
q 1 -0.999998 scale
1456.83 -2191.24 0 0 S
Q
q 1 -0.999998 scale
1456.83 -2500.85 0 0 S
Q
q 1 -0.999998 scale
1456.83 -2812.85 0 0 S
Q
q 1 -0.999998 scale
1456.83 -3124.86 0 0 S
Q
q 1 -0.999998 scale
1456.83 -3434.46 0 0 S
Q
q 1 -0.999998 scale
1456.83 -3746.47 0 0 S
Q
q 1 -0.999998 scale
1456.83 -4058.48 0 0 S
Q
q 1 -0.999998 scale
1456.83 -4368.08 0 0 S
Q
q 1 -0.999998 scale
1456.83 -4680.09 0 0 S
Q
q 1 -0.999998 scale
1456.83 -945.62 0 -3734.47 S
Q
794 633.95 m
-225.06 0 0 0 -225.06 0 c
0 30.55 0 0 0 30.55 c
176.7 118.21 0 0 176.7 118.21 c
-176.7 0 0 0 -176.7 0 c
0 28.55 0 0 0 28.55 c
225.06 0 0 0 225.06 0 c
0 -30.55 0 0 0 -30.55 c
-176.86 -118.21 0 0 -176.86 -118.21 c
176.86 0 0 0 176.86 0 c
0 -28.55 0 0 0 -28.55 c
f
712.48 848.44 m
-30.19 0 -52.55 8.39 -67.09 25.18 c
-12.08 14.02 -18.12 31.11 -18.12 51.27 c
0 22.41 7.34 40.73 22.03 54.96 c
14.69 14.23 34.98 21.34 60.87 21.34 c
20.98 0 37.48 -3.15 49.51 -9.44 c
12.03 -6.3 21.37 -15.46 28.02 -27.48 c
6.65 -12.03 9.98 -25.15 9.98 -39.38 c
0 -22.82 -7.32 -41.27 -21.95 -55.34 c
-14.63 -14.07 -35.72 -21.11 -63.25 -21.11 c
h
712.48 876.84 m
20.88 0 36.51 4.55 46.9 13.66 c
10.39 9.11 15.58 20.57 15.58 34.39 c
0 13.71 -5.22 25.13 -15.66 34.23 c
-10.44 9.11 -26.36 13.66 -47.75 13.66 c
-20.16 0 -35.43 -4.58 -45.82 -13.74 c
-10.39 -9.16 -15.58 -20.55 -15.58 -34.16 c
0 -13.82 5.17 -25.28 15.51 -34.39 c
10.34 -9.11 25.94 -13.66 46.82 -13.66 c
f
794 1033.42 m
-163.04 0 0 0 -163.04 0 c
0 24.87 0 0 0 24.87 c
24.71 0 0 0 24.71 0 c
-11.57 6.34 -19.19 12.2 -22.87 17.58 c
-3.68 5.37 -5.53 11.28 -5.53 17.73 c
0 9.31 2.97 18.78 8.91 28.4 c
25.64 -9.52 0 0 25.64 -9.52 c
-3.99 -6.75 -5.99 -13.51 -5.99 -20.27 c
0 -6.04 1.82 -11.46 5.45 -16.27 c
3.64 -4.81 8.68 -8.24 15.13 -10.29 c
9.82 -3.07 20.57 -4.61 32.24 -4.61 c
85.36 0 0 0 85.36 0 c
0 -27.63 0 0 0 -27.63 c
f
794 1138.73 m
-163.04 0 0 0 -163.04 0 c
0 24.71 0 0 0 24.71 c
22.87 0 0 0 22.87 0 c
-7.98 5.12 -14.4 11.92 -19.27 20.42 c
-4.86 8.49 -7.29 18.16 -7.29 29.02 c
0 12.08 2.51 21.98 7.52 29.7 c
5.02 7.73 12.03 13.18 21.03 16.35 c
-19.04 12.89 -28.55 29.68 -28.55 50.36 c
0 16.17 4.48 28.61 13.43 37.3 c
8.96 8.7 22.75 13.05 41.38 13.05 c
111.91 0 0 0 111.91 0 c
0 -27.48 0 0 0 -27.48 c
-102.7 0 0 0 -102.7 0 c
-11.05 0 -19.01 -0.89 -23.87 -2.68 c
-4.86 -1.79 -8.77 -5.04 -11.74 -9.75 c
-2.97 -4.71 -4.45 -10.23 -4.45 -16.58 c
0 -11.46 3.81 -20.98 11.44 -28.55 c
7.63 -7.57 19.83 -11.36 36.61 -11.36 c
94.72 0 0 0 94.72 0 c
0 -27.63 0 0 0 -27.63 c
-105.93 0 0 0 -105.93 0 c
-12.28 0 -21.49 -2.25 -27.63 -6.75 c
-6.14 -4.5 -9.21 -11.87 -9.21 -22.11 c
0 -7.78 2.05 -14.97 6.14 -21.57 c
4.09 -6.6 10.08 -11.39 17.96 -14.36 c
7.88 -2.96 19.24 -4.45 34.08 -4.45 c
84.59 0 0 0 84.59 0 c
0 -27.63 0 0 0 -27.63 c
f
773.89 1507.11 m
8.7 -10.23 14.84 -20.09 18.42 -29.55 c
3.58 -9.47 5.37 -19.62 5.37 -30.48 c
0 -17.91 -4.37 -31.68 -13.12 -41.29 c
-8.75 -9.62 -19.93 -14.43 -33.54 -14.43 c
-7.98 0 -15.28 1.82 -21.88 5.45 c
-6.6 3.64 -11.89 8.39 -15.89 14.28 c
-3.99 5.89 -7.01 12.51 -9.06 19.88 c
-1.43 5.42 -2.81 13.61 -4.14 24.56 c
-2.66 22.31 -5.84 38.74 -9.52 49.28 c
-3.79 0.11 -6.19 0.16 -7.21 0.16 c
-11.26 0 -19.19 -2.61 -23.79 -7.83 c
-6.25 -7.06 -9.37 -17.55 -9.37 -31.47 c
0 -13 2.28 -22.59 6.83 -28.79 c
4.55 -6.19 12.61 -10.77 24.18 -13.74 c
-3.68 -27.02 0 0 -3.68 -27.02 c
-11.57 2.45 -20.91 6.5 -28.02 12.13 c
-7.11 5.63 -12.59 13.77 -16.43 24.41 c
-3.84 10.64 -5.76 22.98 -5.76 37 c
0 13.92 1.64 25.23 4.91 33.93 c
3.27 8.7 7.39 15.09 12.36 19.19 c
4.96 4.09 11.23 6.96 18.8 8.59 c
4.71 0.92 13.2 1.38 25.48 1.38 c
36.84 0 0 0 36.84 0 c
25.69 0 41.94 0.59 48.74 1.77 c
6.8 1.18 13.33 3.5 19.57 6.98 c
0 -28.86 0 0 0 -28.86 c
-5.73 -2.87 -12.43 -4.71 -20.11 -5.53 c
h
712.18 1504.81 m
4.09 -10.03 7.57 -25.07 10.44 -45.13 c
1.64 -11.36 3.48 -19.39 5.53 -24.1 c
2.05 -4.71 5.04 -8.34 8.98 -10.9 c
3.94 -2.56 8.32 -3.84 13.13 -3.84 c
7.37 0 13.51 2.79 18.42 8.37 c
4.91 5.58 7.37 13.74 7.37 24.48 c
0 10.64 -2.33 20.11 -6.98 28.4 c
-4.66 8.29 -11.03 14.38 -19.11 18.27 c
-6.25 2.96 -15.46 4.45 -27.63 4.45 c
-10.13 0 0 0 -10.13 0 c
f
794 1575.11 m
-225.06 0 0 0 -225.06 0 c
0 27.64 0 0 0 27.64 c
225.06 0 0 0 225.06 0 c
0 -27.64 0 0 0 -27.64 c
f
600.72 1645.88 m
-31.78 0 0 0 -31.78 0 c
0 27.63 0 0 0 27.63 c
31.78 0 0 0 31.78 0 c
0 -27.63 0 0 0 -27.63 c
h
794 1645.88 m
-163.04 0 0 0 -163.04 0 c
0 27.63 0 0 0 27.63 c
163.04 0 0 0 163.04 0 c
0 -27.63 0 0 0 -27.63 c
f
794 1700.14 m
-22.41 0 0 0 -22.41 0 c
-119.13 103.78 0 0 -119.13 103.78 c
0.61 -11.77 0.92 -22.16 0.92 -31.16 c
0 -66.47 0 0 0 -66.47 c
-22.41 0 0 0 -22.41 0 c
0 133.25 0 0 0 133.25 c
18.27 0 0 0 18.27 0 c
103.47 -88.27 0 0 103.47 -88.27 c
18.88 -17.04 0 0 18.88 -17.04 c
-0.92 12.38 -1.38 24 -1.38 34.85 c
0 75.38 0 0 0 75.38 c
23.8 0 0 0 23.8 0 c
0 -144.31 0 0 0 -144.31 c
f
741.5 1985.33 m
3.53 28.55 0 0 3.53 28.55 c
16.68 -4.5 29.63 -12.84 38.84 -25.02 c
9.21 -12.18 13.82 -27.73 13.82 -46.67 c
0 -23.85 -7.34 -42.76 -22.03 -56.73 c
-14.69 -13.97 -35.29 -20.95 -61.79 -20.95 c
-27.43 0 -48.71 7.06 -63.86 21.18 c
-15.15 14.13 -22.72 32.44 -22.72 54.96 c
0 21.8 7.42 39.61 22.26 53.42 c
14.84 13.82 35.72 20.73 62.64 20.73 c
1.64 0 4.09 -0.05 7.37 -0.15 c
0 -121.59 0 0 0 -121.59 c
17.91 1.03 31.63 6.09 41.14 15.2 c
9.52 9.11 14.28 20.47 14.28 34.08 c
0 10.13 -2.66 18.78 -7.98 25.95 c
-5.32 7.16 -13.82 12.84 -25.48 17.04 c
h
696.82 1894.6 m
0 91.04 0 0 0 91.04 c
-13.71 -1.23 -24 -4.71 -30.86 -10.44 c
-10.64 -8.8 -15.96 -20.21 -15.96 -34.23 c
0 -12.69 4.25 -23.36 12.74 -32.01 c
8.49 -8.65 19.86 -13.43 34.08 -14.36 c
f
794 2154.5 m
-20.57 0 0 0 -20.57 0 c
16.17 -10.34 24.25 -25.54 24.25 -45.6 c
0 -13 -3.58 -24.95 -10.75 -35.84 c
-7.16 -10.9 -17.17 -19.34 -30.01 -25.33 c
-12.84 -5.99 -27.61 -8.98 -44.29 -8.98 c
-16.27 0 -31.04 2.71 -44.29 8.14 c
-13.25 5.42 -23.41 13.56 -30.47 24.41 c
-7.06 10.85 -10.59 22.98 -10.59 36.38 c
0 9.82 2.07 18.57 6.22 26.25 c
4.14 7.68 9.54 13.92 16.2 18.73 c
-80.75 0 0 0 -80.75 0 c
0 27.48 0 0 0 27.48 c
225.06 0 0 0 225.06 0 c
0 -25.64 0 0 0 -25.64 c
h
712.64 2067.15 m
20.88 0 36.48 4.4 46.82 13.2 c
10.34 8.8 15.51 19.19 15.51 31.16 c
0 12.07 -4.94 22.34 -14.82 30.78 c
-9.87 8.45 -24.95 12.67 -45.21 12.67 c
-22.31 0 -38.69 -4.3 -49.12 -12.9 c
-10.44 -8.59 -15.66 -19.19 -15.66 -31.78 c
0 -12.28 5.02 -22.54 15.05 -30.78 c
10.03 -8.24 25.84 -12.36 47.44 -12.36 c
f
715.09 2474.84 m
7.52 29.78 0 0 7.52 29.78 c
24.46 -6.24 43.11 -17.47 55.96 -33.7 c
12.85 -16.22 19.27 -36.05 19.27 -59.49 c
0 -24.26 -4.94 -43.98 -14.82 -59.18 c
-9.87 -15.2 -24.18 -26.76 -42.91 -34.7 c
-18.73 -7.93 -38.84 -11.89 -60.33 -11.89 c
-23.44 0 -43.88 4.48 -61.33 13.43 c
-17.45 8.96 -30.71 21.7 -39.76 38.23 c
-9.06 16.53 -13.59 34.72 -13.59 54.58 c
0 22.52 5.73 41.45 17.19 56.8 c
11.46 15.35 27.58 26.05 48.36 32.09 c
6.91 -29.32 0 0 6.91 -29.32 c
-16.37 -5.22 -28.3 -12.79 -35.77 -22.72 c
-7.47 -9.93 -11.21 -22.41 -11.21 -37.46 c
0 -17.3 4.15 -31.75 12.44 -43.37 c
8.29 -11.62 19.42 -19.78 33.39 -24.48 c
13.97 -4.71 28.38 -7.06 43.21 -7.06 c
19.14 0 35.85 2.79 50.13 8.37 c
14.28 5.57 24.95 14.25 32.01 26.02 c
7.06 11.77 10.59 24.51 10.59 38.23 c
0 16.68 -4.81 30.8 -14.43 42.37 c
-9.62 11.57 -23.9 19.39 -42.83 23.49 c
f
712.48 2528.44 m
-30.19 0 -52.55 8.39 -67.09 25.18 c
-12.08 14.02 -18.12 31.11 -18.12 51.27 c
0 22.41 7.34 40.73 22.03 54.96 c
14.69 14.23 34.98 21.34 60.87 21.34 c
20.98 0 37.48 -3.15 49.51 -9.44 c
12.03 -6.3 21.37 -15.46 28.02 -27.48 c
6.65 -12.03 9.98 -25.15 9.98 -39.38 c
0 -22.82 -7.32 -41.27 -21.95 -55.34 c
-14.63 -14.07 -35.72 -21.11 -63.25 -21.11 c
h
712.48 2556.84 m
20.88 0 36.51 4.55 46.9 13.66 c
10.39 9.11 15.58 20.57 15.58 34.39 c
0 13.71 -5.22 25.13 -15.66 34.23 c
-10.44 9.11 -26.36 13.66 -47.75 13.66 c
-20.16 0 -35.43 -4.58 -45.82 -13.74 c
-10.39 -9.16 -15.58 -20.55 -15.58 -34.16 c
0 -13.82 5.17 -25.28 15.51 -34.39 c
10.34 -9.11 25.94 -13.66 46.82 -13.66 c
f
794 2713.73 m
-163.04 0 0 0 -163.04 0 c
0 24.87 0 0 0 24.87 c
23.18 0 0 0 23.18 0 c
-17.91 11.98 -26.87 29.27 -26.87 51.89 c
0 9.82 1.77 18.86 5.3 27.09 c
3.53 8.24 8.16 14.41 13.89 18.5 c
5.73 4.09 12.54 6.96 20.42 8.6 c
5.12 1.02 14.07 1.54 26.87 1.54 c
100.25 0 0 0 100.25 0 c
0 -27.63 0 0 0 -27.63 c
-99.17 0 0 0 -99.17 0 c
-11.26 0 -19.68 -1.07 -25.25 -3.22 c
-5.58 -2.15 -10.03 -5.96 -13.36 -11.44 c
-3.33 -5.48 -4.99 -11.9 -4.99 -19.27 c
0 -11.77 3.73 -21.93 11.21 -30.47 c
7.47 -8.55 21.65 -12.82 42.53 -12.82 c
89.04 0 0 0 89.04 0 c
0 -27.63 0 0 0 -27.63 c
f
769.29 2949.06 m
24.41 3.99 0 0 24.41 3.99 c
1.64 -7.78 2.46 -14.74 2.46 -20.88 c
0 -10.03 -1.59 -17.81 -4.76 -23.34 c
-3.17 -5.53 -7.34 -9.41 -12.51 -11.67 c
-5.17 -2.25 -16.04 -3.37 -32.62 -3.37 c
-93.8 0 0 0 -93.8 0 c
0 -20.27 0 0 0 -20.27 c
-21.49 0 0 0 -21.49 0 c
0 20.27 0 0 0 20.27 c
-40.38 0 0 0 -40.38 0 c
-16.58 27.48 0 0 -16.58 27.48 c
56.96 0 0 0 56.96 0 c
0 27.79 0 0 0 27.79 c
21.49 0 0 0 21.49 0 c
0 -27.79 0 0 0 -27.79 c
95.33 0 0 0 95.33 0 c
7.88 0 12.95 0.49 15.2 1.46 c
2.25 0.97 4.04 2.56 5.38 4.76 c
1.33 2.2 2 5.35 2 9.44 c
0 3.07 -0.36 7.11 -1.07 12.13 c
f
741.5 3086.33 m
3.53 28.55 0 0 3.53 28.55 c
16.68 -4.5 29.63 -12.84 38.84 -25.02 c
9.21 -12.18 13.82 -27.73 13.82 -46.67 c
0 -23.85 -7.34 -42.76 -22.03 -56.73 c
-14.69 -13.97 -35.29 -20.95 -61.79 -20.95 c
-27.43 0 -48.71 7.06 -63.86 21.18 c
-15.15 14.13 -22.72 32.44 -22.72 54.96 c
0 21.8 7.42 39.61 22.26 53.42 c
14.84 13.82 35.72 20.73 62.64 20.73 c
1.64 0 4.09 -0.05 7.37 -0.15 c
0 -121.59 0 0 0 -121.59 c
17.91 1.03 31.63 6.09 41.14 15.2 c
9.52 9.11 14.28 20.47 14.28 34.08 c
0 10.13 -2.66 18.78 -7.98 25.95 c
-5.32 7.16 -13.82 12.84 -25.48 17.04 c
h
696.82 2995.6 m
0 91.04 0 0 0 91.04 c
-13.71 -1.23 -24 -4.71 -30.86 -10.44 c
-10.64 -8.8 -15.96 -20.21 -15.96 -34.23 c
0 -12.69 4.25 -23.36 12.74 -32.01 c
8.49 -8.65 19.86 -13.43 34.08 -14.36 c
f
794 3150.73 m
-163.04 0 0 0 -163.04 0 c
0 24.87 0 0 0 24.87 c
23.18 0 0 0 23.18 0 c
-17.91 11.98 -26.87 29.27 -26.87 51.89 c
0 9.82 1.77 18.86 5.3 27.09 c
3.53 8.24 8.16 14.41 13.89 18.5 c
5.73 4.09 12.54 6.96 20.42 8.6 c
5.12 1.02 14.07 1.54 26.87 1.54 c
100.25 0 0 0 100.25 0 c
0 -27.63 0 0 0 -27.63 c
-99.17 0 0 0 -99.17 0 c
-11.26 0 -19.68 -1.07 -25.25 -3.22 c
-5.58 -2.15 -10.03 -5.96 -13.36 -11.44 c
-3.33 -5.48 -4.99 -11.9 -4.99 -19.27 c
0 -11.77 3.73 -21.93 11.21 -30.47 c
7.47 -8.55 21.65 -12.82 42.53 -12.82 c
89.04 0 0 0 89.04 0 c
0 -27.63 0 0 0 -27.63 c
f
769.29 3386.06 m
24.41 3.99 0 0 24.41 3.99 c
1.64 -7.78 2.46 -14.74 2.46 -20.88 c
0 -10.03 -1.59 -17.81 -4.76 -23.34 c
-3.17 -5.53 -7.34 -9.41 -12.51 -11.67 c
-5.17 -2.25 -16.04 -3.37 -32.62 -3.37 c
-93.8 0 0 0 -93.8 0 c
0 -20.27 0 0 0 -20.27 c
-21.49 0 0 0 -21.49 0 c
0 20.27 0 0 0 20.27 c
-40.38 0 0 0 -40.38 0 c
-16.58 27.48 0 0 -16.58 27.48 c
56.96 0 0 0 56.96 0 c
0 27.79 0 0 0 27.79 c
21.49 0 0 0 21.49 0 c
0 -27.79 0 0 0 -27.79 c
95.33 0 0 0 95.33 0 c
7.88 0 12.95 0.49 15.2 1.46 c
2.25 0.97 4.04 2.56 5.38 4.76 c
1.33 2.2 2 5.35 2 9.44 c
0 3.07 -0.36 7.11 -1.07 12.13 c
f
600.72 3411.88 m
-31.78 0 0 0 -31.78 0 c
0 27.63 0 0 0 27.63 c
31.78 0 0 0 31.78 0 c
0 -27.63 0 0 0 -27.63 c
h
794 3411.88 m
-163.04 0 0 0 -163.04 0 c
0 27.63 0 0 0 27.63 c
163.04 0 0 0 163.04 0 c
0 -27.63 0 0 0 -27.63 c
f
712.48 3471.44 m
-30.19 0 -52.55 8.39 -67.09 25.18 c
-12.08 14.02 -18.12 31.11 -18.12 51.27 c
0 22.41 7.34 40.73 22.03 54.96 c
14.69 14.23 34.98 21.34 60.87 21.34 c
20.98 0 37.48 -3.15 49.51 -9.44 c
12.03 -6.3 21.37 -15.46 28.02 -27.48 c
6.65 -12.03 9.98 -25.15 9.98 -39.38 c
0 -22.82 -7.32 -41.27 -21.95 -55.34 c
-14.63 -14.07 -35.72 -21.11 -63.25 -21.11 c
h
712.48 3499.84 m
20.88 0 36.51 4.55 46.9 13.66 c
10.39 9.11 15.58 20.57 15.58 34.39 c
0 13.71 -5.22 25.13 -15.66 34.23 c
-10.44 9.11 -26.36 13.66 -47.75 13.66 c
-20.16 0 -35.43 -4.58 -45.82 -13.74 c
-10.39 -9.16 -15.58 -20.55 -15.58 -34.16 c
0 -13.82 5.17 -25.28 15.51 -34.39 c
10.34 -9.11 25.94 -13.66 46.82 -13.66 c
f
794 3656.73 m
-163.04 0 0 0 -163.04 0 c
0 24.87 0 0 0 24.87 c
23.18 0 0 0 23.18 0 c
-17.91 11.98 -26.87 29.27 -26.87 51.89 c
0 9.82 1.77 18.86 5.3 27.09 c
3.53 8.24 8.16 14.41 13.89 18.5 c
5.73 4.09 12.54 6.96 20.42 8.6 c
5.12 1.02 14.07 1.54 26.87 1.54 c
100.25 0 0 0 100.25 0 c
0 -27.63 0 0 0 -27.63 c
-99.17 0 0 0 -99.17 0 c
-11.26 0 -19.68 -1.07 -25.25 -3.22 c
-5.58 -2.15 -10.03 -5.96 -13.36 -11.44 c
-3.33 -5.48 -4.99 -11.9 -4.99 -19.27 c
0 -11.77 3.73 -21.93 11.21 -30.47 c
7.47 -8.55 21.65 -12.82 42.53 -12.82 c
89.04 0 0 0 89.04 0 c
0 -27.63 0 0 0 -27.63 c
f
794 3979.52 m
-198.5 0 0 0 -198.5 0 c
0 -74.15 0 0 0 -74.15 c
-26.56 0 0 0 -26.56 0 c
0 178.39 0 0 0 178.39 c
26.56 0 0 0 26.56 0 c
0 -74.46 0 0 0 -74.46 c
198.5 0 0 0 198.5 0 c
0 -29.78 0 0 0 -29.78 c
f
600.72 4110.88 m
-31.78 0 0 0 -31.78 0 c
0 27.63 0 0 0 27.63 c
31.78 0 0 0 31.78 0 c
0 -27.63 0 0 0 -27.63 c
h
794 4110.88 m
-163.04 0 0 0 -163.04 0 c
0 27.63 0 0 0 27.63 c
163.04 0 0 0 163.04 0 c
0 -27.63 0 0 0 -27.63 c
f
794 4179.73 m
-163.04 0 0 0 -163.04 0 c
0 24.71 0 0 0 24.71 c
22.87 0 0 0 22.87 0 c
-7.98 5.12 -14.4 11.92 -19.27 20.42 c
-4.86 8.49 -7.29 18.16 -7.29 29.02 c
0 12.08 2.51 21.98 7.52 29.7 c
5.02 7.73 12.03 13.18 21.03 16.35 c
-19.04 12.89 -28.55 29.68 -28.55 50.36 c
0 16.17 4.48 28.61 13.43 37.3 c
8.96 8.7 22.75 13.05 41.38 13.05 c
111.91 0 0 0 111.91 0 c
0 -27.48 0 0 0 -27.48 c
-102.7 0 0 0 -102.7 0 c
-11.05 0 -19.01 -0.89 -23.87 -2.68 c
-4.86 -1.79 -8.77 -5.04 -11.74 -9.75 c
-2.97 -4.71 -4.45 -10.23 -4.45 -16.58 c
0 -11.46 3.81 -20.98 11.44 -28.55 c
7.63 -7.57 19.83 -11.36 36.61 -11.36 c
94.72 0 0 0 94.72 0 c
0 -27.63 0 0 0 -27.63 c
-105.93 0 0 0 -105.93 0 c
-12.28 0 -21.49 -2.25 -27.63 -6.75 c
-6.14 -4.5 -9.21 -11.87 -9.21 -22.11 c
0 -7.78 2.05 -14.97 6.14 -21.57 c
4.09 -6.6 10.08 -11.39 17.96 -14.36 c
7.88 -2.96 19.24 -4.45 34.08 -4.45 c
84.59 0 0 0 84.59 0 c
0 -27.63 0 0 0 -27.63 c
f
741.5 4553.33 m
3.53 28.55 0 0 3.53 28.55 c
16.68 -4.5 29.63 -12.84 38.84 -25.02 c
9.21 -12.18 13.82 -27.73 13.82 -46.67 c
0 -23.85 -7.34 -42.76 -22.03 -56.73 c
-14.69 -13.97 -35.29 -20.95 -61.79 -20.95 c
-27.43 0 -48.71 7.06 -63.86 21.18 c
-15.15 14.13 -22.72 32.44 -22.72 54.96 c
0 21.8 7.42 39.61 22.26 53.42 c
14.84 13.82 35.72 20.73 62.64 20.73 c
1.64 0 4.09 -0.05 7.37 -0.15 c
0 -121.59 0 0 0 -121.59 c
17.91 1.03 31.63 6.09 41.14 15.2 c
9.52 9.11 14.28 20.47 14.28 34.08 c
0 10.13 -2.66 18.78 -7.98 25.95 c
-5.32 7.16 -13.82 12.84 -25.48 17.04 c
h
696.82 4462.6 m
0 91.04 0 0 0 91.04 c
-13.71 -1.23 -24 -4.71 -30.86 -10.44 c
-10.64 -8.8 -15.96 -20.21 -15.96 -34.23 c
0 -12.69 4.25 -23.36 12.74 -32.01 c
8.49 -8.65 19.86 -13.43 34.08 -14.36 c
f
3397.95 233 m
0 225.06 0 0 0 225.06 c
30.55 0 0 0 30.55 0 c
118.21 -176.7 0 0 118.21 -176.7 c
0 176.7 0 0 0 176.7 c
28.55 0 0 0 28.55 0 c
0 -225.06 0 0 0 -225.06 c
-30.55 0 0 0 -30.55 0 c
-118.21 176.85 0 0 -118.21 176.85 c
0 -176.85 0 0 0 -176.85 c
-28.55 0 0 0 -28.55 0 c
f
3734.33 285.5 m
28.55 -3.53 0 0 28.55 -3.53 c
-4.5 -16.68 -12.84 -29.63 -25.02 -38.84 c
-12.18 -9.21 -27.73 -13.82 -46.67 -13.82 c
-23.85 0 -42.75 7.34 -56.73 22.03 c
-13.97 14.69 -20.95 35.29 -20.95 61.79 c
0 27.43 7.06 48.71 21.18 63.86 c
14.13 15.15 32.45 22.72 54.96 22.72 c
21.8 0 39.61 -7.42 53.42 -22.26 c
13.82 -14.84 20.73 -35.72 20.73 -62.64 c
0 -1.64 -0.05 -4.09 -0.15 -7.37 c
-121.59 0 0 0 -121.59 0 c
1.02 -17.91 6.09 -31.62 15.2 -41.14 c
9.11 -9.52 20.47 -14.28 34.08 -14.28 c
10.13 0 18.78 2.66 25.95 7.98 c
7.16 5.32 12.84 13.82 17.04 25.48 c
h
3643.61 330.18 m
91.04 0 0 0 91.04 0 c
-1.23 13.71 -4.71 24 -10.44 30.86 c
-8.8 10.64 -20.21 15.96 -34.23 15.96 c
-12.69 0 -23.36 -4.25 -32.01 -12.74 c
-8.65 -8.49 -13.43 -19.86 -14.35 -34.08 c
f
3859.06 257.71 m
3.99 -24.41 0 0 3.99 -24.41 c
-7.78 -1.64 -14.74 -2.46 -20.88 -2.46 c
-10.03 0 -17.81 1.59 -23.34 4.76 c
-5.53 3.17 -9.41 7.34 -11.67 12.51 c
-2.25 5.17 -3.37 16.04 -3.37 32.63 c
0 93.8 0 0 0 93.8 c
-20.27 0 0 0 -20.27 0 c
0 21.49 0 0 0 21.49 c
20.27 0 0 0 20.27 0 c
0 40.38 0 0 0 40.38 c
27.48 16.58 0 0 27.48 16.58 c
0 -56.96 0 0 0 -56.96 c
27.79 0 0 0 27.79 0 c
0 -21.49 0 0 0 -21.49 c
-27.79 0 0 0 -27.79 0 c
0 -95.33 0 0 0 -95.33 c
0 -7.88 0.49 -12.95 1.46 -15.2 c
0.97 -2.25 2.56 -4.04 4.76 -5.37 c
2.2 -1.33 5.35 -2 9.44 -2 c
3.07 0 7.11 0.36 12.13 1.07 c
f
3914.82 233 m
-49.89 163.04 0 0 -49.89 163.04 c
28.55 0 0 0 28.55 0 c
25.95 -94.11 0 0 25.95 -94.11 c
9.67 -35 0 0 9.67 -35 c
0.41 1.74 3.22 12.95 8.44 33.62 c
25.95 95.49 0 0 25.95 95.49 c
28.4 0 0 0 28.4 0 c
24.41 -94.57 0 0 24.41 -94.57 c
8.14 -31.16 0 0 8.14 -31.16 c
9.37 31.47 0 0 9.37 31.47 c
27.94 94.26 0 0 27.94 94.26 c
26.87 0 0 0 26.87 0 c
-50.97 -163.04 0 0 -50.97 -163.04 c
-28.71 0 0 0 -28.71 0 c
-25.95 97.64 0 0 -25.95 97.64 c
-6.29 27.79 0 0 -6.29 27.79 c
-33.01 -125.43 0 0 -33.01 -125.43 c
-28.86 0 0 0 -28.86 0 c
f
4097.44 314.52 m
0 30.19 8.39 52.55 25.18 67.09 c
14.02 12.08 31.11 18.12 51.27 18.12 c
22.41 0 40.73 -7.34 54.96 -22.03 c
14.23 -14.69 21.34 -34.98 21.34 -60.87 c
0 -20.98 -3.15 -37.48 -9.44 -49.51 c
-6.3 -12.03 -15.46 -21.37 -27.48 -28.02 c
-12.02 -6.65 -25.15 -9.98 -39.38 -9.98 c
-22.82 0 -41.27 7.32 -55.34 21.95 c
-14.07 14.63 -21.11 35.72 -21.11 63.25 c
h
4125.84 314.52 m
0 -20.88 4.55 -36.51 13.66 -46.9 c
9.11 -10.39 20.57 -15.58 34.39 -15.58 c
13.71 0 25.13 5.22 34.23 15.66 c
9.11 10.44 13.66 26.36 13.66 47.74 c
0 20.16 -4.58 35.44 -13.74 45.83 c
-9.16 10.39 -20.55 15.58 -34.16 15.58 c
-13.82 0 -25.28 -5.17 -34.39 -15.51 c
-9.11 -10.34 -13.66 -25.94 -13.66 -46.82 c
f
4282.42 233 m
0 163.04 0 0 0 163.04 c
24.87 0 0 0 24.87 0 c
0 -24.71 0 0 0 -24.71 c
6.34 11.56 12.2 19.19 17.58 22.88 c
5.37 3.68 11.28 5.53 17.73 5.53 c
9.31 0 18.78 -2.97 28.4 -8.91 c
-9.52 -25.64 0 0 -9.52 -25.64 c
-6.75 3.99 -13.51 5.99 -20.27 5.99 c
-6.04 0 -11.46 -1.82 -16.27 -5.45 c
-4.81 -3.63 -8.24 -8.67 -10.29 -15.12 c
-3.07 -9.82 -4.61 -20.57 -4.61 -32.24 c
0 -85.36 0 0 0 -85.36 c
-27.63 0 0 0 -27.63 0 c
f
4388.88 233 m
0 225.06 0 0 0 225.06 c
27.63 0 0 0 27.63 0 c
0 -128.34 0 0 0 -128.34 c
65.4 66.32 0 0 65.4 66.32 c
35.77 0 0 0 35.77 0 c
-62.33 -60.48 0 0 -62.33 -60.48 c
68.63 -102.55 0 0 68.63 -102.55 c
-34.08 0 0 0 -34.08 0 c
-53.89 83.36 0 0 -53.89 83.36 c
-19.5 -18.73 0 0 -19.5 -18.73 c
0 -64.63 0 0 0 -64.63 c
-27.63 0 0 0 -27.63 0 c
f
4535.67 281.66 m
27.33 4.3 0 0 27.33 4.3 c
1.54 -10.95 5.8 -19.34 12.82 -25.18 c
7.01 -5.83 16.81 -8.75 29.4 -8.75 c
12.69 0 22.11 2.59 28.25 7.75 c
6.14 5.17 9.21 11.23 9.21 18.19 c
0 6.24 -2.71 11.16 -8.14 14.74 c
-3.79 2.46 -13.2 5.58 -28.25 9.36 c
-20.26 5.12 -34.31 9.55 -42.14 13.28 c
-7.83 3.73 -13.77 8.9 -17.81 15.5 c
-4.04 6.6 -6.06 13.89 -6.06 21.88 c
0 7.27 1.66 14 4.99 20.19 c
3.33 6.19 7.86 11.33 13.59 15.43 c
4.3 3.18 10.16 5.86 17.58 8.06 c
7.42 2.2 15.38 3.3 23.88 3.3 c
12.79 0 24.02 -1.84 33.7 -5.53 c
9.67 -3.69 16.81 -8.68 21.42 -14.97 c
4.61 -6.29 7.78 -14.71 9.52 -25.25 c
-27.02 -3.68 0 0 -27.02 -3.68 c
-1.23 8.39 -4.79 14.94 -10.67 19.65 c
-5.88 4.71 -14.2 7.06 -24.95 7.06 c
-12.69 0 -21.75 -2.1 -27.18 -6.29 c
-5.42 -4.2 -8.14 -9.11 -8.14 -14.74 c
0 -3.58 1.13 -6.8 3.38 -9.67 c
2.25 -2.97 5.78 -5.43 10.59 -7.37 c
2.76 -1.02 10.9 -3.37 24.41 -7.06 c
19.55 -5.22 33.18 -9.49 40.91 -12.82 c
7.73 -3.33 13.79 -8.16 18.19 -14.51 c
4.4 -6.34 6.6 -14.23 6.6 -23.64 c
0 -9.21 -2.68 -17.89 -8.06 -26.02 c
-5.37 -8.14 -13.12 -14.43 -23.26 -18.88 c
-10.13 -4.45 -21.59 -6.68 -34.39 -6.68 c
-21.19 0 -37.33 4.4 -48.44 13.2 c
-11.1 8.8 -18.19 21.85 -21.26 39.14 c
f
4691.14 233 m
0 22.41 0 0 0 22.41 c
103.78 119.13 0 0 103.78 119.13 c
-11.77 -0.61 -22.16 -0.92 -31.16 -0.92 c
-66.47 0 0 0 -66.47 0 c
0 22.41 0 0 0 22.41 c
133.25 0 0 0 133.25 0 c
0 -18.27 0 0 0 -18.27 c
-88.27 -103.47 0 0 -88.27 -103.47 c
-17.04 -18.88 0 0 -17.04 -18.88 c
12.38 0.92 24 1.38 34.85 1.38 c
75.38 0 0 0 75.38 0 c
0 -23.8 0 0 0 -23.8 c
-144.31 0 0 0 -144.31 0 c
f
4863.88 426.28 m
0 31.78 0 0 0 31.78 c
27.63 0 0 0 27.63 0 c
0 -31.78 0 0 0 -31.78 c
-27.63 0 0 0 -27.63 0 c
h
4863.88 233 m
0 163.04 0 0 0 163.04 c
27.63 0 0 0 27.63 0 c
0 -163.04 0 0 0 -163.04 c
-27.63 0 0 0 -27.63 0 c
f
5045.33 285.5 m
28.55 -3.53 0 0 28.55 -3.53 c
-4.5 -16.68 -12.84 -29.63 -25.02 -38.84 c
-12.18 -9.21 -27.73 -13.82 -46.67 -13.82 c
-23.85 0 -42.75 7.34 -56.73 22.03 c
-13.97 14.69 -20.95 35.29 -20.95 61.79 c
0 27.43 7.06 48.71 21.18 63.86 c
14.13 15.15 32.45 22.72 54.96 22.72 c
21.8 0 39.61 -7.42 53.42 -22.26 c
13.82 -14.84 20.73 -35.72 20.73 -62.64 c
0 -1.64 -0.05 -4.09 -0.15 -7.37 c
-121.59 0 0 0 -121.59 0 c
1.02 -17.91 6.09 -31.62 15.2 -41.14 c
9.11 -9.52 20.47 -14.28 34.08 -14.28 c
10.13 0 18.78 2.66 25.95 7.98 c
7.16 5.32 12.84 13.82 17.04 25.48 c
h
4954.61 330.18 m
91.04 0 0 0 91.04 0 c
-1.23 13.71 -4.71 24 -10.44 30.86 c
-8.8 10.64 -20.21 15.96 -34.23 15.96 c
-12.69 0 -23.36 -4.25 -32.01 -12.74 c
-8.65 -8.49 -13.43 -19.86 -14.35 -34.08 c
f
255 G
1500.03 4869.68 6244.93 780.012 re
f*
4.80009 w
K
q 1 -0.999998 scale
1500.03 -5649.71 6244.91 0 0 780.01 ^ H
S
Q
1617.63 5282.49 691.215 338.406 re
f*
9.60018 w
q 1 -0.999998 scale
1617.63 -5620.9 691.21 0 0 338.41 ^ H
S
Q
2425.95 5345 m
0 225.06 0 0 0 225.06 c
30.55 0 0 0 30.55 0 c
118.21 -176.7 0 0 118.21 -176.7 c
0 176.7 0 0 0 176.7 c
28.55 0 0 0 28.55 0 c
0 -225.06 0 0 0 -225.06 c
-30.55 0 0 0 -30.55 0 c
-118.21 176.85 0 0 -118.21 176.85 c
0 -176.85 0 0 0 -176.85 c
-28.55 0 0 0 -28.55 0 c
f
2640.44 5426.52 m
0 30.19 8.39 52.55 25.18 67.09 c
14.02 12.08 31.11 18.12 51.27 18.12 c
22.41 0 40.73 -7.34 54.96 -22.03 c
14.23 -14.69 21.34 -34.98 21.34 -60.87 c
0 -20.98 -3.15 -37.48 -9.44 -49.51 c
-6.3 -12.03 -15.46 -21.37 -27.48 -28.02 c
-12.02 -6.65 -25.15 -9.98 -39.38 -9.98 c
-22.82 0 -41.27 7.32 -55.34 21.95 c
-14.07 14.63 -21.11 35.72 -21.11 63.25 c
h
2668.84 5426.52 m
0 -20.88 4.55 -36.51 13.66 -46.9 c
9.11 -10.39 20.57 -15.58 34.39 -15.58 c
13.71 0 25.13 5.22 34.23 15.66 c
9.11 10.44 13.66 26.36 13.66 47.75 c
0 20.16 -4.58 35.43 -13.74 45.82 c
-9.16 10.39 -20.55 15.58 -34.16 15.58 c
-13.82 0 -25.28 -5.17 -34.39 -15.51 c
-9.11 -10.34 -13.66 -25.94 -13.66 -46.82 c
f
2826.42 5345 m
0 163.04 0 0 0 163.04 c
24.87 0 0 0 24.87 0 c
0 -24.71 0 0 0 -24.71 c
6.34 11.56 12.2 19.19 17.58 22.88 c
5.37 3.68 11.28 5.53 17.73 5.53 c
9.31 0 18.78 -2.97 28.4 -8.91 c
-9.52 -25.64 0 0 -9.52 -25.64 c
-6.75 3.99 -13.51 5.99 -20.27 5.99 c
-6.04 0 -11.46 -1.82 -16.27 -5.45 c
-4.81 -3.63 -8.24 -8.67 -10.29 -15.12 c
-3.07 -9.82 -4.61 -20.57 -4.61 -32.24 c
0 -85.36 0 0 0 -85.36 c
-27.63 0 0 0 -27.63 0 c
f
2931.73 5345 m
0 163.04 0 0 0 163.04 c
24.71 0 0 0 24.71 0 c
0 -22.87 0 0 0 -22.87 c
5.12 7.98 11.93 14.4 20.42 19.27 c
8.5 4.86 18.17 7.29 29.02 7.29 c
12.08 0 21.98 -2.51 29.71 -7.52 c
7.73 -5.02 13.18 -12.03 16.35 -21.03 c
12.89 19.04 29.68 28.55 50.36 28.55 c
16.17 0 28.61 -4.48 37.3 -13.43 c
8.7 -8.96 13.05 -22.75 13.05 -41.37 c
0 -111.91 0 0 0 -111.91 c
-27.48 0 0 0 -27.48 0 c
0 102.7 0 0 0 102.7 c
0 11.05 -0.89 19.01 -2.69 23.87 c
-1.79 4.86 -5.04 8.78 -9.75 11.75 c
-4.71 2.97 -10.23 4.45 -16.58 4.45 c
-11.46 0 -20.98 -3.81 -28.55 -11.44 c
-7.57 -7.62 -11.36 -19.83 -11.36 -36.61 c
0 -94.72 0 0 0 -94.72 c
-27.64 0 0 0 -27.64 0 c
0 105.93 0 0 0 105.93 c
0 12.28 -2.25 21.49 -6.75 27.63 c
-4.5 6.14 -11.87 9.21 -22.11 9.21 c
-7.78 0 -14.97 -2.05 -21.57 -6.14 c
-6.6 -4.09 -11.39 -10.08 -14.35 -17.96 c
-2.97 -7.88 -4.45 -19.24 -4.45 -34.08 c
0 -84.59 0 0 0 -84.59 c
-27.63 0 0 0 -27.63 0 c
f
3300.11 5365.11 m
-10.23 -8.7 -20.09 -14.84 -29.55 -18.42 c
-9.47 -3.58 -19.62 -5.37 -30.48 -5.37 c
-17.91 0 -31.67 4.38 -41.29 13.13 c
-9.62 8.75 -14.43 19.93 -14.43 33.54 c
0 7.98 1.82 15.28 5.45 21.88 c
3.64 6.6 8.39 11.89 14.28 15.89 c
5.89 3.99 12.51 7.01 19.88 9.06 c
5.42 1.43 13.61 2.81 24.56 4.14 c
22.31 2.66 38.74 5.83 49.28 9.52 c
0.1 3.79 0.15 6.19 0.15 7.21 c
0 11.26 -2.61 19.19 -7.83 23.79 c
-7.06 6.25 -17.55 9.37 -31.47 9.37 c
-13 0 -22.59 -2.28 -28.79 -6.83 c
-6.19 -4.55 -10.77 -12.61 -13.74 -24.18 c
-27.02 3.68 0 0 -27.02 3.68 c
2.45 11.57 6.5 20.91 12.13 28.02 c
5.63 7.11 13.77 12.59 24.41 16.43 c
10.64 3.84 22.98 5.76 37 5.76 c
13.92 0 25.23 -1.64 33.93 -4.91 c
8.7 -3.27 15.1 -7.39 19.19 -12.36 c
4.09 -4.96 6.96 -11.23 8.6 -18.8 c
0.92 -4.71 1.38 -13.2 1.38 -25.48 c
0 -36.84 0 0 0 -36.84 c
0 -25.69 0.59 -41.94 1.77 -48.74 c
1.18 -6.8 3.51 -13.33 6.98 -19.57 c
-28.86 0 0 0 -28.86 0 c
-2.87 5.73 -4.71 12.43 -5.53 20.11 c
h
3297.81 5426.82 m
-10.03 -4.09 -25.07 -7.57 -45.14 -10.44 c
-11.36 -1.64 -19.39 -3.48 -24.1 -5.53 c
-4.71 -2.05 -8.34 -5.04 -10.9 -8.98 c
-2.56 -3.94 -3.84 -8.32 -3.84 -13.12 c
0 -7.37 2.79 -13.51 8.37 -18.42 c
5.58 -4.91 13.74 -7.37 24.48 -7.37 c
10.64 0 20.11 2.33 28.4 6.98 c
8.29 4.66 14.38 11.03 18.27 19.11 c
2.97 6.25 4.45 15.46 4.45 27.63 c
0 10.13 0 0 0 10.13 c
f
3368.11 5345 m
0 225.06 0 0 0 225.06 c
27.64 0 0 0 27.64 0 c
0 -225.06 0 0 0 -225.06 c
-27.64 0 0 0 -27.64 0 c
f
3438.88 5538.28 m
0 31.78 0 0 0 31.78 c
27.63 0 0 0 27.63 0 c
0 -31.78 0 0 0 -31.78 c
-27.63 0 0 0 -27.63 0 c
h
3438.88 5345 m
0 163.04 0 0 0 163.04 c
27.63 0 0 0 27.63 0 c
0 -163.04 0 0 0 -163.04 c
-27.63 0 0 0 -27.63 0 c
f
3493.14 5345 m
0 22.41 0 0 0 22.41 c
103.78 119.13 0 0 103.78 119.13 c
-11.77 -0.61 -22.16 -0.92 -31.16 -0.92 c
-66.47 0 0 0 -66.47 0 c
0 22.41 0 0 0 22.41 c
133.25 0 0 0 133.25 0 c
0 -18.27 0 0 0 -18.27 c
-88.27 -103.47 0 0 -88.27 -103.47 c
-17.04 -18.88 0 0 -17.04 -18.88 c
12.38 0.92 24 1.38 34.85 1.38 c
75.38 0 0 0 75.38 0 c
0 -23.8 0 0 0 -23.8 c
-144.31 0 0 0 -144.31 0 c
f
3778.33 5397.5 m
28.55 -3.53 0 0 28.55 -3.53 c
-4.5 -16.68 -12.84 -29.63 -25.02 -38.84 c
-12.18 -9.21 -27.73 -13.82 -46.67 -13.82 c
-23.85 0 -42.75 7.34 -56.73 22.03 c
-13.97 14.69 -20.95 35.29 -20.95 61.79 c
0 27.43 7.06 48.71 21.18 63.86 c
14.13 15.15 32.45 22.72 54.96 22.72 c
21.8 0 39.61 -7.42 53.42 -22.26 c
13.82 -14.84 20.73 -35.72 20.73 -62.64 c
0 -1.64 -0.05 -4.09 -0.15 -7.37 c
-121.59 0 0 0 -121.59 0 c
1.02 -17.91 6.09 -31.62 15.2 -41.14 c
9.11 -9.52 20.47 -14.28 34.08 -14.28 c
10.13 0 18.78 2.66 25.95 7.98 c
7.16 5.32 12.84 13.82 17.04 25.48 c
h
3687.61 5442.18 m
91.04 0 0 0 91.04 0 c
-1.23 13.71 -4.71 24 -10.44 30.86 c
-8.8 10.64 -20.21 15.96 -34.23 15.96 c
-12.69 0 -23.36 -4.25 -32.01 -12.74 c
-8.65 -8.49 -13.43 -19.86 -14.35 -34.08 c
f
3947.5 5345 m
0 20.57 0 0 0 20.57 c
-10.34 -16.17 -25.54 -24.25 -45.59 -24.25 c
-13 0 -24.95 3.58 -35.85 10.75 c
-10.9 7.16 -19.34 17.17 -25.33 30.01 c
-5.99 12.84 -8.98 27.61 -8.98 44.29 c
0 16.27 2.71 31.04 8.14 44.29 c
5.43 13.25 13.56 23.41 24.41 30.47 c
10.85 7.06 22.98 10.59 36.38 10.59 c
9.82 0 18.58 -2.07 26.25 -6.22 c
7.68 -4.14 13.92 -9.54 18.73 -16.2 c
0 80.75 0 0 0 80.75 c
27.48 0 0 0 27.48 0 c
0 -225.06 0 0 0 -225.06 c
-25.64 0 0 0 -25.64 0 c
h
3860.15 5426.36 m
0 -20.87 4.4 -36.48 13.2 -46.82 c
8.8 -10.34 19.19 -15.51 31.16 -15.51 c
12.07 0 22.34 4.94 30.78 14.82 c
8.45 9.88 12.67 24.95 12.67 45.21 c
0 22.31 -4.3 38.69 -12.89 49.13 c
-8.6 10.44 -19.19 15.66 -31.78 15.66 c
-12.28 0 -22.54 -5.02 -30.78 -15.05 c
-8.24 -10.03 -12.36 -25.84 -12.36 -47.44 c
f
4105.03 5345 m
0 225.06 0 0 0 225.06 c
29.79 0 0 0 29.79 0 c
0 -198.5 0 0 0 -198.5 c
110.84 0 0 0 110.84 0 c
0 -26.56 0 0 0 -26.56 c
-140.62 0 0 0 -140.62 0 c
f
4278.88 5538.28 m
0 31.78 0 0 0 31.78 c
27.63 0 0 0 27.63 0 c
0 -31.78 0 0 0 -31.78 c
-27.63 0 0 0 -27.63 0 c
h
4278.88 5345 m
0 163.04 0 0 0 163.04 c
27.63 0 0 0 27.63 0 c
0 -163.04 0 0 0 -163.04 c
-27.63 0 0 0 -27.63 0 c
f
4347.73 5345 m
0 163.04 0 0 0 163.04 c
24.87 0 0 0 24.87 0 c
0 -23.18 0 0 0 -23.18 c
11.98 17.91 29.27 26.87 51.89 26.87 c
9.82 0 18.86 -1.77 27.1 -5.3 c
8.24 -3.53 14.4 -8.16 18.5 -13.89 c
4.1 -5.73 6.96 -12.54 8.6 -20.42 c
1.02 -5.12 1.54 -14.07 1.54 -26.87 c
0 -100.25 0 0 0 -100.25 c
-27.63 0 0 0 -27.63 0 c
0 99.17 0 0 0 99.17 c
0 11.26 -1.07 19.68 -3.22 25.25 c
-2.15 5.58 -5.96 10.03 -11.44 13.36 c
-5.48 3.33 -11.9 4.99 -19.27 4.99 c
-11.77 0 -21.93 -3.74 -30.48 -11.21 c
-8.54 -7.47 -12.82 -21.65 -12.82 -42.53 c
0 -89.04 0 0 0 -89.04 c
-27.63 0 0 0 -27.63 0 c
f
4522.88 5345 m
0 225.06 0 0 0 225.06 c
27.63 0 0 0 27.63 0 c
0 -128.34 0 0 0 -128.34 c
65.4 66.32 0 0 65.4 66.32 c
35.77 0 0 0 35.77 0 c
-62.33 -60.48 0 0 -62.33 -60.48 c
68.63 -102.55 0 0 68.63 -102.55 c
-34.08 0 0 0 -34.08 0 c
-53.89 83.36 0 0 -53.89 83.36 c
-19.5 -18.73 0 0 -19.5 -18.73 c
0 -64.63 0 0 0 -64.63 c
-27.63 0 0 0 -27.63 0 c
f
4931.84 5423.91 m
29.79 -7.52 0 0 29.79 -7.52 c
-6.25 -24.46 -17.48 -43.11 -33.7 -55.96 c
-16.22 -12.85 -36.05 -19.27 -59.49 -19.27 c
-24.26 0 -43.98 4.94 -59.18 14.81 c
-15.2 9.88 -26.77 24.18 -34.7 42.91 c
-7.93 18.73 -11.9 38.84 -11.9 60.33 c
0 23.44 4.48 43.88 13.43 61.33 c
8.95 17.45 21.7 30.71 38.22 39.76 c
16.53 9.06 34.72 13.59 54.58 13.59 c
22.52 0 41.45 -5.73 56.8 -17.19 c
15.35 -11.46 26.05 -27.58 32.09 -48.36 c
-29.32 -6.91 0 0 -29.32 -6.91 c
-5.22 16.38 -12.79 28.3 -22.72 35.77 c
-9.93 7.47 -22.41 11.21 -37.46 11.21 c
-17.3 0 -31.75 -4.14 -43.37 -12.43 c
-11.62 -8.29 -19.78 -19.42 -24.48 -33.39 c
-4.71 -13.97 -7.06 -28.37 -7.06 -43.21 c
0 -19.14 2.79 -35.85 8.37 -50.12 c
5.58 -14.28 14.25 -24.95 26.02 -32.01 c
11.77 -7.06 24.51 -10.59 38.23 -10.59 c
16.68 0 30.81 4.81 42.37 14.43 c
11.57 9.62 19.39 23.9 23.49 42.83 c
f
4985.44 5426.52 m
0 30.19 8.39 52.55 25.18 67.09 c
14.02 12.08 31.11 18.12 51.27 18.12 c
22.41 0 40.73 -7.34 54.96 -22.03 c
14.23 -14.69 21.34 -34.98 21.34 -60.87 c
0 -20.98 -3.15 -37.48 -9.44 -49.51 c
-6.3 -12.03 -15.46 -21.37 -27.48 -28.02 c
-12.02 -6.65 -25.15 -9.98 -39.38 -9.98 c
-22.82 0 -41.27 7.32 -55.34 21.95 c
-14.07 14.63 -21.11 35.72 -21.11 63.25 c
h
5013.84 5426.52 m
0 -20.88 4.55 -36.51 13.66 -46.9 c
9.11 -10.39 20.57 -15.58 34.39 -15.58 c
13.71 0 25.13 5.22 34.23 15.66 c
9.11 10.44 13.66 26.36 13.66 47.75 c
0 20.16 -4.58 35.43 -13.74 45.82 c
-9.16 10.39 -20.55 15.58 -34.16 15.58 c
-13.82 0 -25.28 -5.17 -34.39 -15.51 c
-9.11 -10.34 -13.66 -25.94 -13.66 -46.82 c
f
5170.73 5345 m
0 163.04 0 0 0 163.04 c
24.87 0 0 0 24.87 0 c
0 -23.18 0 0 0 -23.18 c
11.98 17.91 29.27 26.87 51.89 26.87 c
9.82 0 18.86 -1.77 27.1 -5.3 c
8.24 -3.53 14.4 -8.16 18.5 -13.89 c
4.1 -5.73 6.96 -12.54 8.6 -20.42 c
1.02 -5.12 1.54 -14.07 1.54 -26.87 c
0 -100.25 0 0 0 -100.25 c
-27.63 0 0 0 -27.63 0 c
0 99.17 0 0 0 99.17 c
0 11.26 -1.07 19.68 -3.22 25.25 c
-2.15 5.58 -5.96 10.03 -11.44 13.36 c
-5.48 3.33 -11.9 4.99 -19.27 4.99 c
-11.77 0 -21.93 -3.74 -30.48 -11.21 c
-8.54 -7.47 -12.82 -21.65 -12.82 -42.53 c
0 -89.04 0 0 0 -89.04 c
-27.63 0 0 0 -27.63 0 c
f
5407.06 5369.71 m
3.99 -24.41 0 0 3.99 -24.41 c
-7.78 -1.64 -14.74 -2.46 -20.88 -2.46 c
-10.03 0 -17.81 1.59 -23.34 4.76 c
-5.53 3.18 -9.41 7.34 -11.67 12.51 c
-2.25 5.17 -3.37 16.04 -3.37 32.63 c
0 93.8 0 0 0 93.8 c
-20.27 0 0 0 -20.27 0 c
0 21.49 0 0 0 21.49 c
20.27 0 0 0 20.27 0 c
0 40.38 0 0 0 40.38 c
27.48 16.58 0 0 27.48 16.58 c
0 -56.96 0 0 0 -56.96 c
27.79 0 0 0 27.79 0 c
0 -21.49 0 0 0 -21.49 c
-27.79 0 0 0 -27.79 0 c
0 -95.33 0 0 0 -95.33 c
0 -7.88 0.49 -12.95 1.46 -15.2 c
0.97 -2.25 2.56 -4.04 4.76 -5.37 c
2.2 -1.33 5.35 -2 9.44 -2 c
3.07 0 7.11 0.36 12.13 1.07 c
f
5544.33 5397.5 m
28.55 -3.53 0 0 28.55 -3.53 c
-4.5 -16.68 -12.84 -29.63 -25.02 -38.84 c
-12.18 -9.21 -27.73 -13.82 -46.67 -13.82 c
-23.85 0 -42.75 7.34 -56.73 22.03 c
-13.97 14.69 -20.95 35.29 -20.95 61.79 c
0 27.43 7.06 48.71 21.18 63.86 c
14.13 15.15 32.45 22.72 54.96 22.72 c
21.8 0 39.61 -7.42 53.42 -22.26 c
13.82 -14.84 20.73 -35.72 20.73 -62.64 c
0 -1.64 -0.05 -4.09 -0.15 -7.37 c
-121.59 0 0 0 -121.59 0 c
1.02 -17.91 6.09 -31.62 15.2 -41.14 c
9.11 -9.52 20.47 -14.28 34.08 -14.28 c
10.13 0 18.78 2.66 25.95 7.98 c
7.16 5.32 12.84 13.82 17.04 25.48 c
h
5453.61 5442.18 m
91.04 0 0 0 91.04 0 c
-1.23 13.71 -4.71 24 -10.44 30.86 c
-8.8 10.64 -20.21 15.96 -34.23 15.96 c
-12.69 0 -23.36 -4.25 -32.01 -12.74 c
-8.65 -8.49 -13.43 -19.86 -14.35 -34.08 c
f
5607.73 5345 m
0 163.04 0 0 0 163.04 c
24.87 0 0 0 24.87 0 c
0 -23.18 0 0 0 -23.18 c
11.98 17.91 29.27 26.87 51.89 26.87 c
9.82 0 18.86 -1.77 27.1 -5.3 c
8.24 -3.53 14.4 -8.16 18.5 -13.89 c
4.1 -5.73 6.96 -12.54 8.6 -20.42 c
1.02 -5.12 1.54 -14.07 1.54 -26.87 c
0 -100.25 0 0 0 -100.25 c
-27.63 0 0 0 -27.63 0 c
0 99.17 0 0 0 99.17 c
0 11.26 -1.07 19.68 -3.22 25.25 c
-2.15 5.58 -5.96 10.03 -11.44 13.36 c
-5.48 3.33 -11.9 4.99 -19.27 4.99 c
-11.77 0 -21.93 -3.74 -30.48 -11.21 c
-8.54 -7.47 -12.82 -21.65 -12.82 -42.53 c
0 -89.04 0 0 0 -89.04 c
-27.63 0 0 0 -27.63 0 c
f
5843.06 5369.71 m
3.99 -24.41 0 0 3.99 -24.41 c
-7.78 -1.64 -14.74 -2.46 -20.88 -2.46 c
-10.03 0 -17.81 1.59 -23.34 4.76 c
-5.53 3.18 -9.41 7.34 -11.67 12.51 c
-2.25 5.17 -3.37 16.04 -3.37 32.63 c
0 93.8 0 0 0 93.8 c
-20.27 0 0 0 -20.27 0 c
0 21.49 0 0 0 21.49 c
20.27 0 0 0 20.27 0 c
0 40.38 0 0 0 40.38 c
27.48 16.58 0 0 27.48 16.58 c
0 -56.96 0 0 0 -56.96 c
27.79 0 0 0 27.79 0 c
0 -21.49 0 0 0 -21.49 c
-27.79 0 0 0 -27.79 0 c
0 -95.33 0 0 0 -95.33 c
0 -7.88 0.49 -12.95 1.46 -15.2 c
0.97 -2.25 2.56 -4.04 4.76 -5.37 c
2.2 -1.33 5.35 -2 9.44 -2 c
3.07 0 7.11 0.36 12.13 1.07 c
f
5869.88 5538.28 m
0 31.78 0 0 0 31.78 c
27.63 0 0 0 27.63 0 c
0 -31.78 0 0 0 -31.78 c
-27.63 0 0 0 -27.63 0 c
h
5869.88 5345 m
0 163.04 0 0 0 163.04 c
27.63 0 0 0 27.63 0 c
0 -163.04 0 0 0 -163.04 c
-27.63 0 0 0 -27.63 0 c
f
5928.44 5426.52 m
0 30.19 8.39 52.55 25.18 67.09 c
14.02 12.08 31.11 18.12 51.27 18.12 c
22.41 0 40.73 -7.34 54.96 -22.03 c
14.23 -14.69 21.34 -34.98 21.34 -60.87 c
0 -20.98 -3.15 -37.48 -9.44 -49.51 c
-6.3 -12.03 -15.46 -21.37 -27.48 -28.02 c
-12.02 -6.65 -25.15 -9.98 -39.38 -9.98 c
-22.82 0 -41.27 7.32 -55.34 21.95 c
-14.07 14.63 -21.11 35.72 -21.11 63.25 c
h
5956.84 5426.52 m
0 -20.88 4.55 -36.51 13.66 -46.9 c
9.11 -10.39 20.57 -15.58 34.39 -15.58 c
13.71 0 25.13 5.22 34.23 15.66 c
9.11 10.44 13.66 26.36 13.66 47.75 c
0 20.16 -4.58 35.43 -13.74 45.82 c
-9.16 10.39 -20.55 15.58 -34.16 15.58 c
-13.82 0 -25.28 -5.17 -34.39 -15.51 c
-9.11 -10.34 -13.66 -25.94 -13.66 -46.82 c
f
6114.73 5345 m
0 163.04 0 0 0 163.04 c
24.87 0 0 0 24.87 0 c
0 -23.18 0 0 0 -23.18 c
11.98 17.91 29.27 26.87 51.89 26.87 c
9.82 0 18.86 -1.77 27.1 -5.3 c
8.24 -3.53 14.4 -8.16 18.5 -13.89 c
4.1 -5.73 6.96 -12.54 8.6 -20.42 c
1.02 -5.12 1.54 -14.07 1.54 -26.87 c
0 -100.25 0 0 0 -100.25 c
-27.63 0 0 0 -27.63 0 c
0 99.17 0 0 0 99.17 c
0 11.26 -1.07 19.68 -3.22 25.25 c
-2.15 5.58 -5.96 10.03 -11.44 13.36 c
-5.48 3.33 -11.9 4.99 -19.27 4.99 c
-11.77 0 -21.93 -3.74 -30.48 -11.21 c
-8.54 -7.47 -12.82 -21.65 -12.82 -42.53 c
0 -89.04 0 0 0 -89.04 c
-27.63 0 0 0 -27.63 0 c
f
6436.52 5345 m
0 198.5 0 0 0 198.5 c
-74.15 0 0 0 -74.15 0 c
0 26.56 0 0 0 26.56 c
178.39 0 0 0 178.39 0 c
0 -26.56 0 0 0 -26.56 c
-74.46 0 0 0 -74.46 0 c
0 -198.5 0 0 0 -198.5 c
-29.78 0 0 0 -29.78 0 c
f
6567.88 5538.28 m
0 31.78 0 0 0 31.78 c
27.63 0 0 0 27.63 0 c
0 -31.78 0 0 0 -31.78 c
-27.63 0 0 0 -27.63 0 c
h
6567.88 5345 m
0 163.04 0 0 0 163.04 c
27.63 0 0 0 27.63 0 c
0 -163.04 0 0 0 -163.04 c
-27.63 0 0 0 -27.63 0 c
f
6637.73 5345 m
0 163.04 0 0 0 163.04 c
24.71 0 0 0 24.71 0 c
0 -22.87 0 0 0 -22.87 c
5.12 7.98 11.93 14.4 20.42 19.27 c
8.5 4.86 18.17 7.29 29.02 7.29 c
12.08 0 21.98 -2.51 29.71 -7.52 c
7.73 -5.02 13.18 -12.03 16.35 -21.03 c
12.89 19.04 29.68 28.55 50.36 28.55 c
16.17 0 28.61 -4.48 37.3 -13.43 c
8.7 -8.96 13.05 -22.75 13.05 -41.37 c
0 -111.91 0 0 0 -111.91 c
-27.48 0 0 0 -27.48 0 c
0 102.7 0 0 0 102.7 c
0 11.05 -0.89 19.01 -2.69 23.87 c
-1.79 4.86 -5.04 8.78 -9.75 11.75 c
-4.71 2.97 -10.23 4.45 -16.58 4.45 c
-11.46 0 -20.98 -3.81 -28.55 -11.44 c
-7.57 -7.62 -11.36 -19.83 -11.36 -36.61 c
0 -94.72 0 0 0 -94.72 c
-27.64 0 0 0 -27.64 0 c
0 105.93 0 0 0 105.93 c
0 12.28 -2.25 21.49 -6.75 27.63 c
-4.5 6.14 -11.87 9.21 -22.11 9.21 c
-7.78 0 -14.97 -2.05 -21.57 -6.14 c
-6.6 -4.09 -11.39 -10.08 -14.35 -17.96 c
-2.97 -7.88 -4.45 -19.24 -4.45 -34.08 c
0 -84.59 0 0 0 -84.59 c
-27.63 0 0 0 -27.63 0 c
f
7010.33 5397.5 m
28.55 -3.53 0 0 28.55 -3.53 c
-4.5 -16.68 -12.84 -29.63 -25.02 -38.84 c
-12.18 -9.21 -27.73 -13.82 -46.67 -13.82 c
-23.85 0 -42.75 7.34 -56.73 22.03 c
-13.97 14.69 -20.95 35.29 -20.95 61.79 c
0 27.43 7.06 48.71 21.18 63.86 c
14.13 15.15 32.45 22.72 54.96 22.72 c
21.8 0 39.61 -7.42 53.42 -22.26 c
13.82 -14.84 20.73 -35.72 20.73 -62.64 c
0 -1.64 -0.05 -4.09 -0.15 -7.37 c
-121.59 0 0 0 -121.59 0 c
1.02 -17.91 6.09 -31.62 15.2 -41.14 c
9.11 -9.52 20.47 -14.28 34.08 -14.28 c
10.13 0 18.78 2.66 25.95 7.98 c
7.16 5.32 12.84 13.82 17.04 25.48 c
h
6919.61 5442.18 m
91.04 0 0 0 91.04 0 c
-1.23 13.71 -4.71 24 -10.44 30.86 c
-8.8 10.64 -20.21 15.96 -34.23 15.96 c
-12.69 0 -23.36 -4.25 -32.01 -12.74 c
-8.65 -8.49 -13.43 -19.86 -14.35 -34.08 c
f
255 0 r3
1617.63 4893.68 691.215 338.406 re
f*
K
q 1 -0.999998 scale
1617.63 -5232.1 691.21 0 0 338.41 ^ H
S
Q
2425.95 4956 m
0 225.06 0 0 0 225.06 c
30.55 0 0 0 30.55 0 c
118.21 -176.7 0 0 118.21 -176.7 c
0 176.7 0 0 0 176.7 c
28.55 0 0 0 28.55 0 c
0 -225.06 0 0 0 -225.06 c
-30.55 0 0 0 -30.55 0 c
-118.21 176.85 0 0 -118.21 176.85 c
0 -176.85 0 0 0 -176.85 c
-28.55 0 0 0 -28.55 0 c
f
2640.44 5037.52 m
0 30.19 8.39 52.55 25.18 67.09 c
14.02 12.08 31.11 18.12 51.27 18.12 c
22.41 0 40.73 -7.34 54.96 -22.03 c
14.23 -14.69 21.34 -34.98 21.34 -60.87 c
0 -20.98 -3.15 -37.48 -9.44 -49.51 c
-6.3 -12.03 -15.46 -21.37 -27.48 -28.02 c
-12.02 -6.65 -25.15 -9.98 -39.38 -9.98 c
-22.82 0 -41.27 7.32 -55.34 21.95 c
-14.07 14.63 -21.11 35.72 -21.11 63.25 c
h
2668.84 5037.52 m
0 -20.88 4.55 -36.51 13.66 -46.9 c
9.11 -10.39 20.57 -15.58 34.39 -15.58 c
13.71 0 25.13 5.22 34.23 15.66 c
9.11 10.44 13.66 26.36 13.66 47.75 c
0 20.16 -4.58 35.43 -13.74 45.82 c
-9.16 10.39 -20.55 15.58 -34.16 15.58 c
-13.82 0 -25.28 -5.17 -34.39 -15.51 c
-9.11 -10.34 -13.66 -25.94 -13.66 -46.82 c
f
2826.42 4956 m
0 163.04 0 0 0 163.04 c
24.87 0 0 0 24.87 0 c
0 -24.71 0 0 0 -24.71 c
6.34 11.56 12.2 19.19 17.58 22.88 c
5.37 3.68 11.28 5.53 17.73 5.53 c
9.31 0 18.78 -2.97 28.4 -8.91 c
-9.52 -25.64 0 0 -9.52 -25.64 c
-6.75 3.99 -13.51 5.99 -20.27 5.99 c
-6.04 0 -11.46 -1.82 -16.27 -5.45 c
-4.81 -3.63 -8.24 -8.67 -10.29 -15.12 c
-3.07 -9.82 -4.61 -20.57 -4.61 -32.24 c
0 -85.36 0 0 0 -85.36 c
-27.63 0 0 0 -27.63 0 c
f
2931.73 4956 m
0 163.04 0 0 0 163.04 c
24.71 0 0 0 24.71 0 c
0 -22.87 0 0 0 -22.87 c
5.12 7.98 11.93 14.4 20.42 19.27 c
8.5 4.86 18.17 7.29 29.02 7.29 c
12.08 0 21.98 -2.51 29.71 -7.52 c
7.73 -5.02 13.18 -12.03 16.35 -21.03 c
12.89 19.04 29.68 28.55 50.36 28.55 c
16.17 0 28.61 -4.48 37.3 -13.43 c
8.7 -8.96 13.05 -22.75 13.05 -41.37 c
0 -111.91 0 0 0 -111.91 c
-27.48 0 0 0 -27.48 0 c
0 102.7 0 0 0 102.7 c
0 11.05 -0.89 19.01 -2.69 23.87 c
-1.79 4.86 -5.04 8.78 -9.75 11.75 c
-4.71 2.97 -10.23 4.45 -16.58 4.45 c
-11.46 0 -20.98 -3.81 -28.55 -11.44 c
-7.57 -7.62 -11.36 -19.83 -11.36 -36.61 c
0 -94.72 0 0 0 -94.72 c
-27.64 0 0 0 -27.64 0 c
0 105.93 0 0 0 105.93 c
0 12.28 -2.25 21.49 -6.75 27.63 c
-4.5 6.14 -11.87 9.21 -22.11 9.21 c
-7.78 0 -14.97 -2.05 -21.57 -6.14 c
-6.6 -4.09 -11.39 -10.08 -14.35 -17.96 c
-2.97 -7.88 -4.45 -19.24 -4.45 -34.08 c
0 -84.59 0 0 0 -84.59 c
-27.63 0 0 0 -27.63 0 c
f
3300.11 4976.11 m
-10.23 -8.7 -20.09 -14.84 -29.55 -18.42 c
-9.47 -3.58 -19.62 -5.37 -30.48 -5.37 c
-17.91 0 -31.67 4.38 -41.29 13.13 c
-9.62 8.75 -14.43 19.93 -14.43 33.54 c
0 7.98 1.82 15.28 5.45 21.88 c
3.64 6.6 8.39 11.89 14.28 15.89 c
5.89 3.99 12.51 7.01 19.88 9.06 c
5.42 1.43 13.61 2.81 24.56 4.14 c
22.31 2.66 38.74 5.83 49.28 9.52 c
0.1 3.79 0.15 6.19 0.15 7.21 c
0 11.26 -2.61 19.19 -7.83 23.79 c
-7.06 6.25 -17.55 9.37 -31.47 9.37 c
-13 0 -22.59 -2.28 -28.79 -6.83 c
-6.19 -4.55 -10.77 -12.61 -13.74 -24.18 c
-27.02 3.68 0 0 -27.02 3.68 c
2.45 11.57 6.5 20.91 12.13 28.02 c
5.63 7.11 13.77 12.59 24.41 16.43 c
10.64 3.84 22.98 5.76 37 5.76 c
13.92 0 25.23 -1.64 33.93 -4.91 c
8.7 -3.27 15.1 -7.39 19.19 -12.36 c
4.09 -4.96 6.96 -11.23 8.6 -18.8 c
0.92 -4.71 1.38 -13.2 1.38 -25.48 c
0 -36.84 0 0 0 -36.84 c
0 -25.69 0.59 -41.94 1.77 -48.74 c
1.18 -6.8 3.51 -13.33 6.98 -19.57 c
-28.86 0 0 0 -28.86 0 c
-2.87 5.73 -4.71 12.43 -5.53 20.11 c
h
3297.81 5037.82 m
-10.03 -4.09 -25.07 -7.57 -45.14 -10.44 c
-11.36 -1.64 -19.39 -3.48 -24.1 -5.53 c
-4.71 -2.05 -8.34 -5.04 -10.9 -8.98 c
-2.56 -3.94 -3.84 -8.32 -3.84 -13.12 c
0 -7.37 2.79 -13.51 8.37 -18.42 c
5.58 -4.91 13.74 -7.37 24.48 -7.37 c
10.64 0 20.11 2.33 28.4 6.98 c
8.29 4.66 14.38 11.03 18.27 19.11 c
2.97 6.25 4.45 15.46 4.45 27.63 c
0 10.13 0 0 0 10.13 c
f
3368.11 4956 m
0 225.06 0 0 0 225.06 c
27.64 0 0 0 27.64 0 c
0 -225.06 0 0 0 -225.06 c
-27.64 0 0 0 -27.64 0 c
f
3438.88 5149.28 m
0 31.78 0 0 0 31.78 c
27.63 0 0 0 27.63 0 c
0 -31.78 0 0 0 -31.78 c
-27.63 0 0 0 -27.63 0 c
h
3438.88 4956 m
0 163.04 0 0 0 163.04 c
27.63 0 0 0 27.63 0 c
0 -163.04 0 0 0 -163.04 c
-27.63 0 0 0 -27.63 0 c
f
3493.14 4956 m
0 22.41 0 0 0 22.41 c
103.78 119.13 0 0 103.78 119.13 c
-11.77 -0.61 -22.16 -0.92 -31.16 -0.92 c
-66.47 0 0 0 -66.47 0 c
0 22.41 0 0 0 22.41 c
133.25 0 0 0 133.25 0 c
0 -18.27 0 0 0 -18.27 c
-88.27 -103.47 0 0 -88.27 -103.47 c
-17.04 -18.88 0 0 -17.04 -18.88 c
12.38 0.92 24 1.38 34.85 1.38 c
75.38 0 0 0 75.38 0 c
0 -23.8 0 0 0 -23.8 c
-144.31 0 0 0 -144.31 0 c
f
3778.33 5008.5 m
28.55 -3.53 0 0 28.55 -3.53 c
-4.5 -16.68 -12.84 -29.63 -25.02 -38.84 c
-12.18 -9.21 -27.73 -13.82 -46.67 -13.82 c
-23.85 0 -42.75 7.34 -56.73 22.03 c
-13.97 14.69 -20.95 35.29 -20.95 61.79 c
0 27.43 7.06 48.71 21.18 63.86 c
14.13 15.15 32.45 22.72 54.96 22.72 c
21.8 0 39.61 -7.42 53.42 -22.26 c
13.82 -14.84 20.73 -35.72 20.73 -62.64 c
0 -1.64 -0.05 -4.09 -0.15 -7.37 c
-121.59 0 0 0 -121.59 0 c
1.02 -17.91 6.09 -31.62 15.2 -41.14 c
9.11 -9.52 20.47 -14.28 34.08 -14.28 c
10.13 0 18.78 2.66 25.95 7.98 c
7.16 5.32 12.84 13.82 17.04 25.48 c
h
3687.61 5053.18 m
91.04 0 0 0 91.04 0 c
-1.23 13.71 -4.71 24 -10.44 30.86 c
-8.8 10.64 -20.21 15.96 -34.23 15.96 c
-12.69 0 -23.36 -4.25 -32.01 -12.74 c
-8.65 -8.49 -13.43 -19.86 -14.35 -34.08 c
f
3947.5 4956 m
0 20.57 0 0 0 20.57 c
-10.34 -16.17 -25.54 -24.25 -45.59 -24.25 c
-13 0 -24.95 3.58 -35.85 10.75 c
-10.9 7.16 -19.34 17.17 -25.33 30.01 c
-5.99 12.84 -8.98 27.61 -8.98 44.29 c
0 16.27 2.71 31.04 8.14 44.29 c
5.43 13.25 13.56 23.41 24.41 30.47 c
10.85 7.06 22.98 10.59 36.38 10.59 c
9.82 0 18.58 -2.07 26.25 -6.22 c
7.68 -4.14 13.92 -9.54 18.73 -16.2 c
0 80.75 0 0 0 80.75 c
27.48 0 0 0 27.48 0 c
0 -225.06 0 0 0 -225.06 c
-25.64 0 0 0 -25.64 0 c
h
3860.15 5037.36 m
0 -20.87 4.4 -36.48 13.2 -46.82 c
8.8 -10.34 19.19 -15.51 31.16 -15.51 c
12.07 0 22.34 4.94 30.78 14.82 c
8.45 9.88 12.67 24.95 12.67 45.21 c
0 22.31 -4.3 38.69 -12.89 49.13 c
-8.6 10.44 -19.19 15.66 -31.78 15.66 c
-12.28 0 -22.54 -5.02 -30.78 -15.05 c
-8.24 -10.03 -12.36 -25.84 -12.36 -47.44 c
f
4096.13 5028.31 m
28.09 2.45 0 0 28.09 2.45 c
1.33 -11.25 4.43 -20.49 9.29 -27.71 c
4.86 -7.21 12.41 -13.05 22.64 -17.5 c
10.24 -4.45 21.75 -6.68 34.54 -6.68 c
11.36 0 21.39 1.69 30.09 5.07 c
8.7 3.38 15.17 8.01 19.42 13.89 c
4.25 5.89 6.37 12.31 6.37 19.27 c
0 7.06 -2.05 13.23 -6.14 18.5 c
-4.09 5.27 -10.85 9.7 -20.26 13.28 c
-6.04 2.35 -19.39 6.01 -40.07 10.98 c
-20.67 4.96 -35.16 9.64 -43.45 14.05 c
-10.75 5.63 -18.75 12.61 -24.02 20.96 c
-5.27 8.34 -7.91 17.68 -7.91 28.02 c
0 11.36 3.22 21.98 9.67 31.86 c
6.45 9.88 15.86 17.37 28.25 22.49 c
12.38 5.12 26.15 7.68 41.3 7.68 c
16.68 0 31.39 -2.68 44.14 -8.06 c
12.74 -5.37 22.54 -13.28 29.4 -23.72 c
6.86 -10.44 10.54 -22.26 11.05 -35.46 c
-28.55 -2.15 0 0 -28.55 -2.15 c
-1.54 14.23 -6.73 24.97 -15.58 32.24 c
-8.86 7.27 -21.93 10.9 -39.23 10.9 c
-18.01 0 -31.14 -3.3 -39.37 -9.9 c
-8.24 -6.6 -12.36 -14.56 -12.36 -23.87 c
0 -8.09 2.92 -14.74 8.75 -19.96 c
5.73 -5.22 20.7 -10.57 44.9 -16.04 c
24.21 -5.48 40.81 -10.26 49.82 -14.36 c
13.1 -6.04 22.77 -13.69 29.01 -22.95 c
6.25 -9.26 9.37 -19.93 9.37 -32.01 c
0 -11.98 -3.43 -23.26 -10.29 -33.85 c
-6.86 -10.59 -16.71 -18.83 -29.55 -24.72 c
-12.84 -5.88 -27.3 -8.82 -43.37 -8.82 c
-20.37 0 -37.43 2.96 -51.2 8.9 c
-13.77 5.94 -24.56 14.86 -32.39 26.79 c
-7.83 11.92 -11.95 25.41 -12.36 40.45 c
f
4372.06 4980.71 m
3.99 -24.41 0 0 3.99 -24.41 c
-7.78 -1.64 -14.74 -2.46 -20.88 -2.46 c
-10.03 0 -17.81 1.59 -23.34 4.76 c
-5.53 3.18 -9.41 7.34 -11.67 12.51 c
-2.25 5.17 -3.37 16.04 -3.37 32.63 c
0 93.8 0 0 0 93.8 c
-20.27 0 0 0 -20.27 0 c
0 21.49 0 0 0 21.49 c
20.27 0 0 0 20.27 0 c
0 40.38 0 0 0 40.38 c
27.48 16.58 0 0 27.48 16.58 c
0 -56.96 0 0 0 -56.96 c
27.79 0 0 0 27.79 0 c
0 -21.49 0 0 0 -21.49 c
-27.79 0 0 0 -27.79 0 c
0 -95.33 0 0 0 -95.33 c
0 -7.88 0.49 -12.95 1.46 -15.2 c
0.97 -2.25 2.56 -4.04 4.76 -5.37 c
2.2 -1.33 5.35 -2 9.44 -2 c
3.07 0 7.11 0.36 12.13 1.07 c
f
4388.44 5037.52 m
0 30.19 8.39 52.55 25.18 67.09 c
14.02 12.08 31.11 18.12 51.27 18.12 c
22.41 0 40.73 -7.34 54.96 -22.03 c
14.23 -14.69 21.34 -34.98 21.34 -60.87 c
0 -20.98 -3.15 -37.48 -9.44 -49.51 c
-6.3 -12.03 -15.46 -21.37 -27.48 -28.02 c
-12.02 -6.65 -25.15 -9.98 -39.38 -9.98 c
-22.82 0 -41.27 7.32 -55.34 21.95 c
-14.07 14.63 -21.11 35.72 -21.11 63.25 c
h
4416.84 5037.52 m
0 -20.88 4.55 -36.51 13.66 -46.9 c
9.11 -10.39 20.57 -15.58 34.39 -15.58 c
13.71 0 25.13 5.22 34.23 15.66 c
9.11 10.44 13.66 26.36 13.66 47.75 c
0 20.16 -4.58 35.43 -13.74 45.82 c
-9.16 10.39 -20.55 15.58 -34.16 15.58 c
-13.82 0 -25.28 -5.17 -34.39 -15.51 c
-9.11 -10.34 -13.66 -25.94 -13.66 -46.82 c
f
4573.42 4956 m
0 163.04 0 0 0 163.04 c
24.87 0 0 0 24.87 0 c
0 -24.71 0 0 0 -24.71 c
6.34 11.56 12.2 19.19 17.58 22.88 c
5.37 3.68 11.28 5.53 17.73 5.53 c
9.31 0 18.78 -2.97 28.4 -8.91 c
-9.52 -25.64 0 0 -9.52 -25.64 c
-6.75 3.99 -13.51 5.99 -20.27 5.99 c
-6.04 0 -11.46 -1.82 -16.27 -5.45 c
-4.81 -3.63 -8.24 -8.67 -10.29 -15.12 c
-3.07 -9.82 -4.61 -20.57 -4.61 -32.24 c
0 -85.36 0 0 0 -85.36 c
-27.63 0 0 0 -27.63 0 c
f
4785.11 4976.11 m
-10.23 -8.7 -20.09 -14.84 -29.55 -18.42 c
-9.47 -3.58 -19.62 -5.37 -30.47 -5.37 c
-17.91 0 -31.68 4.38 -41.3 13.13 c
-9.62 8.75 -14.43 19.93 -14.43 33.54 c
0 7.98 1.82 15.28 5.45 21.88 c
3.64 6.6 8.39 11.89 14.28 15.89 c
5.89 3.99 12.51 7.01 19.88 9.06 c
5.42 1.43 13.61 2.81 24.56 4.14 c
22.31 2.66 38.74 5.83 49.28 9.52 c
0.1 3.79 0.15 6.19 0.15 7.21 c
0 11.26 -2.61 19.19 -7.83 23.79 c
-7.06 6.25 -17.55 9.37 -31.47 9.37 c
-13 0 -22.59 -2.28 -28.79 -6.83 c
-6.19 -4.55 -10.77 -12.61 -13.74 -24.18 c
-27.02 3.68 0 0 -27.02 3.68 c
2.45 11.57 6.5 20.91 12.13 28.02 c
5.63 7.11 13.77 12.59 24.41 16.43 c
10.64 3.84 22.98 5.76 37 5.76 c
13.92 0 25.23 -1.64 33.93 -4.91 c
8.7 -3.27 15.1 -7.39 19.19 -12.36 c
4.09 -4.96 6.96 -11.23 8.6 -18.8 c
0.92 -4.71 1.38 -13.2 1.38 -25.48 c
0 -36.84 0 0 0 -36.84 c
0 -25.69 0.59 -41.94 1.77 -48.74 c
1.18 -6.8 3.51 -13.33 6.99 -19.57 c
-28.86 0 0 0 -28.86 0 c
-2.87 5.73 -4.71 12.43 -5.53 20.11 c
h
4782.81 5037.82 m
-10.03 -4.09 -25.07 -7.57 -45.14 -10.44 c
-11.36 -1.64 -19.39 -3.48 -24.1 -5.53 c
-4.71 -2.05 -8.34 -5.04 -10.9 -8.98 c
-2.56 -3.94 -3.84 -8.32 -3.84 -13.12 c
0 -7.37 2.79 -13.51 8.37 -18.42 c
5.58 -4.91 13.74 -7.37 24.48 -7.37 c
10.64 0 20.11 2.33 28.4 6.98 c
8.29 4.66 14.38 11.03 18.27 19.11 c
2.97 6.25 4.45 15.46 4.45 27.63 c
0 10.13 0 0 0 10.13 c
f
4849.66 4942.49 m
26.86 -3.99 0 0 26.86 -3.99 c
1.13 -8.29 4.25 -14.33 9.37 -18.12 c
6.86 -5.12 16.22 -7.68 28.09 -7.68 c
12.79 0 22.67 2.56 29.63 7.68 c
6.96 5.12 11.67 12.28 14.13 21.49 c
1.43 5.63 2.1 17.45 1.99 35.46 c
-12.07 -14.23 -27.12 -21.34 -45.13 -21.34 c
-22.41 0 -39.76 8.09 -52.04 24.26 c
-12.28 16.17 -18.42 35.56 -18.42 58.18 c
0 15.55 2.81 29.91 8.44 43.06 c
5.63 13.15 13.79 23.31 24.49 30.48 c
10.7 7.16 23.26 10.75 37.69 10.75 c
19.24 0 35.11 -7.78 47.59 -23.34 c
0 19.65 0 0 0 19.65 c
25.48 0 0 0 25.48 0 c
0 -140.93 0 0 0 -140.93 c
0 -25.38 -2.58 -43.37 -7.75 -53.96 c
-5.17 -10.59 -13.36 -18.96 -24.56 -25.1 c
-11.21 -6.14 -25 -9.21 -41.37 -9.21 c
-19.45 0 -35.16 4.38 -47.13 13.13 c
-11.98 8.75 -17.76 21.93 -17.35 39.53 c
h
4872.54 5040.43 m
0 -21.39 4.25 -37 12.74 -46.82 c
8.49 -9.83 19.14 -14.74 31.93 -14.74 c
12.69 0 23.34 4.89 31.93 14.66 c
8.6 9.77 12.89 25.1 12.89 45.98 c
0 19.96 -4.43 35 -13.28 45.13 c
-8.85 10.13 -19.52 15.2 -32.01 15.2 c
-12.28 0 -22.72 -4.99 -31.32 -14.97 c
-8.6 -9.98 -12.89 -24.79 -12.89 -44.45 c
f
5141.33 5008.5 m
28.55 -3.53 0 0 28.55 -3.53 c
-4.5 -16.68 -12.84 -29.63 -25.02 -38.84 c
-12.18 -9.21 -27.73 -13.82 -46.67 -13.82 c
-23.85 0 -42.75 7.34 -56.73 22.03 c
-13.97 14.69 -20.95 35.29 -20.95 61.79 c
0 27.43 7.06 48.71 21.18 63.86 c
14.13 15.15 32.45 22.72 54.96 22.72 c
21.8 0 39.61 -7.42 53.42 -22.26 c
13.82 -14.84 20.73 -35.72 20.73 -62.64 c
0 -1.64 -0.05 -4.09 -0.15 -7.37 c
-121.59 0 0 0 -121.59 0 c
1.02 -17.91 6.09 -31.62 15.2 -41.14 c
9.11 -9.52 20.47 -14.28 34.08 -14.28 c
10.13 0 18.78 2.66 25.95 7.98 c
7.16 5.32 12.84 13.82 17.04 25.48 c
h
5050.61 5053.18 m
91.04 0 0 0 91.04 0 c
-1.23 13.71 -4.71 24 -10.44 30.86 c
-8.8 10.64 -20.21 15.96 -34.23 15.96 c
-12.69 0 -23.36 -4.25 -32.01 -12.74 c
-8.65 -8.49 -13.43 -19.86 -14.35 -34.08 c
f
5454.84 5034.91 m
29.79 -7.52 0 0 29.79 -7.52 c
-6.25 -24.46 -17.48 -43.11 -33.7 -55.96 c
-16.22 -12.85 -36.05 -19.27 -59.49 -19.27 c
-24.26 0 -43.98 4.94 -59.18 14.81 c
-15.2 9.88 -26.77 24.18 -34.7 42.91 c
-7.93 18.73 -11.9 38.84 -11.9 60.33 c
0 23.44 4.48 43.88 13.43 61.33 c
8.95 17.45 21.7 30.71 38.22 39.76 c
16.53 9.06 34.72 13.59 54.58 13.59 c
22.52 0 41.45 -5.73 56.8 -17.19 c
15.35 -11.46 26.05 -27.58 32.09 -48.36 c
-29.32 -6.91 0 0 -29.32 -6.91 c
-5.22 16.38 -12.79 28.3 -22.72 35.77 c
-9.93 7.47 -22.41 11.21 -37.46 11.21 c
-17.3 0 -31.75 -4.14 -43.37 -12.43 c
-11.62 -8.29 -19.78 -19.42 -24.48 -33.39 c
-4.71 -13.97 -7.06 -28.37 -7.06 -43.21 c
0 -19.14 2.79 -35.85 8.37 -50.12 c
5.58 -14.28 14.25 -24.95 26.02 -32.01 c
11.77 -7.06 24.51 -10.59 38.23 -10.59 c
16.68 0 30.81 4.81 42.37 14.43 c
11.57 9.62 19.39 23.9 23.49 42.83 c
f
5508.44 5037.52 m
0 30.19 8.39 52.55 25.18 67.09 c
14.02 12.08 31.11 18.12 51.27 18.12 c
22.41 0 40.73 -7.34 54.96 -22.03 c
14.23 -14.69 21.34 -34.98 21.34 -60.87 c
0 -20.98 -3.15 -37.48 -9.44 -49.51 c
-6.3 -12.03 -15.46 -21.37 -27.48 -28.02 c
-12.02 -6.65 -25.15 -9.98 -39.38 -9.98 c
-22.82 0 -41.27 7.32 -55.34 21.95 c
-14.07 14.63 -21.11 35.72 -21.11 63.25 c
h
5536.84 5037.52 m
0 -20.88 4.55 -36.51 13.66 -46.9 c
9.11 -10.39 20.57 -15.58 34.39 -15.58 c
13.71 0 25.13 5.22 34.23 15.66 c
9.11 10.44 13.66 26.36 13.66 47.75 c
0 20.16 -4.58 35.43 -13.74 45.82 c
-9.16 10.39 -20.55 15.58 -34.16 15.58 c
-13.82 0 -25.28 -5.17 -34.39 -15.51 c
-9.11 -10.34 -13.66 -25.94 -13.66 -46.82 c
f
5694.73 4956 m
0 163.04 0 0 0 163.04 c
24.87 0 0 0 24.87 0 c
0 -23.18 0 0 0 -23.18 c
11.98 17.91 29.27 26.87 51.89 26.87 c
9.82 0 18.86 -1.77 27.1 -5.3 c
8.24 -3.53 14.4 -8.16 18.5 -13.89 c
4.1 -5.73 6.96 -12.54 8.6 -20.42 c
1.02 -5.12 1.54 -14.07 1.54 -26.87 c
0 -100.25 0 0 0 -100.25 c
-27.63 0 0 0 -27.63 0 c
0 99.17 0 0 0 99.17 c
0 11.26 -1.07 19.68 -3.22 25.25 c
-2.15 5.58 -5.96 10.03 -11.44 13.36 c
-5.48 3.33 -11.9 4.99 -19.27 4.99 c
-11.77 0 -21.93 -3.74 -30.48 -11.21 c
-8.54 -7.47 -12.82 -21.65 -12.82 -42.53 c
0 -89.04 0 0 0 -89.04 c
-27.63 0 0 0 -27.63 0 c
f
5930.06 4980.71 m
3.99 -24.41 0 0 3.99 -24.41 c
-7.78 -1.64 -14.74 -2.46 -20.88 -2.46 c
-10.03 0 -17.81 1.59 -23.34 4.76 c
-5.53 3.18 -9.41 7.34 -11.67 12.51 c
-2.25 5.17 -3.37 16.04 -3.37 32.63 c
0 93.8 0 0 0 93.8 c
-20.27 0 0 0 -20.27 0 c
0 21.49 0 0 0 21.49 c
20.27 0 0 0 20.27 0 c
0 40.38 0 0 0 40.38 c
27.48 16.58 0 0 27.48 16.58 c
0 -56.96 0 0 0 -56.96 c
27.79 0 0 0 27.79 0 c
0 -21.49 0 0 0 -21.49 c
-27.79 0 0 0 -27.79 0 c
0 -95.33 0 0 0 -95.33 c
0 -7.88 0.49 -12.95 1.46 -15.2 c
0.97 -2.25 2.56 -4.04 4.76 -5.37 c
2.2 -1.33 5.35 -2 9.44 -2 c
3.07 0 7.11 0.36 12.13 1.07 c
f
6067.33 5008.5 m
28.55 -3.53 0 0 28.55 -3.53 c
-4.5 -16.68 -12.84 -29.63 -25.02 -38.84 c
-12.18 -9.21 -27.73 -13.82 -46.67 -13.82 c
-23.85 0 -42.75 7.34 -56.73 22.03 c
-13.97 14.69 -20.95 35.29 -20.95 61.79 c
0 27.43 7.06 48.71 21.18 63.86 c
14.13 15.15 32.45 22.72 54.96 22.72 c
21.8 0 39.61 -7.42 53.42 -22.26 c
13.82 -14.84 20.73 -35.72 20.73 -62.64 c
0 -1.64 -0.05 -4.09 -0.15 -7.37 c
-121.59 0 0 0 -121.59 0 c
1.02 -17.91 6.09 -31.62 15.2 -41.14 c
9.11 -9.52 20.47 -14.28 34.08 -14.28 c
10.13 0 18.78 2.66 25.95 7.98 c
7.16 5.32 12.84 13.82 17.04 25.48 c
h
5976.61 5053.18 m
91.04 0 0 0 91.04 0 c
-1.23 13.71 -4.71 24 -10.44 30.86 c
-8.8 10.64 -20.21 15.96 -34.23 15.96 c
-12.69 0 -23.36 -4.25 -32.01 -12.74 c
-8.65 -8.49 -13.43 -19.86 -14.35 -34.08 c
f
6130.73 4956 m
0 163.04 0 0 0 163.04 c
24.87 0 0 0 24.87 0 c
0 -23.18 0 0 0 -23.18 c
11.98 17.91 29.27 26.87 51.89 26.87 c
9.82 0 18.86 -1.77 27.1 -5.3 c
8.24 -3.53 14.4 -8.16 18.5 -13.89 c
4.1 -5.73 6.96 -12.54 8.6 -20.42 c
1.02 -5.12 1.54 -14.07 1.54 -26.87 c
0 -100.25 0 0 0 -100.25 c
-27.63 0 0 0 -27.63 0 c
0 99.17 0 0 0 99.17 c
0 11.26 -1.07 19.68 -3.22 25.25 c
-2.15 5.58 -5.96 10.03 -11.44 13.36 c
-5.48 3.33 -11.9 4.99 -19.27 4.99 c
-11.77 0 -21.93 -3.74 -30.48 -11.21 c
-8.54 -7.47 -12.82 -21.65 -12.82 -42.53 c
0 -89.04 0 0 0 -89.04 c
-27.63 0 0 0 -27.63 0 c
f
6367.06 4980.71 m
3.99 -24.41 0 0 3.99 -24.41 c
-7.78 -1.64 -14.74 -2.46 -20.88 -2.46 c
-10.03 0 -17.81 1.59 -23.34 4.76 c
-5.53 3.18 -9.41 7.34 -11.67 12.51 c
-2.25 5.17 -3.37 16.04 -3.37 32.63 c
0 93.8 0 0 0 93.8 c
-20.27 0 0 0 -20.27 0 c
0 21.49 0 0 0 21.49 c
20.27 0 0 0 20.27 0 c
0 40.38 0 0 0 40.38 c
27.48 16.58 0 0 27.48 16.58 c
0 -56.96 0 0 0 -56.96 c
27.79 0 0 0 27.79 0 c
0 -21.49 0 0 0 -21.49 c
-27.79 0 0 0 -27.79 0 c
0 -95.33 0 0 0 -95.33 c
0 -7.88 0.49 -12.95 1.46 -15.2 c
0.97 -2.25 2.56 -4.04 4.76 -5.37 c
2.2 -1.33 5.35 -2 9.44 -2 c
3.07 0 7.11 0.36 12.13 1.07 c
f
6392.88 5149.28 m
0 31.78 0 0 0 31.78 c
27.63 0 0 0 27.63 0 c
0 -31.78 0 0 0 -31.78 c
-27.63 0 0 0 -27.63 0 c
h
6392.88 4956 m
0 163.04 0 0 0 163.04 c
27.63 0 0 0 27.63 0 c
0 -163.04 0 0 0 -163.04 c
-27.63 0 0 0 -27.63 0 c
f
6452.44 5037.52 m
0 30.19 8.39 52.55 25.18 67.09 c
14.02 12.08 31.11 18.12 51.27 18.12 c
22.41 0 40.73 -7.34 54.96 -22.03 c
14.23 -14.69 21.34 -34.98 21.34 -60.87 c
0 -20.98 -3.15 -37.48 -9.44 -49.51 c
-6.3 -12.03 -15.46 -21.37 -27.48 -28.02 c
-12.02 -6.65 -25.15 -9.98 -39.38 -9.98 c
-22.82 0 -41.27 7.32 -55.34 21.95 c
-14.07 14.63 -21.11 35.72 -21.11 63.25 c
h
6480.84 5037.52 m
0 -20.88 4.55 -36.51 13.66 -46.9 c
9.11 -10.39 20.57 -15.58 34.39 -15.58 c
13.71 0 25.13 5.22 34.23 15.66 c
9.11 10.44 13.66 26.36 13.66 47.75 c
0 20.16 -4.58 35.43 -13.74 45.82 c
-9.16 10.39 -20.55 15.58 -34.16 15.58 c
-13.82 0 -25.28 -5.17 -34.39 -15.51 c
-9.11 -10.34 -13.66 -25.94 -13.66 -46.82 c
f
6637.73 4956 m
0 163.04 0 0 0 163.04 c
24.87 0 0 0 24.87 0 c
0 -23.18 0 0 0 -23.18 c
11.98 17.91 29.27 26.87 51.89 26.87 c
9.82 0 18.86 -1.77 27.1 -5.3 c
8.24 -3.53 14.4 -8.16 18.5 -13.89 c
4.1 -5.73 6.96 -12.54 8.6 -20.42 c
1.02 -5.12 1.54 -14.07 1.54 -26.87 c
0 -100.25 0 0 0 -100.25 c
-27.63 0 0 0 -27.63 0 c
0 99.17 0 0 0 99.17 c
0 11.26 -1.07 19.68 -3.22 25.25 c
-2.15 5.58 -5.96 10.03 -11.44 13.36 c
-5.48 3.33 -11.9 4.99 -19.27 4.99 c
-11.77 0 -21.93 -3.74 -30.48 -11.21 c
-8.54 -7.47 -12.82 -21.65 -12.82 -42.53 c
0 -89.04 0 0 0 -89.04 c
-27.63 0 0 0 -27.63 0 c
f
6959.52 4956 m
0 198.5 0 0 0 198.5 c
-74.15 0 0 0 -74.15 0 c
0 26.56 0 0 0 26.56 c
178.39 0 0 0 178.39 0 c
0 -26.56 0 0 0 -26.56 c
-74.46 0 0 0 -74.46 0 c
0 -198.5 0 0 0 -198.5 c
-29.78 0 0 0 -29.78 0 c
f
7090.88 5149.28 m
0 31.78 0 0 0 31.78 c
27.63 0 0 0 27.63 0 c
0 -31.78 0 0 0 -31.78 c
-27.63 0 0 0 -27.63 0 c
h
7090.88 4956 m
0 163.04 0 0 0 163.04 c
27.63 0 0 0 27.63 0 c
0 -163.04 0 0 0 -163.04 c
-27.63 0 0 0 -27.63 0 c
f
7160.73 4956 m
0 163.04 0 0 0 163.04 c
24.71 0 0 0 24.71 0 c
0 -22.87 0 0 0 -22.87 c
5.12 7.98 11.93 14.4 20.42 19.27 c
8.5 4.86 18.17 7.29 29.02 7.29 c
12.08 0 21.98 -2.51 29.71 -7.52 c
7.73 -5.02 13.18 -12.03 16.35 -21.03 c
12.89 19.04 29.68 28.55 50.36 28.55 c
16.17 0 28.61 -4.48 37.3 -13.43 c
8.7 -8.96 13.05 -22.75 13.05 -41.37 c
0 -111.91 0 0 0 -111.91 c
-27.48 0 0 0 -27.48 0 c
0 102.7 0 0 0 102.7 c
0 11.05 -0.89 19.01 -2.69 23.87 c
-1.79 4.86 -5.04 8.78 -9.75 11.75 c
-4.71 2.97 -10.23 4.45 -16.58 4.45 c
-11.46 0 -20.98 -3.81 -28.55 -11.44 c
-7.57 -7.62 -11.36 -19.83 -11.36 -36.61 c
0 -94.72 0 0 0 -94.72 c
-27.64 0 0 0 -27.64 0 c
0 105.93 0 0 0 105.93 c
0 12.28 -2.25 21.49 -6.75 27.63 c
-4.5 6.14 -11.87 9.21 -22.11 9.21 c
-7.78 0 -14.97 -2.05 -21.57 -6.14 c
-6.6 -4.09 -11.39 -10.08 -14.35 -17.96 c
-2.97 -7.88 -4.45 -19.24 -4.45 -34.08 c
0 -84.59 0 0 0 -84.59 c
-27.63 0 0 0 -27.63 0 c
f
7534.33 5008.5 m
28.55 -3.53 0 0 28.55 -3.53 c
-4.5 -16.68 -12.84 -29.63 -25.02 -38.84 c
-12.18 -9.21 -27.73 -13.82 -46.67 -13.82 c
-23.85 0 -42.75 7.34 -56.73 22.03 c
-13.97 14.69 -20.95 35.29 -20.95 61.79 c
0 27.43 7.06 48.71 21.18 63.86 c
14.13 15.15 32.45 22.72 54.96 22.72 c
21.8 0 39.61 -7.42 53.42 -22.26 c
13.82 -14.84 20.73 -35.72 20.73 -62.64 c
0 -1.64 -0.05 -4.09 -0.15 -7.37 c
-121.59 0 0 0 -121.59 0 c
1.02 -17.91 6.09 -31.62 15.2 -41.14 c
9.11 -9.52 20.47 -14.28 34.08 -14.28 c
10.13 0 18.78 2.66 25.95 7.98 c
7.16 5.32 12.84 13.82 17.04 25.48 c
h
7443.61 5053.18 m
91.04 0 0 0 91.04 0 c
-1.23 13.71 -4.71 24 -10.44 30.86 c
-8.8 10.64 -20.21 15.96 -34.23 15.96 c
-12.69 0 -23.36 -4.25 -32.01 -12.74 c
-8.65 -8.49 -13.43 -19.86 -14.35 -34.08 c
f
14.4003 w
q 1 -0.999998 scale
1456.83 -4680.09 0 0 S
Q
q 1 -0.999998 scale
2011.24 -4680.09 0 0 S
Q
q 1 -0.999998 scale
2565.65 -4680.09 0 0 S
Q
q 1 -0.999998 scale
3122.46 -4680.09 0 0 S
Q
q 1 -0.999998 scale
3676.87 -4680.09 0 0 S
Q
q 1 -0.999998 scale
4231.28 -4680.09 0 0 S
Q
q 1 -0.999998 scale
4785.69 -4680.09 0 0 S
Q
q 1 -0.999998 scale
5340.1 -4680.09 0 0 S
Q
q 1 -0.999998 scale
5896.91 -4680.09 0 0 S
Q
q 1 -0.999998 scale
6451.32 -4680.09 0 0 S
Q
q 1 -0.999998 scale
7005.73 -4680.09 0 0 S
Q
q 1 -0.999998 scale
1456.83 -4680.09 5548.9 0 S
Q
q 1 -0.999998 scale
7005.73 -945.62 0 0 S
Q
q 1 -0.999998 scale
7005.73 -1320.03 0 0 S
Q
q 1 -0.999998 scale
7005.73 -1692.03 0 0 S
Q
q 1 -0.999998 scale
7005.73 -2066.44 0 0 S
Q
q 1 -0.999998 scale
7005.73 -2438.45 0 0 S
Q
q 1 -0.999998 scale
7005.73 -2812.85 0 0 S
Q
q 1 -0.999998 scale
7005.73 -3187.26 0 0 S
Q
q 1 -0.999998 scale
7005.73 -3559.27 0 0 S
Q
q 1 -0.999998 scale
7005.73 -3933.68 0 0 S
Q
q 1 -0.999998 scale
7005.73 -4305.68 0 0 S
Q
q 1 -0.999998 scale
7005.73 -4680.09 0 0 S
Q
q 1 -0.999998 scale
7005.73 -945.62 0 -3734.47 S
Q
cleartomark end end pagesave restore
 showpage
%%PageTrailer
%%Trailer
%%Pages: 1
