\relax 
\citation{hpcband}
\citation{hpc:dash,hpc:gordon,ou,canim,liu}
\citation{nersc}
\citation{cliff,luster}
\citation{ooc}
\citation{ooc,canim,flashcache,liu}
\citation{server:checkpoint}
\citation{netapp}
\citation{pure,emcflash}
\@writefile{toc}{\contentsline {section}{\numberline {1}Introduction}{1}}
\citation{spec:sata}
\@writefile{lof}{\contentsline {figure}{\numberline {1}{\ignorespaces Cumulative distribution function with varying hot regions, which refer to a group of SSDs having at least 10\% of the total data in a flash array. \relax }}{2}}
\providecommand*\caption@xref[2]{\@setref\relax\@undefined{#1}}
\newlabel{fig:cdf-mot}{{1}{2}}
\citation{spec:nvme}
\@writefile{toc}{\contentsline {section}{\numberline {2}Background}{3}}
\newlabel{sec:background}{{2}{3}}
\@writefile{toc}{\contentsline {subsection}{\numberline {2.1}PCI-E}{3}}
\@writefile{lof}{\contentsline {figure}{\numberline {2}{\ignorespaces PCI Express topology and devices. \relax }}{4}}
\newlabel{fig:pcietop}{{2}{4}}
\@writefile{toc}{\contentsline {subsection}{\numberline {2.2}NVMe}{4}}
\newlabel{fig:nvme-arch}{{3a}{5}}
\newlabel{sub@fig:nvme-arch}{{(a)}{a}}
\newlabel{fig:nvme-overview}{{3b}{5}}
\newlabel{sub@fig:nvme-overview}{{(b)}{b}}
\@writefile{lof}{\contentsline {figure}{\numberline {3}{\ignorespaces NVM Express Architecture and its Queuing Mechanism.\relax }}{5}}
\newlabel{fig:nvme}{{3}{5}}
\@writefile{lof}{\contentsline {subfigure}{\numberline{(a)}{\ignorespaces {NVMe Architecture}}}{5}}
\@writefile{lof}{\contentsline {subfigure}{\numberline{(b)}{\ignorespaces {Queuing Mechanism}}}{5}}
\@writefile{toc}{\contentsline {subsection}{\numberline {2.3}Bare NAND Flash Package}{5}}
\@writefile{lof}{\contentsline {figure}{\numberline {4}{\ignorespaces Bare NAND flash memory package. \relax }}{6}}
\newlabel{fig:barenand}{{4}{6}}
\@writefile{toc}{\contentsline {subsection}{\numberline {2.4}Flash Software Modules}{6}}
\citation{netapp,pure,emcflash}
\citation{price}
\citation{pcibook}
\citation{onfi}
\citation{plx}
\@writefile{lof}{\contentsline {figure}{\numberline {5}{\ignorespaces High-level view of our autonomic all-flash array (Triple-A) architecture. \relax }}{7}}
\newlabel{fig:aaa}{{5}{7}}
\@writefile{toc}{\contentsline {section}{\numberline {3}Non-SSD-based All-Flash Array}{7}}
\newlabel{sec:non-ssd}{{3}{7}}
\@writefile{toc}{\contentsline {subsection}{\numberline {3.1}Motivation}{7}}
\@writefile{toc}{\contentsline {subsection}{\numberline {3.2}Flash Array Architecture}{7}}
\citation{nvddr2}
\newlabel{fig:onfi-dbus}{{6a}{8}}
\newlabel{sub@fig:onfi-dbus}{{(a)}{a}}
\newlabel{fig:onfi-cbus}{{6b}{8}}
\newlabel{sub@fig:onfi-cbus}{{(b)}{b}}
\@writefile{lof}{\contentsline {figure}{\numberline {6}{\ignorespaces Internal organization of the flash inline memory module.\relax }}{8}}
\newlabel{fig:onfi-dimm}{{6}{8}}
\@writefile{lof}{\contentsline {subfigure}{\numberline{(a)}{\ignorespaces {Data Bus Connections}}}{8}}
\@writefile{lof}{\contentsline {subfigure}{\numberline{(b)}{\ignorespaces {Control Signal Connections}}}{8}}
\@writefile{toc}{\contentsline {subsection}{\numberline {3.3}FIMM}{8}}
\newlabel{sec:fimm}{{3.3}{8}}
\@writefile{toc}{\contentsline {subsection}{\numberline {3.4}EP Design for a Cluster}{8}}
\newlabel{sec:cluster}{{3.4}{8}}
\citation{spec:pcie}
\citation{spec:nvme}
\@writefile{lof}{\contentsline {figure}{\numberline {7}{\ignorespaces An endpoint that can be used to build a cluster. \relax }}{9}}
\newlabel{fig:ep}{{7}{9}}
\newlabel{fig:host-interface-a}{{8a}{9}}
\newlabel{sub@fig:host-interface-a}{{(a)}{a}}
\newlabel{fig:host-interface-b}{{8b}{9}}
\newlabel{sub@fig:host-interface-b}{{(b)}{b}}
\@writefile{lof}{\contentsline {figure}{\numberline {8}{\ignorespaces Host interface design based on PCI-E and NVMe.\relax }}{9}}
\newlabel{fig:host-interface}{{8}{9}}
\@writefile{lof}{\contentsline {subfigure}{\numberline{(a)}{\ignorespaces {Multi-Port Connection, Single NameSpace}}}{9}}
\@writefile{lof}{\contentsline {subfigure}{\numberline{(b)}{\ignorespaces {Single-Port Connection, Multiple NameSpaces}}}{9}}
\@writefile{toc}{\contentsline {subsection}{\numberline {3.5}Host Interface Design}{9}}
\citation{ftl:fast,dftl,ftl:reconfig}
\citation{ftl:ogc,bgc,ftl:gftl}
\citation{paq,o3}
\citation{dpas,hu,pal:pipeline}
\@writefile{toc}{\contentsline {section}{\numberline {4}Autonomic Flash Array Management}{10}}
\newlabel{sec:triple-a}{{4}{10}}
\@writefile{toc}{\contentsline {subsection}{\numberline {4.1}Link Contention Management}{11}}
\newlabel{fig:hotcluster}{{9a}{12}}
\newlabel{sub@fig:hotcluster}{{(a)}{a}}
\newlabel{fig:laggard}{{9b}{12}}
\newlabel{sub@fig:laggard}{{(b)}{b}}
\@writefile{lof}{\contentsline {figure}{\numberline {9}{\ignorespaces Autonomic flash arrray management.\relax }}{12}}
\newlabel{fig:sens-deep}{{9}{12}}
\@writefile{lof}{\contentsline {subfigure}{\numberline{(a)}{\ignorespaces {Autonomic hot cluster management}}}{12}}
\@writefile{lof}{\contentsline {subfigure}{\numberline{(b)}{\ignorespaces {Laggard handling}}}{12}}
\@writefile{toc}{\contentsline {subsection}{\numberline {4.2}Storage Contention Management}{12}}
\citation{ibm,nersc}
\citation{snia}
\citation{umass}
\@writefile{toc}{\contentsline {section}{\numberline {5}Experimental Setup}{13}}
\newlabel{sec:evaluation}{{5}{13}}
\@writefile{toc}{\contentsline {subsection}{\numberline {5.1}Flash Array}{13}}
\citation{ooc}
\citation{ibm}
\citation{gpfs}
\citation{nersc}
\citation{spec:pcie}
\@writefile{lot}{\contentsline {table}{\numberline {I}{\ignorespaces Important characteristics of our workloads.\relax }}{14}}
\newlabel{tab:workload}{{I}{14}}
\@writefile{toc}{\contentsline {subsection}{\numberline {5.2}Workloads}{14}}
\newlabel{sec:workloads}{{5.2}{14}}
\@writefile{lot}{\contentsline {table}{\numberline {II}{\ignorespaces Absolute values of our major performance metrics on a 4 times 16 non-autonomic all-flash array.\relax }}{15}}
\newlabel{tab:real-val}{{II}{15}}
\@writefile{toc}{\contentsline {section}{\numberline {6}Experimental Results}{15}}
\@writefile{toc}{\contentsline {subsection}{\numberline {6.1}Results with Real Workloads }{15}}
\newlabel{fig:norm-lat-work}{{10a}{16}}
\newlabel{sub@fig:norm-lat-work}{{(a)}{a}}
\newlabel{fig:norm-iops-work}{{10b}{16}}
\newlabel{sub@fig:norm-iops-work}{{(b)}{b}}
\@writefile{lof}{\contentsline {figure}{\numberline {10}{\ignorespaces Latency and IOPS values normalized with respect to a non-autonomic all-flash array.\relax }}{16}}
\newlabel{fig:sens-deep}{{10}{16}}
\@writefile{lof}{\contentsline {subfigure}{\numberline{(a)}{\ignorespaces {Latency}}}{16}}
\@writefile{lof}{\contentsline {subfigure}{\numberline{(b)}{\ignorespaces {IOPS}}}{16}}
\newlabel{fig:norm-link-work}{{11a}{16}}
\newlabel{sub@fig:norm-link-work}{{(a)}{a}}
\newlabel{fig:norm-sto-work}{{11b}{16}}
\newlabel{sub@fig:norm-sto-work}{{(b)}{b}}
\newlabel{fig:norm-q-work}{{11c}{16}}
\newlabel{sub@fig:norm-q-work}{{(c)}{c}}
\@writefile{lof}{\contentsline {figure}{\numberline {11}{\ignorespaces Contention and queue stall time comparison between a non-autonomic all-flash array and our Triple-A.\relax }}{16}}
\newlabel{fig:sens-deep}{{11}{16}}
\@writefile{lof}{\contentsline {subfigure}{\numberline{(a)}{\ignorespaces {Link contention}}}{16}}
\@writefile{lof}{\contentsline {subfigure}{\numberline{(b)}{\ignorespaces {Storage contention}}}{16}}
\@writefile{lof}{\contentsline {subfigure}{\numberline{(c)}{\ignorespaces {Queue stall time }}}{16}}
\@writefile{toc}{\contentsline {subsection}{\numberline {6.2}Quantifying Contention Handling}{16}}
\newlabel{fig:mds-cdf}{{12a}{17}}
\newlabel{sub@fig:mds-cdf}{{(a)}{a}}
\newlabel{fig:msnfs-cdf}{{12b}{17}}
\newlabel{sub@fig:msnfs-cdf}{{(b)}{b}}
\newlabel{fig:proj-cdf}{{12c}{17}}
\newlabel{sub@fig:proj-cdf}{{(c)}{c}}
\newlabel{fig:prxy-cdf}{{12d}{17}}
\newlabel{sub@fig:prxy-cdf}{{(d)}{d}}
\newlabel{fig:web-sql-cdf}{{12e}{17}}
\newlabel{sub@fig:web-sql-cdf}{{(e)}{e}}
\newlabel{fig:g-eigen-cdf}{{12f}{17}}
\newlabel{sub@fig:g-eigen-cdf}{{(f)}{f}}
\@writefile{lof}{\contentsline {figure}{\numberline {12}{\ignorespaces Cumulative distribution function of the real workload latency on a non-autonomic all-flash array and Triple-A. Triple-A shortens a large portion of latencies, particularly, the long tail is significantly improved. \relax }}{17}}
\newlabel{fig:cdf}{{12}{17}}
\@writefile{lof}{\contentsline {subfigure}{\numberline{(a)}{\ignorespaces {mds}}}{17}}
\@writefile{lof}{\contentsline {subfigure}{\numberline{(b)}{\ignorespaces {msnfs}}}{17}}
\@writefile{lof}{\contentsline {subfigure}{\numberline{(c)}{\ignorespaces {proj}}}{17}}
\@writefile{lof}{\contentsline {subfigure}{\numberline{(d)}{\ignorespaces {prxy}}}{17}}
\@writefile{lof}{\contentsline {subfigure}{\numberline{(e)}{\ignorespaces {websql}}}{17}}
\@writefile{lof}{\contentsline {subfigure}{\numberline{(f)}{\ignorespaces {g-eigen}}}{17}}
\@writefile{toc}{\contentsline {subsection}{\numberline {6.3} Details of the Latency Improvements}{17}}
\newlabel{sec:latencyimp}{{6.3}{17}}
\newlabel{fig:sns-perf}{{13a}{18}}
\newlabel{sub@fig:sns-perf}{{(a)}{a}}
\newlabel{fig:sns-cont}{{13b}{18}}
\newlabel{sub@fig:sns-cont}{{(b)}{b}}
\@writefile{lof}{\contentsline {figure}{\numberline {13}{\ignorespaces IOPS and latency of \emph  {read} micro-benchmark normalized to a non-autonomic all-flash array under varing network sizes. (b) Contention times of read normalized to a non-autonomic all-flash array under varying network sizes.\relax }}{18}}
\newlabel{fig:sns}{{13}{18}}
\@writefile{lof}{\contentsline {subfigure}{\numberline{(a)}{\ignorespaces {Network size sensitivity}}}{18}}
\@writefile{lof}{\contentsline {subfigure}{\numberline{(b)}{\ignorespaces {Contention time}}}{18}}
\@writefile{toc}{\contentsline {subsection}{\numberline {6.4}Network Size Sensitivity}{18}}
\newlabel{fig:tc-network-scale-1}{{14a}{19}}
\newlabel{sub@fig:tc-network-scale-1}{{(a)}{a}}
\newlabel{fig:tc-network-scale-2}{{14b}{19}}
\newlabel{sub@fig:tc-network-scale-2}{{(b)}{b}}
\@writefile{lof}{\contentsline {figure}{\numberline {14}{\ignorespaces The average latency of the enterprise workloads under varying network sizes.\relax }}{19}}
\newlabel{fig:tc-network-scale-latency}{{14}{19}}
\@writefile{lof}{\contentsline {subfigure}{\numberline{(a)}{\ignorespaces {Latency of workloads with a low I/O ratio on hot clusters}}}{19}}
\@writefile{lof}{\contentsline {subfigure}{\numberline{(b)}{\ignorespaces {Latency of workloads with a high I/O ratio on hot clusters}}}{19}}
\newlabel{fig:tc-network-iops-1}{{15a}{19}}
\newlabel{sub@fig:tc-network-iops-1}{{(a)}{a}}
\newlabel{fig:tc-network-iops-2}{{15b}{19}}
\newlabel{sub@fig:tc-network-iops-2}{{(b)}{b}}
\@writefile{lof}{\contentsline {figure}{\numberline {15}{\ignorespaces The IOPS of the enterprise workloads under varying network sizes.\relax }}{19}}
\newlabel{fig:tc-network-scale-iops}{{15}{19}}
\@writefile{lof}{\contentsline {subfigure}{\numberline{(a)}{\ignorespaces {IOPS of workloads with a low I/O ratio on hot clusters}}}{19}}
\@writefile{lof}{\contentsline {subfigure}{\numberline{(b)}{\ignorespaces {IOPS of workloads with a high I/O ratio on hot clusters}}}{19}}
\newlabel{fig:sns-brkdown-base}{{16a}{20}}
\newlabel{sub@fig:sns-brkdown-base}{{(a)}{a}}
\newlabel{fig:sns-brkdown-aaa}{{16b}{20}}
\newlabel{sub@fig:sns-brkdown-aaa}{{(b)}{b}}
\@writefile{lof}{\contentsline {figure}{\numberline {16}{\ignorespaces Breakdown of the average execution time of \emph  {read} micro-benchmark on a nonautonomic all-flash array (a) and Triple-A (b) under varying network sizes. Various queue stall times representing the resource contentions are largely decreased by Triple-A. \relax }}{20}}
\newlabel{fig:sens-brkdown}{{16}{20}}
\@writefile{lof}{\contentsline {subfigure}{\numberline{(a)}{\ignorespaces {Without Triple-A}}}{20}}
\@writefile{lof}{\contentsline {subfigure}{\numberline{(b)}{\ignorespaces {With Triple-A}}}{20}}
\newlabel{sec:brk-time}{{6.4}{20}}
\@writefile{toc}{\contentsline {subsection}{\numberline {6.5}Execution Time Breakdown}{20}}
\@writefile{toc}{\contentsline {subsection}{\numberline {6.6}Hot Cluster Size Sensitivity}{21}}
\newlabel{sec:sens}{{6.6}{21}}
\@writefile{toc}{\contentsline {subsection}{\numberline {6.7}Data Migration Overheads}{21}}
\newlabel{fig:tc-msnfs-brk-non}{{17a}{22}}
\newlabel{sub@fig:tc-msnfs-brk-non}{{(a)}{a}}
\newlabel{fig:tc-msnfs-brk-aaa}{{17b}{22}}
\newlabel{sub@fig:tc-msnfs-brk-aaa}{{(b)}{b}}
\newlabel{fig:tc-prn-brk-non}{{17c}{22}}
\newlabel{sub@fig:tc-prn-brk-non}{{(c)}{c}}
\newlabel{fig:tc-prn-brk-aaa}{{17d}{22}}
\newlabel{sub@fig:tc-prn-brk-aaa}{{(d)}{d}}
\@writefile{lof}{\contentsline {figure}{\numberline {17}{\ignorespaces The execution time breakdown of \emph  {msnfs} and \emph  {prn} under varying network sizes.\relax }}{22}}
\newlabel{fig:tc-enterprise-brk}{{17}{22}}
\@writefile{lof}{\contentsline {subfigure}{\numberline{(a)}{\ignorespaces {\emph {msnfs} without Triple-A}}}{22}}
\@writefile{lof}{\contentsline {subfigure}{\numberline{(b)}{\ignorespaces {\emph {msnfs} with Triple-A}}}{22}}
\@writefile{lof}{\contentsline {subfigure}{\numberline{(c)}{\ignorespaces {\emph {prn} without Triple-A}}}{22}}
\@writefile{lof}{\contentsline {subfigure}{\numberline{(d)}{\ignorespaces {\emph {prn} with Triple-A}}}{22}}
\newlabel{fig:def-rd-base}{{18a}{22}}
\newlabel{sub@fig:def-rd-base}{{(a)}{a}}
\newlabel{fig:def-rd-aaa}{{18b}{22}}
\newlabel{sub@fig:def-rd-aaa}{{(b)}{b}}
\@writefile{lof}{\contentsline {figure}{\numberline {18}{\ignorespaces Hot cluster sensitivity: IOPS and latency of \emph  {read} micro-benchmark with varying number of hot clusters on a non-autonomic all-flash array (a) and Triple-A (b). Note that, as the number of hot clusters increases, Triple-A tends to show stable latency and improved IOPS.\relax }}{22}}
\newlabel{fig:def-rd}{{18}{22}}
\@writefile{lof}{\contentsline {subfigure}{\numberline{(a)}{\ignorespaces {Baseline}}}{22}}
\@writefile{lof}{\contentsline {subfigure}{\numberline{(b)}{\ignorespaces {Triple-A}}}{22}}
\newlabel{fig:mig-base}{{19a}{23}}
\newlabel{sub@fig:mig-base}{{(a)}{a}}
\newlabel{fig:mig-naive}{{19b}{23}}
\newlabel{sub@fig:mig-naive}{{(b)}{b}}
\newlabel{fig:mig-cloning}{{19c}{23}}
\newlabel{sub@fig:mig-cloning}{{(c)}{c}}
\newlabel{fig:mig-aaa}{{19d}{23}}
\newlabel{sub@fig:mig-aaa}{{(d)}{d}}
\@writefile{lof}{\contentsline {figure}{\numberline {19}{\ignorespaces Latency series for I/O requests under the non-autonomic array (a), the data migration (b) and (c), and Triple-A (d). The difference between (b) and (c) is that the latter employs shadow cloning to minimize the migration overheads.\relax }}{23}}
\newlabel{fig:mig}{{19}{23}}
\@writefile{lof}{\contentsline {subfigure}{\numberline{(a)}{\ignorespaces {Latency of the non-autonomic all-flash array.}}}{23}}
\@writefile{lof}{\contentsline {subfigure}{\numberline{(b)}{\ignorespaces {Effectiveness of naive data migration.}}}{23}}
\@writefile{lof}{\contentsline {subfigure}{\numberline{(c)}{\ignorespaces {Effectiveness of data migration using shadow cloning. }}}{23}}
\@writefile{lof}{\contentsline {subfigure}{\numberline{(d)}{\ignorespaces {Improved latency with Triple-A. }}}{23}}
\@writefile{toc}{\contentsline {subsection}{\numberline {6.8}Multi-host (process) Environment}{23}}
\newlabel{sec:multi-process}{{6.8}{23}}
\citation{zhudedup,chunkstash}
\citation{altcomp}
\citation{scc}
\@writefile{lof}{\contentsline {figure}{\numberline {20}{\ignorespaces The average latency of the mixed workloads under 64- and 128-switches networks. \relax }}{24}}
\newlabel{fig:tc-workload-scale-1}{{20}{24}}
\@writefile{toc}{\contentsline {section}{\numberline {7}Discussion}{24}}
\citation{quicksan}
\citation{moneta,onyx}
\citation{hpc:iointensive,hpc:gordon}
\citation{diffraid}
\citation{dontraid}
\citation{ramsan}
\citation{violin}
\citation{msrsim}
\citation{nfs}
\@writefile{toc}{\contentsline {section}{\numberline {8}Related Work}{25}}
\@writefile{toc}{\contentsline {section}{\numberline {9}Conclusions and Future Work}{25}}
\bibstyle{acmsmall}
\bibdata{triplea-bib}
\bibcite{msrsim}{\citeauthoryear {Agrawal, Prabhakaran, Wobber, Davis, Manasse, and Panigrahy}{Agrawal et\nobreakspace  {}al\unhbox \voidb@x \hbox {.}}{2008}}
\bibcite{onyx}{\citeauthoryear {Akel, Caulfield, Mollov, Gupta, and Swanson}{Akel et\nobreakspace  {}al\unhbox \voidb@x \hbox {.}}{2011}}
\bibcite{diffraid}{\citeauthoryear {Balakrishnan, Kadav, Prabhakaran, and Malkhi}{Balakrishnan et\nobreakspace  {}al\unhbox \voidb@x \hbox {.}}{2010}}
\bibcite{luster}{\citeauthoryear {Borrill, Oliker, Shalf, and Shan}{Borrill et\nobreakspace  {}al\unhbox \voidb@x \hbox {.}}{2007}}
\bibcite{pcibook}{\citeauthoryear {Budruk, Anderson, and Solari}{Budruk et\nobreakspace  {}al\unhbox \voidb@x \hbox {.}}{2003}}
\bibcite{canim}{\citeauthoryear {Canim, Mihaila, Bhattacharjee, Ross, and Lang}{Canim et\nobreakspace  {}al\unhbox \voidb@x \hbox {.}}{2010}}
\bibcite{hpcband}{\citeauthoryear {Carns, Harms, Allcock, Bacon, Lang, Latham, and Ross}{Carns et\nobreakspace  {}al\unhbox \voidb@x \hbox {.}}{2011}}
\bibcite{hpc:iointensive}{\citeauthoryear {Caulfield, Coburn, Mollov, De, Akel, He, Jagatheesan, Gupta, Snavely, and Swanson}{Caulfield et\nobreakspace  {}al\unhbox \voidb@x \hbox {.}}{2010a}}
\bibcite{quicksan}{\citeauthoryear {Caulfield and Swanson}{Caulfield and Swanson}{2013}}
\bibcite{moneta}{\citeauthoryear {Caulfield, De, Coburn, Mollow, Gupta, and Swanson}{Caulfield et\nobreakspace  {}al\unhbox \voidb@x \hbox {.}}{2010b}}
\bibcite{hpc:gordon}{\citeauthoryear {Caulfield, Grupp, and Swanson}{Caulfield et\nobreakspace  {}al\unhbox \voidb@x \hbox {.}}{2009}}
\bibcite{ftl:gftl}{\citeauthoryear {Choudhuri and Givargis}{Choudhuri and Givargis}{2008}}
\bibcite{chunkstash}{\citeauthoryear {Debnath, Sengupta, and Li}{Debnath et\nobreakspace  {}al\unhbox \voidb@x \hbox {.}}{2010}}
\bibcite{emcflash}{\citeauthoryear {{EMC}}{{EMC}}{2014}}
\bibcite{dftl}{\citeauthoryear {Gupta, Kim, and Urgaonkar}{Gupta et\nobreakspace  {}al\unhbox \voidb@x \hbox {.}}{2009}}
\bibcite{hpc:dash}{\citeauthoryear {He, Bennett, and Snavely}{He et\nobreakspace  {}al\unhbox \voidb@x \hbox {.}}{2010}}
\bibcite{hu}{\citeauthoryear {Hu, Jiang, Feng, Tian, Luo, and Zhang}{Hu et\nobreakspace  {}al\unhbox \voidb@x \hbox {.}}{2011}}
\bibcite{dpas}{\citeauthoryear {Jung and Kandemir}{Jung and Kandemir}{2012}}
\bibcite{bgc}{\citeauthoryear {Jung, Prabhakar, and Kandemir}{Jung et\nobreakspace  {}al\unhbox \voidb@x \hbox {.}}{2012a}}
\bibcite{paq}{\citeauthoryear {Jung, Willson, and Kandemir}{Jung et\nobreakspace  {}al\unhbox \voidb@x \hbox {.}}{2012b}}
\bibcite{nfs}{\citeauthoryear {Jung, Wilson, Donofrio, Shalf, and Kandemir}{Jung et\nobreakspace  {}al\unhbox \voidb@x \hbox {.}}{2012c}}
\bibcite{ftl:ogc}{\citeauthoryear {Jung and Yoo}{Jung and Yoo}{2009}}
\bibcite{flashcache}{\citeauthoryear {Kgil, Roberts, and Mudge}{Kgil et\nobreakspace  {}al\unhbox \voidb@x \hbox {.}}{2008}}
\bibcite{ftl:fast}{\citeauthoryear {Lee, Choi, and Park}{Lee et\nobreakspace  {}al\unhbox \voidb@x \hbox {.}}{2006}}
\bibcite{liu}{\citeauthoryear {Liu, Huang, Xie, and Cao}{Liu et\nobreakspace  {}al\unhbox \voidb@x \hbox {.}}{2010}}
\bibcite{scc}{\citeauthoryear {Madhyastha, McCullough, Porter, Kapoor, Savage, Snoeren, and Vahdat}{Madhyastha et\nobreakspace  {}al\unhbox \voidb@x \hbox {.}}{2012}}
\bibcite{cliff}{\citeauthoryear {Master, Andrews, Hick, Canon, and Wright}{Master et\nobreakspace  {}al\unhbox \voidb@x \hbox {.}}{2010}}
\bibcite{dontraid}{\citeauthoryear {Moon and Reddy}{Moon and Reddy}{2013}}
\bibcite{o3}{\citeauthoryear {Nam, Eom, and Min}{Nam et\nobreakspace  {}al\unhbox \voidb@x \hbox {.}}{2011}}
\bibcite{nersc}{\citeauthoryear {NERSC}{NERSC}{2015}}
\bibcite{netapp}{\citeauthoryear {{NetApp}}{{NetApp}}{2013}}
\bibcite{spec:nvme}{\citeauthoryear {{NVMHCI Work Group}}{{NVMHCI Work Group}}{2014}}
\bibcite{onfi}{\citeauthoryear {{ONFI Working Group}}{{ONFI Working Group}}{2012}}
\bibcite{ou}{\citeauthoryear {Ou, H\"{a}rder, and Jin}{Ou et\nobreakspace  {}al\unhbox \voidb@x \hbox {.}}{2009}}
\bibcite{server:checkpoint}{\citeauthoryear {Ouyang, Marcarelli, and Panda}{Ouyang et\nobreakspace  {}al\unhbox \voidb@x \hbox {.}}{2010}}
\bibcite{ftl:reconfig}{\citeauthoryear {Park, Cheon, Lee, Jung, Cho, and Yoon}{Park et\nobreakspace  {}al\unhbox \voidb@x \hbox {.}}{2007}}
\bibcite{pal:pipeline}{\citeauthoryear {Park, Seo, Shin, Maeng, and Lee}{Park et\nobreakspace  {}al\unhbox \voidb@x \hbox {.}}{2010}}
\bibcite{spec:pcie}{\citeauthoryear {{PCI-SIG}}{{PCI-SIG}}{2012}}
\bibcite{plx}{\citeauthoryear {{PLX Technology}}{{PLX Technology}}{2012}}
\bibcite{altcomp}{\citeauthoryear {Policroniades and Pratt}{Policroniades and Pratt}{2004}}
\bibcite{pure}{\citeauthoryear {{Pure Storage}}{{Pure Storage}}{2013}}
\bibcite{umass}{\citeauthoryear {Repository}{Repository}{2007}}
\bibcite{spec:sata}{\citeauthoryear {{SATA-IO}}{{SATA-IO}}{2011}}
\bibcite{gpfs}{\citeauthoryear {Schmuck and Haskin}{Schmuck and Haskin}{2002}}
\bibcite{snia}{\citeauthoryear {SNIA}{SNIA}{2006}}
\bibcite{ramsan}{\citeauthoryear {{Texas Memory Systems}}{{Texas Memory Systems}}{2012}}
\bibcite{price}{\citeauthoryear {TrendForce}{TrendForce}{2015}}
\bibcite{violin}{\citeauthoryear {{Violin Memory}}{{Violin Memory}}{2014}}
\bibcite{ibm}{\citeauthoryear {Watts and Bachmaier}{Watts and Bachmaier}{2012}}
\bibcite{nvddr2}{\citeauthoryear {Workgroup"}{Workgroup"}{}}
\bibcite{ooc}{\citeauthoryear {Zhou, Saule, Aktulga, Yang, Ng, Maris, Vary, and Catalyurek}{Zhou et\nobreakspace  {}al\unhbox \voidb@x \hbox {.}}{2012}}
\bibcite{zhudedup}{\citeauthoryear {Zhu, Li, and Patterson}{Zhu et\nobreakspace  {}al\unhbox \voidb@x \hbox {.}}{2008}}
\lastpage{27}
